# #MIST v1.1 [Fe/H] = 0, v_init = 0, reprocessed track 
# #star_age 	 star_mass 	 logL 	 logT
1.969940832798499468e+04 1.999999859912965083e-01 -2.471832822593589274e-02 3.511730329164736819e+00
2.076595971245611145e+04 1.999999853731183053e-01 -2.977890330207880187e-02 3.511673079551850929e+00
2.185042448071589752e+04 1.999999847552855481e-01 -3.483485337702228041e-02 3.511616148590518183e+00
2.295306472817616304e+04 1.999999841378108656e-01 -3.988639582878377582e-02 3.511559532592222421e+00
2.407417534789483398e+04 1.999999835206908161e-01 -4.493307971061279854e-02 3.511503288706831150e+00
2.521404003803338856e+04 1.999999829039298405e-01 -4.997654841959390387e-02 3.511447408223316913e+00
2.754096994045510291e+04 1.999999816769299499e-01 -6.006322446980408986e-02 3.511337087509633026e+00
2.873252825052783010e+04 1.999999810645576581e-01 -6.506508739647288986e-02 3.511282923777872877e+00
2.994691123816935215e+04 1.999999804509904611e-01 -7.012805222124715576e-02 3.511228748778246533e+00
3.242408880308351945e+04 1.999999792311566438e-01 -8.007831224249517543e-02 3.511123263400703909e+00
3.369937635864694312e+04 1.999999786189273210e-01 -8.511865835657234092e-02 3.511070549383843442e+00
3.630143115989269427e+04 1.999999774013390685e-01 -9.503661700590945727e-02 3.510967463484628848e+00
3.764098773021536908e+04 1.999999767901995962e-01 -1.000151893135537429e-01 3.510916141031454885e+00
4.037972894783372612e+04 1.999999755721469374e-01 -1.099768525590008039e-01 3.510814418352584454e+00
4.178339566434202425e+04 1.999999749635363311e-01 -1.149700463093750319e-01 3.510764028268776205e+00
4.465189746100782213e+04 1.999999737509972897e-01 -1.248243590101389688e-01 3.510665823376956762e+00
4.762413372610375518e+04 1.999999725361190361e-01 -1.347278231740100807e-01 3.510569067141563249e+00
4.914879781511669717e+04 1.999999719285235344e-01 -1.396570540641392522e-01 3.510521672013502403e+00
5.226480165804711578e+04 1.999999707176314812e-01 -1.494876803013285571e-01 3.510434916427234597e+00
5.545022260672753328e+04 1.999999695205044448e-01 -1.592300924779722071e-01 3.510343757759654348e+00
5.875528361206669797e+04 1.999999683190363531e-01 -1.689849636032373370e-01 3.510255673006640098e+00
6.218295899878865021e+04 1.999999671138020241e-01 -1.787209622383096885e-01 3.510169972043176045e+00
6.573583940722368425e+04 1.999999659053963708e-01 -1.885015046170820940e-01 3.510086340246824754e+00
6.940107149187945470e+04 1.999999646996805658e-01 -1.982171450563740556e-01 3.510005836017108027e+00
7.317965198398486245e+04 1.999999634972770279e-01 -2.079204472805527004e-01 3.509927526294562394e+00
7.708755044680820720e+04 1.999999622942105204e-01 -2.175892643981705288e-01 3.509851495888949735e+00
8.111510086480592145e+04 1.999999610946164574e-01 -2.272418844119100945e-01 3.509777958116398366e+00
8.525826055743002507e+04 1.999999599005575501e-01 -2.368427221174649044e-01 3.509706442126152126e+00
9.175277812199317850e+04 1.999999581041475016e-01 -2.512044952233972728e-01 3.509604535375737466e+00
9.627699007380055264e+04 1.999999569029491664e-01 -2.608110479680590954e-01 3.509540097639278322e+00
1.009479246811203775e+05 1.999999557028336594e-01 -2.703885110154273796e-01 3.509479831491792101e+00
1.057601616727995861e+05 1.999999545062149942e-01 -2.798577643569162277e-01 3.509427833953959297e+00
1.132790893587123282e+05 1.999999527110875586e-01 -2.940878351534797486e-01 3.509346096774209833e+00
1.185115276782724395e+05 1.999999515115085946e-01 -3.035420509195677075e-01 3.509295175765720476e+00
1.266862949094077048e+05 1.999999497119013814e-01 -3.176850205992092224e-01 3.509223879449309358e+00
1.323719680089364410e+05 1.999999485097123109e-01 -3.270999555233456979e-01 3.509179391358135280e+00
1.412469072058097518e+05 1.999999467073752812e-01 -3.410964623534578077e-01 3.509123615668349405e+00
1.474280807757338625e+05 1.999999455013034000e-01 -3.503942041541145413e-01 3.509085415954772635e+00
1.571396633963955101e+05 1.999999436806826902e-01 -3.643450718822544010e-01 3.509032741022461099e+00
1.639152968496168323e+05 1.999999424600702458e-01 -3.735906635739761339e-01 3.509000769628917826e+00
1.745571871080260025e+05 1.999999406177193906e-01 -3.873947108126575278e-01 3.508956620415577987e+00
1.820153668532508891e+05 1.999999393764572697e-01 -3.965670129715538339e-01 3.508931452652022109e+00
1.937532078454865259e+05 1.999999374983748857e-01 -4.101607949233277983e-01 3.508894459949511102e+00
2.020241876311549568e+05 1.999999362254554769e-01 -4.192017202008869736e-01 3.508871762189270882e+00
2.152068424137657858e+05 1.999999342740585717e-01 -4.326670874352219753e-01 3.508840617921795246e+00
2.245869730670754216e+05 1.999999329379667512e-01 -4.415558308887617134e-01 3.508821795480007388e+00
2.397037920795064420e+05 1.999999308657293140e-01 -4.547804755992901349e-01 3.508796141434880500e+00
2.506165360413286253e+05 1.999999294251762483e-01 -4.634765476102978843e-01 3.508782068481470340e+00
2.684360167411296279e+05 1.999999271592987904e-01 -4.762601698154152463e-01 3.508766059876451848e+00
2.816462148183134850e+05 1.999999255396894826e-01 -4.846695176285823470e-01 3.508754713296876826e+00
2.962032500114273280e+05 1.999999238057755535e-01 -4.929387569817259562e-01 3.508744304250661639e+00
3.124188521592282341e+05 1.999999219284790963e-01 -5.010561177576013936e-01 3.508734657782921040e+00
3.307712574706744635e+05 1.999999198621678353e-01 -5.089796034896176824e-01 3.508725815692962602e+00
3.519041681493579526e+05 1.999999175467353507e-01 -5.167192942144388512e-01 3.508718538008634091e+00
3.637954341577038867e+05 1.999999162693796295e-01 -5.205076170498962318e-01 3.508716829833781414e+00
3.908272073963313596e+05 1.999999134225699249e-01 -5.279746381727210558e-01 3.508710143342219645e+00
4.063652368430469651e+05 1.999999118171018608e-01 -5.316953419590032537e-01 3.508707104669306798e+00
4.420592818941607838e+05 1.999999082002481277e-01 -5.391456209966091206e-01 3.508701350251075546e+00
4.624933538633800345e+05 1.999999061687027790e-01 -5.429351422673551752e-01 3.508698649204669451e+00
4.847703432896927698e+05 1.999999039826922398e-01 -5.468345489163102258e-01 3.508695883673227378e+00
5.088450338206907618e+05 1.999999016517637340e-01 -5.508881605814631710e-01 3.508693124622745074e+00
5.344433306812889641e+05 1.999998992076491289e-01 -5.551193586394183033e-01 3.508690217650383580e+00
5.886059847609556746e+05 1.999998941497523608e-01 -5.641615787281950567e-01 3.508684348466765357e+00
6.163557085254739504e+05 1.999998916184250186e-01 -5.689836323350228042e-01 3.508681654001954975e+00
6.438909790180480340e+05 1.999998891479890517e-01 -5.739720847453516628e-01 3.508679057956360925e+00
6.708419868914345279e+05 1.999998867711210160e-01 -5.790985822343780454e-01 3.508676546117692752e+00
7.217391506739541655e+05 1.999998823992227837e-01 -5.895923891622443236e-01 3.508671864782650918e+00
7.679488825768646784e+05 1.999998785715001448e-01 -6.002477491566230450e-01 3.508667314067747789e+00
8.093825043915433343e+05 1.999998752633588284e-01 -6.109098160727519655e-01 3.508662765834758002e+00
8.464694103413708508e+05 1.999998724091496816e-01 -6.215040174950322571e-01 3.508658316874474714e+00
8.952199918996167835e+05 1.999998688225371468e-01 -6.370898859308593565e-01 3.508651708133920355e+00
9.378050752131305635e+05 1.999998658530540152e-01 -6.523700262358311797e-01 3.508644097943189877e+00
9.878437409544589464e+05 1.999998625689137499e-01 -6.720974655629878836e-01 3.508633035432272784e+00
1.033395886849435279e+06 1.999998597747309481e-01 -6.912232210898321405e-01 3.508621471097836064e+00
1.087644815303935204e+06 1.999998566824967017e-01 -7.143013679335399324e-01 3.508603473609560819e+00
1.131279044390242780e+06 1.999998543663801254e-01 -7.322503712452012037e-01 3.508589510293716351e+00
1.188065449012398953e+06 1.999998515539603838e-01 -7.543176737243904029e-01 3.508561839702436291e+00
1.249322262592299376e+06 1.999998487428457372e-01 -7.764204653097168674e-01 3.508527503763399835e+00
1.301751285878305323e+06 1.999998464956395661e-01 -7.940195712803097550e-01 3.508496486796542246e+00
1.371484423721310683e+06 1.999998437036503707e-01 -8.159103665855769183e-01 3.508451530525977802e+00
1.431282599384466652e+06 1.999998414664688196e-01 -8.334583768264665071e-01 3.508413442057128684e+00
1.495111721201039385e+06 1.999998392187403162e-01 -8.510927113230356555e-01 3.508374008038410707e+00
1.579784126563420519e+06 1.999998364334495404e-01 -8.729593978759111472e-01 3.508322531080050766e+00
1.652654940590695944e+06 1.999998341935048107e-01 -8.905451688828061041e-01 3.508280986227128473e+00
1.729642781539771473e+06 1.999998319657775858e-01 -9.080442775908227349e-01 3.508238096714855647e+00
1.811355760492478032e+06 1.999998297395146896e-01 -9.255221299471581009e-01 3.508198298523599767e+00
1.898066996140489355e+06 1.999998275150103588e-01 -9.429829954347057619e-01 3.508160111201311437e+00
2.014061654991051648e+06 1.999998247341593927e-01 -9.648091062697290443e-01 3.508113746438001890e+00
2.113211695896591060e+06 1.999998225123629791e-01 -9.822349323567951540e-01 3.508080584722734763e+00
2.217380575531698298e+06 1.999998203135954222e-01 -9.994847874873661331e-01 3.508047820935771277e+00
2.328385111619492061e+06 1.999998181059183255e-01 -1.016781506770260135e+00 3.508020757417802393e+00
2.446280342641400173e+06 1.999998158968888107e-01 -1.034077318166069848e+00 3.507996836749794678e+00
2.571330820478717331e+06 1.999998136893629264e-01 -1.051351823488426707e+00 3.507975712329498563e+00
2.703825370774068870e+06 1.999998114855803255e-01 -1.068587683315705084e+00 3.507957542026728603e+00
2.843727838754819706e+06 1.999998092926041360e-01 -1.085734737920724724e+00 3.507941450296667263e+00
2.953937916263597086e+06 1.999998076520700940e-01 -1.098558647146690159e+00 3.507930860845393184e+00
3.108164211979533546e+06 1.999998054717374019e-01 -1.115603049216394416e+00 3.507917101016604366e+00
3.271454726188244298e+06 1.999998032950713878e-01 -1.132604998866674872e+00 3.507907338530744212e+00
3.445568978316604160e+06 1.999998011066176085e-01 -1.149698589844002417e+00 3.507897634950980503e+00
3.629706549022084102e+06 1.999997989245937968e-01 -1.166738037781993587e+00 3.507889609437796707e+00
3.822948492229763418e+06 1.999997967650726238e-01 -1.183619099638146377e+00 3.507878647722259657e+00
4.029636957081526052e+06 1.999997945864022131e-01 -1.200651343981671282e+00 3.507867393707616355e+00
4.192781567472810857e+06 1.999997929528222751e-01 -1.213423040172072032e+00 3.507859101642566202e+00
4.418800435856615193e+06 1.999997908026354132e-01 -1.230246486756721103e+00 3.507845618214728400e+00
4.660508877345422283e+06 1.999997886332990360e-01 -1.247220180417004887e+00 3.507831270223499942e+00
4.915722376165255904e+06 1.999997864728176311e-01 -1.264134713289339240e+00 3.507814298601107605e+00
5.185882580373516306e+06 1.999997843154072141e-01 -1.281025942117519412e+00 3.507796781211029113e+00
5.399908612538266927e+06 1.999997826911869836e-01 -1.293743760179743241e+00 3.507782624405503924e+00
5.698441120370206423e+06 1.999997805384912120e-01 -1.310601865410355504e+00 3.507762696326974350e+00
6.015500627531263977e+06 1.999997783814445040e-01 -1.327494062421309184e+00 3.507741429573468572e+00
6.351750743357621133e+06 1.999997762232724741e-01 -1.344387738052064574e+00 3.507720793695650485e+00
6.616302382834755816e+06 1.999997746094697160e-01 -1.357011493137207037e+00 3.507706687877814922e+00
6.987172543313875794e+06 1.999997724592756931e-01 -1.373833866333424858e+00 3.507685422027275735e+00
7.379610484997278079e+06 1.999997703121549342e-01 -1.390624026615995490e+00 3.507663966536149758e+00
7.689523270308187231e+06 1.999997687002200153e-01 -1.403212396984174104e+00 3.507650514924844032e+00
8.119967132446255535e+06 1.999997665716338746e-01 -1.419850824990556815e+00 3.507627389197659706e+00
8.578217818175470456e+06 1.999997644320617440e-01 -1.436556250861886985e+00 3.507605909858948046e+00
8.940845997084265575e+06 1.999997628221382440e-01 -1.449122539067213333e+00 3.507588286040951076e+00
9.449137579010361806e+06 1.999997606768187108e-01 -1.465860316803494268e+00 3.507563090153554164e+00
9.987342668163813651e+06 1.999997585325309635e-01 -1.482580187974945396e+00 3.507535496286106280e+00
1.041167192167356983e+07 1.999997569249422069e-01 -1.495111365459071973e+00 3.507512157122583130e+00
1.100560777149441093e+07 1.999997547853600843e-01 -1.511790576725674962e+00 3.507475415569824673e+00
1.163298583904271945e+07 1.999997526512706236e-01 -1.528407059850527272e+00 3.507437077093182864e+00
1.213021594908287190e+07 1.999997510425002567e-01 -1.540928814025187776e+00 3.507405030933817613e+00
1.282522119390222803e+07 1.999997489040176157e-01 -1.557555592454560323e+00 3.507360759431934483e+00
1.356176538430644572e+07 1.999997467637906479e-01 -1.574182569983906266e+00 3.507312627412831674e+00
1.414484459017860144e+07 1.999997451521779435e-01 -1.586693410761482070e+00 3.507273970451984191e+00
1.496232680203101784e+07 1.999997430033895185e-01 -1.603354152513052355e+00 3.507220874079169715e+00
1.582808236017610319e+07 1.999997408543339739e-01 -1.619970561863179004e+00 3.507171330694621503e+00
1.651103878669006005e+07 1.999997392416353603e-01 -1.632429036238577158e+00 3.507131172279164488e+00
1.746372101329770684e+07 1.999997371015004854e-01 -1.648924434076945111e+00 3.507079505701721889e+00
1.847791143656035885e+07 1.999997349490358067e-01 -1.665465284453284234e+00 3.507029696727361312e+00
1.927880721683935821e+07 1.999997333316711479e-01 -1.677861498792664996e+00 3.506993326438409220e+00
2.040365661051605269e+07 1.999997311704848624e-01 -1.694379197509675361e+00 3.506946099655020799e+00
2.129199269560742751e+07 1.999997295463758484e-01 -1.706746778193321212e+00 3.506913394502919168e+00
2.253804549917495623e+07 1.999997273786245922e-01 -1.723182345007690186e+00 3.506875580539954296e+00
2.385948837951555103e+07 1.999997252061652686e-01 -1.739596210135610832e+00 3.506838510124064889e+00
2.490237503979431093e+07 1.999997235742325685e-01 -1.751876846695082923e+00 3.506815031299547414e+00
2.636314043492547050e+07 1.999997213984620603e-01 -1.768192373496690450e+00 3.506788577797172124e+00
2.751760886967199296e+07 1.999997197613684885e-01 -1.780423575995192520e+00 3.506773233348756236e+00
2.913548170676027983e+07 1.999997175773136626e-01 -1.796681555121585339e+00 3.506760213129320292e+00
3.084772968625098467e+07 1.999997153918234571e-01 -1.812888388444655829e+00 3.506755596588126522e+00
3.219681210375848413e+07 1.999997137520024837e-01 -1.825008398956696976e+00 3.506758571949697867e+00
3.408173348582167923e+07 1.999997115700349049e-01 -1.841095056544035824e+00 3.506768462213887716e+00
3.556576190894658864e+07 1.999997099335690254e-01 -1.853127064152821024e+00 3.506781295243609708e+00
3.763246529559163749e+07 1.999997077624035557e-01 -1.869037566266967598e+00 3.506808489849184696e+00
3.982495618382474035e+07 1.999997055826009673e-01 -1.884968773187176483e+00 3.506843033232147633e+00
4.155452263936715573e+07 1.999997039440050972e-01 -1.896914048153536703e+00 3.506874982592558698e+00
4.397179919214507192e+07 1.999997017618732331e-01 -1.912792785989496647e+00 3.506923665225268660e+00
4.652234204367029667e+07 1.999996995826706092e-01 -1.928614824028345831e+00 3.506980519139592634e+00
4.852631690218137205e+07 1.999996979505966610e-01 -1.940417097764571608e+00 3.507034667409741679e+00
5.132169082085933536e+07 1.999996957803337472e-01 -1.956098982809800546e+00 3.507108736932325943e+00
5.427259917373298109e+07 1.999996936107671930e-01 -1.971747542204655534e+00 3.507187824255763253e+00
5.659382753746275604e+07 1.999996919833585685e-01 -1.983456146634307693e+00 3.507251565974414120e+00
5.982620019555161148e+07 1.999996898222061170e-01 -1.998963923676600807e+00 3.507343873961880298e+00
6.324150532843804359e+07 1.999996876587280537e-01 -2.014461676563406911e+00 3.507436468986941502e+00
6.593770557072775811e+07 1.999996860294749879e-01 -2.026099337039156900e+00 3.507508445222898619e+00
6.970348012792584300e+07 1.999996838589150616e-01 -2.041540164365192034e+00 3.507609100193778584e+00
7.369182141641226411e+07 1.999996816804481270e-01 -2.056965615799497105e+00 3.507710662454134987e+00
7.790752935029223561e+07 1.999996794981010462e-01 -2.072326235304815523e+00 3.507813062874044263e+00
8.123732150216431916e+07 1.999996778531256403e-01 -2.083836119612227478e+00 3.507888745107838879e+00
8.592163058330701292e+07 1.999996756448798041e-01 -2.099166154057393374e+00 3.507989388952485577e+00
9.089886063664893806e+07 1.999996734204179949e-01 -2.114434914791978315e+00 3.508090085466931018e+00
9.484889401742930710e+07 1.999996717351947839e-01 -2.125872749105740755e+00 3.508162716469929165e+00
1.004356548909705877e+08 1.999996694600378322e-01 -2.141089271232235802e+00 3.508257375696793634e+00
1.064288188666538298e+08 1.999996671452211605e-01 -2.156254573074782854e+00 3.508348389334710049e+00
1.112275682325602323e+08 1.999996653751991982e-01 -2.167582350559488003e+00 3.508416809156484462e+00
1.180510560281962454e+08 1.999996629713505780e-01 -2.182547131057446244e+00 3.508504027820428917e+00
1.235719306456640363e+08 1.999996611128463664e-01 -2.193757355107856188e+00 3.508562046791331213e+00
1.295120629101110548e+08 1.999996591896745501e-01 -2.204959367133190185e+00 3.508618221117062230e+00
1.381621482772052288e+08 1.999996565136774318e-01 -2.219791487536733054e+00 3.508688522636013385e+00
1.453264889844775200e+08 1.999996543946015448e-01 -2.230845383234228763e+00 3.508737210047997657e+00
1.531965814025484920e+08 1.999996521543022931e-01 -2.241804538359318588e+00 3.508781805411151478e+00
1.619418549862186313e+08 1.999996497575979859e-01 -2.252642918759512725e+00 3.508822496042676153e+00
1.718034937315364480e+08 1.999996471544058241e-01 -2.263325266897650234e+00 3.508859699291881462e+00
1.791735755912968218e+08 1.999996452675575631e-01 -2.270340474443625745e+00 3.508883364055954246e+00
1.917565220902793109e+08 1.999996421428230642e-01 -2.280631059058803256e+00 3.508914426380750129e+00
2.015343430136158168e+08 1.999996397849066743e-01 -2.287329104410858793e+00 3.508932877164956388e+00
2.128112439605616331e+08 1.999996371275838403e-01 -2.293844352468235037e+00 3.508949848814431505e+00
2.261236159768863320e+08 1.999996340601658540e-01 -2.300112141378202413e+00 3.508965518160022334e+00
2.423537682315462232e+08 1.999996304000159764e-01 -2.306060086638682893e+00 3.508979942323468659e+00
2.520245903852159679e+08 1.999996282518200774e-01 -2.308886885845182757e+00 3.508986650048684375e+00
2.758764297732133865e+08 1.999996230313813850e-01 -2.314113339600540442e+00 3.509000061441132523e+00
2.911309215914905071e+08 1.999996197361726125e-01 -2.316474064970538205e+00 3.509005794592925831e+00
3.094383988624607325e+08 1.999996158136537749e-01 -2.318585174164077056e+00 3.509011981169019467e+00
3.314257710622692704e+08 1.999996111369674034e-01 -2.320384760914025790e+00 3.509016815272408163e+00
3.315361679101343751e+08 1.999996111134981769e-01 -2.320393538379782239e+00 3.509016838566550334e+00
3.579651732890505791e+08 1.999996055270790718e-01 -2.321835814210408522e+00 3.509021163957006806e+00
3.897064749872376919e+08 1.999995988511276412e-01 -2.322914425093876467e+00 3.509025008869402829e+00
4.278278313172473907e+08 1.999995908631228003e-01 -2.323661645169150525e+00 3.509028574514756471e+00
4.280185970703583360e+08 1.999995908231573527e-01 -2.323665239985186037e+00 3.509028592082783504e+00
4.738405309676143527e+08 1.999995812464388234e-01 -2.324134990375985588e+00 3.509031993822453899e+00
4.740694498713475466e+08 1.999995811986005900e-01 -2.324137242770825118e+00 3.509032010620837916e+00
5.291473381095480323e+08 1.999995697062089683e-01 -2.324400207036578792e+00 3.509035526774672675e+00
5.294220407940278053e+08 1.999995696488936769e-01 -2.324401464511771209e+00 3.509035544209742064e+00
5.956253877536603212e+08 1.999995558478313840e-01 -2.324526365243190895e+00 3.509039483679193161e+00
5.959550309750361443e+08 1.999995557791141576e-01 -2.324526960619627491e+00 3.509039503255726444e+00
6.755309046151453257e+08 1.999995391977864856e-01 -2.324565221985489760e+00 3.509043932712072156e+00
6.759264764807963371e+08 1.999995391153614466e-01 -2.324565401094544015e+00 3.509043954699756274e+00
7.715757535951877832e+08 1.999995191878222445e-01 -2.324552927550539216e+00 3.509049226204967287e+00
7.720504398339688778e+08 1.999995190889264363e-01 -2.324552862169277034e+00 3.509049252363470206e+00
7.725251260727499723e+08 1.999995189900306281e-01 -2.324552796788014852e+00 3.509049278521973569e+00
7.732833666078095436e+08 1.999995188320559669e-01 -2.324552509637404896e+00 3.509049319805235267e+00
7.740416071428692341e+08 1.999995186740813058e-01 -2.324552222486794495e+00 3.509049361088496966e+00
8.897491127929655313e+08 1.999994945670787727e-01 -2.324508116831209836e+00 3.509055660401044552e+00
8.906590014350371361e+08 1.999994943774861811e-01 -2.324507676759650643e+00 3.509055709769897113e+00
8.915688900771086216e+08 1.999994941878936172e-01 -2.324507236688091893e+00 3.509055759138750119e+00
1.030963830042467237e+09 1.999994651420456404e-01 -2.324439437082700177e+00 3.509063321152326775e+00
1.032055696412953138e+09 1.999994649144901104e-01 -2.324438845556398903e+00 3.509063380179168412e+00
1.033147562783438921e+09 1.999994646869345805e-01 -2.324438254030097184e+00 3.509063439206010493e+00
1.201076610564160824e+09 1.999994296882371958e-01 -2.324346676670478562e+00 3.509072515078037746e+00
1.202386850208744049e+09 1.999994294150974627e-01 -2.324345900103977236e+00 3.509072585637333486e+00
1.203697089853327036e+09 1.999994291419577297e-01 -2.324345123537476354e+00 3.509072656196629225e+00
1.205007329497910023e+09 1.999994288688180244e-01 -2.324344346970975472e+00 3.509072726755924965e+00
1.407570378550442696e+09 1.999993866398996623e-01 -2.324223124806106711e+00 3.509083637023806101e+00
1.409142666123942375e+09 1.999993863120152204e-01 -2.324222103312165277e+00 3.509083721833480496e+00
1.410714953697442055e+09 1.999993859841308341e-01 -2.324221081818224288e+00 3.509083806643154890e+00
1.654733985104581118e+09 1.999993350934844705e-01 -2.324060565845847304e+00 3.509096959037983243e+00
1.656620730192780733e+09 1.999993346998366062e-01 -2.324059216296071817e+00 3.509097060180426109e+00
1.658507475280980110e+09 1.999993343061887696e-01 -2.324057866746296774e+00 3.509097161322869418e+00
1.952462360022466660e+09 1.999992729701630390e-01 -2.323844289500310634e+00 3.509112911345368957e+00
1.954726454128306150e+09 1.999992724974861413e-01 -2.323842495441055700e+00 3.509113032296820922e+00
1.956990548234145641e+09 1.999992720248092437e-01 -2.323840701381800766e+00 3.509113153248272443e+00
1.959254642339984894e+09 1.999992715521323183e-01 -2.323838907322545833e+00 3.509113274199724408e+00
2.313811779314440727e+09 1.999991975198091854e-01 -2.323552544175629286e+00 3.509132189273745261e+00
2.316528692241447926e+09 1.999991969521134894e-01 -2.323550155936367378e+00 3.509132333288387251e+00
2.319245605168455124e+09 1.999991963844177656e-01 -2.323547767697105471e+00 3.509132477303028796e+00
2.746344317294006824e+09 1.999991071223443106e-01 -2.323163525241011218e+00 3.509155091586892539e+00
2.749604612806415081e+09 1.999991064403283947e-01 -2.323160320459892514e+00 3.509155263449930118e+00
2.752864908318824291e+09 1.999991057583125342e-01 -2.323157115678773810e+00 3.509155435312968141e+00
2.756125203831233025e+09 1.999991050762966183e-01 -2.323153910897654661e+00 3.509155607176006164e+00
3.271251894791821480e+09 1.999989972796405724e-01 -2.322634175907336118e+00 3.509182704049806922e+00
3.275164249406711578e+09 1.999989964599500070e-01 -2.322629884184208571e+00 3.509182908369246512e+00
3.279076604021602631e+09 1.999989956402594138e-01 -2.322625592461081023e+00 3.509183112688686101e+00
3.899576045943242073e+09 1.999988655691997130e-01 -2.321925766838671468e+00 3.509215410860272222e+00
3.904270871481110573e+09 1.999988645835063528e-01 -2.321920036215330718e+00 3.509215652804462238e+00
3.908965697018979549e+09 1.999988635978130203e-01 -2.321914305591989969e+00 3.509215894748652698e+00
3.913660522556848049e+09 1.999988626121196600e-01 -2.321908574968649219e+00 3.509216136692843158e+00
4.662015713293111801e+09 1.999987053689540328e-01 -2.320968772336305719e+00 3.509254536646870370e+00
4.667649503938553810e+09 1.999987041827802625e-01 -2.320961183662030969e+00 3.509254822494765946e+00
4.673283294583996773e+09 1.999987029966064644e-01 -2.320953594987756219e+00 3.509255108342661522e+00
4.678917085229438782e+09 1.999987018104326941e-01 -2.320946006313481025e+00 3.509255394190557098e+00
5.442859096751426697e+09 1.999985408553494326e-01 -2.319898880535719687e+00 3.509294132696000545e+00
5.985055108468801498e+09 1.999984261783183670e-01 -2.319091532284496715e+00 3.509321380734349738e+00
5.989111437733519554e+09 1.999984253189217853e-01 -2.319085391079129366e+00 3.509321581742931073e+00
5.993167766998237610e+09 1.999984244595252036e-01 -2.319079249873761572e+00 3.509321782751511520e+00
6.646236778617918015e+09 1.999982859542795144e-01 -2.318077126651069353e+00 3.509353996967143452e+00
6.651104373735580444e+09 1.999982849198392310e-01 -2.318069459667772225e+00 3.509354234884865420e+00
7.436734225726263046e+09 1.999981177370673546e-01 -2.316815520455855371e+00 3.509392401248961235e+00
7.442575339867458344e+09 1.999981164909706566e-01 -2.316805969265095300e+00 3.509392681780945544e+00
8.215938852161630630e+09 1.999979513319752877e-01 -2.315534970141522653e+00 3.509429729702653766e+00
8.219443520646348000e+09 1.999979505807295832e-01 -2.315529108376720657e+00 3.509429896093006374e+00
8.787900748867412567e+09 1.999978285932131339e-01 -2.314573950014814141e+00 3.509456742359707615e+00
9.470890543169021606e+09 1.999976815569199928e-01 -2.313415745620094999e+00 3.509488529882700547e+00
9.475937265787014008e+09 1.999976804680508313e-01 -2.313407164770758140e+00 3.509488762567302800e+00
1.029754370799614143e+10 1.999975028950821410e-01 -2.312010367532210786e+00 3.509526379312535749e+00
1.108483243640292168e+10 1.999973320722166492e-01 -2.310670513713199981e+00 3.509561948175403678e+00
1.167784253090747452e+10 1.999972027389175788e-01 -2.309661208729020032e+00 3.509588387155422318e+00
1.168220289924942017e+10 1.999972017861893492e-01 -2.309653824576024306e+00 3.509588580033808469e+00
1.239555915999166107e+10 1.999970456728736301e-01 -2.308451865721941498e+00 3.509619948642127341e+00
1.325263316128442001e+10 1.999968573481341605e-01 -2.307028220167938848e+00 3.509657038928763129e+00
1.405633625407176781e+10 1.999966800487872065e-01 -2.305709757250756997e+00 3.509691370592535886e+00
1.467493647830152893e+10 1.999965428840112525e-01 -2.304709063470649077e+00 3.509717480142007240e+00
1.541816091335663033e+10 1.999963775303638669e-01 -2.303528931810318703e+00 3.509748421046153588e+00
1.631111523459801483e+10 1.999961780750343365e-01 -2.302144358941252023e+00 3.509785021525553717e+00
1.631762522964959145e+10 1.999961766175549771e-01 -2.302134409324585906e+00 3.509785286012783168e+00
1.777846811922358704e+10 1.999958483512448981e-01 -2.299932867066636355e+00 3.509844121291934016e+00
1.855279297063842392e+10 1.999956733156773303e-01 -2.298805697967946315e+00 3.509874747175557808e+00
1.925699736335370636e+10 1.999955136346113771e-01 -2.297798912770512736e+00 3.509902347047285875e+00
2.048244799793569183e+10 1.999952342646799663e-01 -2.296101227148960700e+00 3.509949575886711415e+00
2.128818381504220581e+10 1.999950497927587834e-01 -2.295023317966252918e+00 3.509980151234796786e+00
2.258863559222980118e+10 1.999947506794674812e-01 -2.293333047231354449e+00 3.510028858907499050e+00
2.328647084543776703e+10 1.999945894399169366e-01 -2.292456722899324006e+00 3.510054602622738606e+00
2.486372967333828735e+10 1.999942234540340036e-01 -2.290546068002209168e+00 3.510111922859483258e+00
2.618901404724004364e+10 1.999939140051034403e-01 -2.289011944089445194e+00 3.510159224085210639e+00
2.706036711944033051e+10 1.999937097647730699e-01 -2.288040571284104097e+00 3.510189876331205383e+00
2.844951705325028610e+10 1.999933828099934030e-01 -2.286539089741996378e+00 3.510238142488844915e+00
3.010434065815597153e+10 1.999929911977500474e-01 -2.284838386066174287e+00 3.510294604246463557e+00
3.154097163640391922e+10 1.999926494926119735e-01 -2.283423636377797106e+00 3.510342916019880910e+00
3.299800558229083252e+10 1.999923012969190839e-01 -2.282050262610636704e+00 3.510391199707835419e+00
3.423777225663741684e+10 1.999920036898853448e-01 -2.280926691344264512e+00 3.510431742172753111e+00
3.632908707163608551e+10 1.999914993397280405e-01 -2.279119288739015481e+00 3.510499119489026043e+00
3.787524408884698486e+10 1.999911245444321861e-01 -2.277851869541178687e+00 3.510548106587174644e+00
3.992863450727249146e+10 1.999906244313751080e-01 -2.276245052235562394e+00 3.510612314562707503e+00
4.217457433107908630e+10 1.999900745095256616e-01 -2.274586553466592331e+00 3.510681351928541361e+00
4.384257048927388000e+10 1.999896641812629050e-01 -2.273417892777388261e+00 3.510731873681447013e+00
4.604722377320485687e+10 1.999891194802337901e-01 -2.271943063725091250e+00 3.510797855884497665e+00
4.876602641416333008e+10 1.999884441626906817e-01 -2.270229421963722682e+00 3.510877962290204657e+00
5.073936319327392578e+10 1.999879517023526454e-01 -2.269051718289400554e+00 3.510935352844376744e+00
5.363023085522108459e+10 1.999872269794057411e-01 -2.267422604491920790e+00 3.511018226690004518e+00
5.586827213059017944e+10 1.999866633751436473e-01 -2.266230156062475576e+00 3.511081581283383990e+00
5.894734104961573029e+10 1.999858845195259249e-01 -2.264682604967055202e+00 3.511167571279623978e+00
6.163277958676979065e+10 1.999852020920682427e-01 -2.263409327489792844e+00 3.511241693134935282e+00
6.441722022809626770e+10 1.999844916523506044e-01 -2.262160735078334373e+00 3.511317634965838597e+00
6.818598075897999573e+10 1.999835257209733874e-01 -2.260574833191256960e+00 3.511419215479041789e+00
7.121303298775373840e+10 1.999827464709480473e-01 -2.259379612700561868e+00 3.511499861340076301e+00
7.460318615848432922e+10 1.999818703303689049e-01 -2.258114523448568889e+00 3.511589315601058914e+00
7.806780412855010986e+10 1.999809714173861053e-01 -2.256896302546229638e+00 3.511679888275879513e+00
8.183532933047552490e+10 1.999799901695965831e-01 -2.255650098922794111e+00 3.511777433231023871e+00
8.624126893177619934e+10 1.999788379860675536e-01 -2.254282819443343300e+00 3.511890566422186666e+00
9.038704919883763123e+10 1.999777495025770457e-01 -2.253077398061141157e+00 3.511996153074647520e+00
9.545623924219683838e+10 1.999764132857619614e-01 -2.251697624314363821e+00 3.512124375744492433e+00
9.985029035059521484e+10 1.999752506663582396e-01 -2.250577195862156543e+00 3.512234786900105377e+00
1.045797040883036194e+11 1.999739950173291814e-01 -2.249438503326433025e+00 3.512353155406653382e+00
1.097366072861890717e+11 1.999726211801591824e-01 -2.248270213546187613e+00 3.512481685947891563e+00
1.148416892211008301e+11 1.999712566023024440e-01 -2.247178386477549861e+00 3.512608625688893760e+00
1.209967689815800171e+11 1.999696057102663682e-01 -2.245937850494660992e+00 3.512761347002100187e+00
1.269973306455489197e+11 1.999679907581022875e-01 -2.244798417355274189e+00 3.512910144582540806e+00
1.332808991638877869e+11 1.999662941257485393e-01 -2.243667887610786504e+00 3.513066108390483056e+00
1.391794769888071289e+11 1.999646966550161220e-01 -2.242657970742370832e+00 3.513212738104664723e+00
1.468114727915548096e+11 1.999626232082081789e-01 -2.241413135304203497e+00 3.513403033319259183e+00
1.533866912439703064e+11 1.999608313138193372e-01 -2.240388130205232642e+00 3.513567689626657220e+00
1.609541702090855713e+11 1.999587629266579292e-01 -2.239254073300196435e+00 3.513758103138580502e+00
1.689307351594400635e+11 1.999565760589924746e-01 -2.238101878710518022e+00 3.513960149133748878e+00
1.773528553987221375e+11 1.999542598794551707e-01 -2.236924367248560586e+00 3.514175156960371638e+00
1.860487439640583801e+11 1.999518610689949016e-01 -2.235741716790474065e+00 3.514399106803288930e+00
1.953549903009751587e+11 1.999492858616490065e-01 -2.234504405629665236e+00 3.514641169847567692e+00
2.047444147382460938e+11 1.999466794516283064e-01 -2.233277541516955900e+00 3.514888121334147186e+00
2.151024021473237610e+11 1.999437948698007672e-01 -2.231942300818844593e+00 3.515163851959116847e+00
2.255133380268474731e+11 1.999408858208095718e-01 -2.230610476498571693e+00 3.515444745134797877e+00
2.367054764466824341e+11 1.999377477586779250e-01 -2.229184092631729008e+00 3.515751104708893848e+00
2.481930681705113525e+11 1.999345154238236499e-01 -2.227720936263608564e+00 3.516070369895855308e+00
2.604181759704705811e+11 1.999310628129787604e-01 -2.226157032367692246e+00 3.516415755106191199e+00
2.730283818944098206e+11 1.999274876069617179e-01 -2.224532251569021124e+00 3.516778636684607662e+00
2.882329902066937256e+11 1.999231581678803382e-01 -2.222551674149398249e+00 3.517225016945535909e+00
3.030945628327450562e+11 1.999189077182515484e-01 -2.220584033259659584e+00 3.517671786203790507e+00
3.157580683075133667e+11 1.999152712638627150e-01 -2.218881580659059161e+00 3.518060654636125051e+00
3.340141849110890503e+11 1.999100046792557372e-01 -2.216379352853782514e+00 3.518635709083331342e+00
3.460140678955554810e+11 1.999065271105121278e-01 -2.214702280444952098e+00 3.519023277052057530e+00
3.776320684825410156e+11 1.998973024340695015e-01 -2.210157677026100664e+00 3.520082253978455089e+00
3.893675481828491211e+11 1.998938523704296699e-01 -2.208436481194067103e+00 3.520488099683342753e+00
4.000276652014556885e+11 1.998907041099086124e-01 -2.206848159824970068e+00 3.520864946511413240e+00
4.212777668898621826e+11 1.998843926257721226e-01 -2.203604761912089316e+00 3.521640325137627148e+00
4.487191523309173584e+11 1.998761738925069198e-01 -2.199257857669514760e+00 3.522690596558198717e+00
4.667560703263996582e+11 1.998707298744059335e-01 -2.196293136597396778e+00 3.523413492075819775e+00
4.896607343878520508e+11 1.998637554465657606e-01 -2.192451973346536853e+00 3.524362379166048775e+00
5.116928398183918457e+11 1.998569851288203580e-01 -2.188647787965498637e+00 3.525309727213419286e+00
5.402720435095449829e+11 1.998481182213978080e-01 -2.183530267002170788e+00 3.526594380433580866e+00
5.590564857158286133e+11 1.998422379555064299e-01 -2.180057995924116199e+00 3.527473307704692917e+00
5.939867528285166016e+11 1.998311632501984514e-01 -2.173422904189679983e+00 3.529174253831462327e+00
6.189254557656617432e+11 1.998231524434478101e-01 -2.168514541711583199e+00 3.530442796480429024e+00
6.546417795368280029e+11 1.998115353892335466e-01 -2.161252965203510179e+00 3.532333966878779208e+00
6.788984828299266357e+11 1.998035270971111055e-01 -2.156222462999367817e+00 3.533659298926952630e+00
7.166044989478343506e+11 1.997908948119494765e-01 -2.148220576593404374e+00 3.535779423959449996e+00
7.537589942329727783e+11 1.997782403024251918e-01 -2.140172101626149459e+00 3.537927054940789517e+00
7.764462767830950928e+11 1.997703886562050002e-01 -2.135246033915425556e+00 3.539254423398236149e+00
8.118227553814967041e+11 1.997579714373814430e-01 -2.127522929838049137e+00 3.541342258541188226e+00
8.467545011060895996e+11 1.997455169290642818e-01 -2.119882393058304615e+00 3.543420974498678877e+00
8.925756569675041504e+11 1.997288364488605805e-01 -2.109942795405849836e+00 3.546155623562830872e+00
9.333543049794016113e+11 1.997136905807700979e-01 -2.101150254163182129e+00 3.548600527386379877e+00
9.696895792918167725e+11 1.996999634229376097e-01 -2.094478287791883719e+00 3.550595629172816459e+00
1.020925325859323730e+12 1.996802582383067348e-01 -2.072878079561259579e+00 3.556466036437209599e+00
1.021034249180380493e+12 1.996802159573139168e-01 -2.072787695228313076e+00 3.556490108934439398e+00
1.021164525786159302e+12 1.996801638250266242e-01 -2.072512949208098032e+00 3.556526045168263206e+00
1.021294802391937988e+12 1.996801116927393038e-01 -2.072238203187883432e+00 3.556561981402087014e+00
1.021425078997716919e+12 1.996800595604520112e-01 -2.071963457167668832e+00 3.556597917635910822e+00
1.021555355603495605e+12 1.996800074281646908e-01 -2.071688711147453787e+00 3.556633853869734629e+00
1.034713292787152344e+12 1.996747248902843164e-01 -2.043813757061188063e+00 3.560260848703984404e+00
1.034817514071775391e+12 1.996746797490820402e-01 -2.043568839036102425e+00 3.560289084734651333e+00
1.034921735356398315e+12 1.996746346078797363e-01 -2.043323921011016342e+00 3.560317320765318261e+00
1.045385552332550049e+12 1.996700807613508155e-01 -2.018545042442308812e+00 3.563145811221284820e+00
1.045468929360248413e+12 1.996700419396616466e-01 -2.018325469415981122e+00 3.563167599167946342e+00
1.045552306387946777e+12 1.996700031179724777e-01 -2.018105896389653875e+00 3.563189387114607420e+00
1.045635683415645264e+12 1.996699642962832810e-01 -2.017886323363326184e+00 3.563211175061269387e+00
1.053539825641455322e+12 1.996662711905749787e-01 -1.997097243925116450e+00 3.565255975238119213e+00
1.056854896262744385e+12 1.996646168767261809e-01 -1.988681533859245398e+00 3.565937208666282832e+00
1.062053811274028809e+12 1.996619289618036530e-01 -1.977471649298078393e+00 3.566745566111712229e+00
1.062079177976956177e+12 1.996619155523424172e-01 -1.977383429880791077e+00 3.566754746392539310e+00
1.064608217972680664e+12 1.996605737045273055e-01 -1.968428106178092607e+00 3.567652832368611193e+00
1.066749708562345459e+12 1.996594069102882174e-01 -1.960044131688239322e+00 3.568317034070888738e+00
1.068482128487043701e+12 1.996584379265839426e-01 -1.953655408265088544e+00 3.568812038503255124e+00
1.071411849556326660e+12 1.996567548316185159e-01 -1.946125320971512140e+00 3.569289100824816430e+00
1.073355579559615723e+12 1.996556215818685587e-01 -1.946895464918648067e+00 3.569029783862073035e+00
1.074545262349678345e+12 1.996549274411470454e-01 -1.940996697588929454e+00 3.569735244546420105e+00
1.075621747638093750e+12 1.996542886059016197e-01 -1.935533813277187543e+00 3.570138055871704630e+00
1.076623737084877686e+12 1.996536834693222184e-01 -1.932502102617334350e+00 3.570417709837413689e+00
1.077780674704312134e+12 1.996529781471933496e-01 -1.926800734531215031e+00 3.570877650301599537e+00
1.080122046344989136e+12 1.996515133061957104e-01 -1.915067815428890707e+00 3.571880782795525455e+00
1.081194896225442871e+12 1.996508236162609362e-01 -1.909525014873232118e+00 3.572359201656414740e+00
1.082231222629050537e+12 1.996501459963249403e-01 -1.904102703475155201e+00 3.572825967231880728e+00
1.084276731495521729e+12 1.996487766783940354e-01 -1.896331594621742500e+00 3.573588810338288457e+00
1.085436837730753906e+12 1.996479869696707043e-01 -1.889687954449093654e+00 3.574135672115801299e+00
1.086599250301081055e+12 1.996471799770877520e-01 -1.882870875361822183e+00 3.574703018018143830e+00
1.087635638201846436e+12 1.996464450697931770e-01 -1.877954758639133859e+00 3.575139440359710097e+00
1.088669895789944824e+12 1.996457003524615970e-01 -1.874519778976670770e+00 3.575478340344466766e+00
1.089845168236129639e+12 1.996448450397454444e-01 -1.867796565914556561e+00 3.575994951424977586e+00
1.092129112249118408e+12 1.996431329229269858e-01 -1.856412556711132478e+00 3.576817020374634559e+00
1.094452103623018188e+12 1.996413308543013021e-01 -1.847471394851186499e+00 3.577348497726908327e+00
1.096999042625474121e+12 1.996393047187356995e-01 -1.843363661383300878e+00 3.577385518353335847e+00
1.098219673281631348e+12 1.996383246464041306e-01 -1.839179345335203886e+00 3.577667991003703474e+00
1.099332298617566895e+12 1.996374205638321020e-01 -1.830473843849219850e+00 3.578528847724605555e+00
1.100251717373175781e+12 1.996366530759484947e-01 -1.826194314502441518e+00 3.579030184903367662e+00
1.102005434896650391e+12 1.996351613234589317e-01 -1.817977282359595881e+00 3.579999271950142337e+00
1.102941516230181885e+12 1.996343505368971538e-01 -1.813057972783840510e+00 3.580565723292774116e+00
1.103872864355002686e+12 1.996335322532373779e-01 -1.807597395509274785e+00 3.581186985259882771e+00
1.104770801025456543e+12 1.996327306706483506e-01 -1.801959193885325217e+00 3.581819065923726342e+00
1.105627593603244629e+12 1.996319530178232715e-01 -1.796372039672343268e+00 3.582439771392250449e+00
1.106455987196914551e+12 1.996311886193050111e-01 -1.790938526172797474e+00 3.583039882236329632e+00
1.107272467185857422e+12 1.996304230040454319e-01 -1.785351093340951323e+00 3.583649215389720144e+00
1.108083235051045898e+12 1.996296501137488077e-01 -1.779627113513786441e+00 3.584270085501502834e+00
1.108886223797782715e+12 1.996288715797819857e-01 -1.773888535099063191e+00 3.584892059296153732e+00
1.109683830492208252e+12 1.996280850205338075e-01 -1.768042959555857552e+00 3.585520890572715835e+00
1.110477444919146973e+12 1.996272887472689272e-01 -1.762066084723884929e+00 3.586160163713731919e+00
1.111265531335524658e+12 1.996264839038657812e-01 -1.755976442760533995e+00 3.586807593834078656e+00
1.112046961194224121e+12 1.996256713211686518e-01 -1.749786136991615670e+00 3.587461740211266736e+00
1.112821315099530273e+12 1.996248511672026882e-01 -1.743506257948597815e+00 3.588120961568406209e+00
1.113588628601991455e+12 1.996240231630783679e-01 -1.737119779231137695e+00 3.588788715249835448e+00
1.114348494399067139e+12 1.996231874830221575e-01 -1.730653759972355710e+00 3.589460655555012369e+00
1.115100731713826660e+12 1.996223441175199453e-01 -1.724102526742444574e+00 3.590137740874496330e+00
1.115845754055966797e+12 1.996214923801694074e-01 -1.717468431036404342e+00 3.590819513921944761e+00
1.116583788346420166e+12 1.996206317782056039e-01 -1.710754192494283288e+00 3.591506036739037455e+00
1.117314963839670898e+12 1.996197619213524177e-01 -1.703959455729531447e+00 3.592197371298433861e+00
1.118039251620730957e+12 1.996188825995328653e-01 -1.697075579428397374e+00 3.592895203078193767e+00
1.118756203710407471e+12 1.996179941008879299e-01 -1.690129451905045155e+00 3.593595496521173160e+00
1.119465501468666016e+12 1.996170966416156711e-01 -1.683137956820725645e+00 3.594295650591964542e+00
1.120167391238105469e+12 1.996161897723188750e-01 -1.676074319687021585e+00 3.595001124977289741e+00
1.120861740640585449e+12 1.996152734708724896e-01 -1.668945884394823054e+00 3.595710782933847938e+00
1.121548117920322510e+12 1.996143481408541309e-01 -1.661763652981947725e+00 3.596423268086841762e+00
1.122226314649748047e+12 1.996134139432121646e-01 -1.654549627355510477e+00 3.597135013978507878e+00
1.122896432595870361e+12 1.996124706785004088e-01 -1.647300035902218962e+00 3.597845942439469091e+00
1.123558162418331299e+12 1.996115187266330748e-01 -1.640007694357441981e+00 3.598560191338144865e+00
1.124211238650776855e+12 1.996105584220437268e-01 -1.632688121562932970e+00 3.599275991055396862e+00
1.124856164904484863e+12 1.996095890143408935e-01 -1.625327691432598254e+00 3.599995395861635750e+00
1.125493117937497070e+12 1.996086101859331219e-01 -1.617947725889189892e+00 3.600714521625595133e+00
1.126122195967711670e+12 1.996076217762760008e-01 -1.610558798430489658e+00 3.601432034712306773e+00
1.126744609540677734e+12 1.996066218545573534e-01 -1.603119437367688915e+00 3.602155161691163343e+00
1.127361032418163086e+12 1.996056091546360434e-01 -1.595626519294480516e+00 3.602884783790849088e+00
1.127970840781684082e+12 1.996045845085034354e-01 -1.588106126838861432e+00 3.603616550180360534e+00
1.128573874492754883e+12 1.996035480765886438e-01 -1.580567257235632184e+00 3.604348513871351578e+00
1.129170239177699707e+12 1.996024996042884692e-01 -1.572987741580514687e+00 3.605087197810262545e+00
1.129760067364407471e+12 1.996014387292252001e-01 -1.565368840533152728e+00 3.605831649799651650e+00
1.130343129217721680e+12 1.996003657455811264e-01 -1.557725788200631678e+00 3.606579056389388249e+00
1.130919134430014160e+12 1.995992811317488513e-01 -1.550046741282818274e+00 3.607332906865116318e+00
1.131488426428716553e+12 1.995981841548066238e-01 -1.542336445779337595e+00 3.608091745669883998e+00
1.132049752595171875e+12 1.995970772199439081e-01 -1.534610685875435587e+00 3.608854546247732387e+00
1.132596785271275391e+12 1.995959732327743374e-01 -1.526942690903790201e+00 3.609615266664510713e+00
1.133121885658965820e+12 1.995948889215736211e-01 -1.519460766945874841e+00 3.610359283192358770e+00
1.133621539398459473e+12 1.995938337824086084e-01 -1.512226565050060145e+00 3.611080262848606726e+00
1.134095373118372559e+12 1.995928112492435236e-01 -1.505253223554882114e+00 3.611776658839604970e+00
1.134967050536595459e+12 1.995908715802217070e-01 -1.492116383001555802e+00 3.613096788393998615e+00
1.135373282613639404e+12 1.995899405260704862e-01 -1.485833167144639200e+00 3.613732458172269180e+00
1.135761054231208008e+12 1.995890349248288786e-01 -1.479754622663601804e+00 3.614349230938857183e+00
1.136132445773983154e+12 1.995881516743731598e-01 -1.473843355633469798e+00 3.614950915565661838e+00
1.136489269867170654e+12 1.995872879498214736e-01 -1.468090787568065991e+00 3.615538578209213760e+00
1.137161811736284180e+12 1.995856181214851754e-01 -1.457012220767334165e+00 3.616680547411141866e+00
1.137483258590217529e+12 1.995847999769554681e-01 -1.451615442414221802e+00 3.617240055018493550e+00
1.138095031986302002e+12 1.995832053406437212e-01 -1.441143816547407308e+00 3.618332947651159870e+00
1.138390451138413086e+12 1.995824170848554402e-01 -1.435986636091435287e+00 3.618876408352111440e+00
1.138957284805800049e+12 1.995808698012249971e-01 -1.425917049082278121e+00 3.619945055164938363e+00
1.139231303593682129e+12 1.995801048560189861e-01 -1.420964135920228744e+00 3.620474429393718996e+00
1.139753986576340820e+12 1.995786136402303568e-01 -1.411355781407896082e+00 3.621509141873407334e+00
1.140005318302141357e+12 1.995778811254900198e-01 -1.406657224685084140e+00 3.622018305462185062e+00
1.140483939408726807e+12 1.995764571554674016e-01 -1.397567681022852115e+00 3.623010320951362218e+00
1.140714139191501709e+12 1.995757583442213101e-01 -1.393122884826211383e+00 3.623498481204574073e+00
