# #MIST v1.1 [Fe/H] = 0, v_init = 0, reprocessed track 
# #star_age 	 star_mass 	 logL 	 logT
6.374332661935657597e+03 3.799999738524405535e-01 7.353507910505954204e-01 3.564237143257158014e+00
6.430210778732984181e+03 3.799999736490000113e-01 7.345499456989842413e-01 3.564247090973709398e+00
6.798234417902985115e+03 3.799999724363334885e-01 7.297971005639523057e-01 3.564312116653332030e+00
7.493820631677115671e+03 3.799999702158689541e-01 7.210839013895666838e-01 3.564428324631755185e+00
7.879251758444414008e+03 3.799999690049067347e-01 7.163233968272146868e-01 3.564489366685813287e+00
8.270955818902162719e+03 3.799999677946539478e-01 7.115664039887819037e-01 3.564550486828502507e+00
8.669070981905251756e+03 3.799999665849761454e-01 7.067997642174832507e-01 3.564608483503175052e+00
9.073711423217404445e+03 3.799999653758697749e-01 7.020345732575911102e-01 3.564666175439898055e+00
9.546406387027323944e+03 3.799999639708774302e-01 6.964785492532958866e-01 3.564728347217467341e+00
1.032543721355462185e+04 3.799999617588702971e-01 6.877238350955285906e-01 3.564824336399849081e+00
1.082102742228019633e+04 3.799999603579666818e-01 6.821652353843257188e-01 3.564881340994825898e+00
1.126071631179255201e+04 3.799999591525323184e-01 6.773806573741349979e-01 3.564930011818175259e+00
1.209197163927799193e+04 3.799999569450501213e-01 6.686103177506401707e-01 3.565016717111572753e+00
1.262159365455196712e+04 3.799999555445236488e-01 6.630339110432956762e-01 3.565068416277067609e+00
1.356524799230457575e+04 3.799999531450621304e-01 6.534664625015235151e-01 3.565153432597183869e+00
1.404986673864107252e+04 3.799999519433228112e-01 6.487091764236684321e-01 3.565204489616231598e+00
1.504008226567564452e+04 3.799999495484668866e-01 6.390807610199430444e-01 3.565281135377752264e+00
1.605937811552199128e+04 3.799999471649795901e-01 6.294905960391419253e-01 3.565354945727015057e+00
1.658128485231335435e+04 3.799999459751155495e-01 6.247125207215503684e-01 3.565388212822564462e+00
1.765096595778864139e+04 3.799999435962539973e-01 6.151453187382742716e-01 3.565451870290622605e+00
1.875736402856210043e+04 3.799999412165699919e-01 6.055075338277298158e-01 3.565507960598635062e+00
1.990083605611680105e+04 3.799999388378350051e-01 5.958885174556202147e-01 3.565557950593441383e+00
2.057834853789557019e+04 3.799999374494984483e-01 5.902379209194572596e-01 3.565586507607751532e+00
2.178170157402705445e+04 3.799999350750168370e-01 5.806016926542322265e-01 3.565626618321846131e+00
2.302331947506215874e+04 3.799999327062167365e-01 5.709841411805196554e-01 3.565674549942888572e+00
2.430517517542428322e+04 3.799999303407068374e-01 5.613362755666810866e-01 3.565702065548700173e+00
2.563326547443031450e+04 3.799999279704761035e-01 5.516098520223032819e-01 3.565722324602916604e+00
2.700156268750613526e+04 3.799999256095740741e-01 5.419267002378688192e-01 3.565738342793716598e+00
2.841338747969134420e+04 3.799999232542461414e-01 5.322173809793380173e-01 3.565752462604970585e+00
2.986666516083659371e+04 3.799999209099716446e-01 5.225569217631861330e-01 3.565761100077831092e+00
3.214067537431819073e+04 3.799999173918046091e-01 5.080340434980956665e-01 3.565756699311286138e+00
3.372837480370823323e+04 3.799999150354885780e-01 4.982538370860429833e-01 3.565747337431345088e+00
3.536597437063087273e+04 3.799999126853589870e-01 4.885244737326583930e-01 3.565743806171872254e+00
3.705697326433339913e+04 3.799999103388677080e-01 4.787585342941937383e-01 3.565719306098725561e+00
3.969863677959005872e+04 3.799999068248758327e-01 4.640616029951044608e-01 3.565678079707305770e+00
4.153196164105099160e+04 3.799999044865878250e-01 4.542740409661213397e-01 3.565640753976019539e+00
4.343052687403946766e+04 3.799999021451940240e-01 4.444352318197098417e-01 3.565595617440669773e+00
4.639110425973716337e+04 3.799998986455324634e-01 4.296829011560959755e-01 3.565514755393758506e+00
4.845211739445340208e+04 3.799998963093467186e-01 4.198133435981926675e-01 3.565451154900771247e+00
5.074838359170928743e+04 3.799998937827090417e-01 4.091057464123384335e-01 3.565374350543172532e+00
5.391069410875412723e+04 3.799998904790287124e-01 3.950755946397325191e-01 3.565263892709122473e+00
5.640287600753305742e+04 3.799998879593179946e-01 3.843979877315488736e-01 3.565180343300152099e+00
5.984230955383185938e+04 3.799998846572497646e-01 3.702792220305646809e-01 3.565043358831079701e+00
6.255576575290434994e+04 3.799998821361534329e-01 3.595381420644668258e-01 3.564940016592987426e+00
6.629435658546100603e+04 3.799998788386032000e-01 3.454283522113822946e-01 3.564782006920948376e+00
6.924563538495205285e+04 3.799998763194148976e-01 3.346599349937746659e-01 3.564651929912059813e+00
7.356089313954993850e+04 3.799998728120173030e-01 3.196258781374371472e-01 3.564453660300607840e+00
7.657114846419112291e+04 3.799998704669075300e-01 3.096040536881393135e-01 3.564316305721805023e+00
8.129005712856547325e+04 3.799998669439053067e-01 2.945694696818499936e-01 3.564096363791442457e+00
8.601761965790115937e+04 3.799998635996100216e-01 2.803518531963757887e-01 3.563875230073063172e+00
8.976747741397291247e+04 3.799998610319657022e-01 2.695054221908688152e-01 3.563702226838038722e+00
9.526797739337600069e+04 3.799998574464664713e-01 2.544227533196960489e-01 3.563434129651978033e+00
9.912236883971010684e+04 3.799998550386444185e-01 2.444065843033083885e-01 3.563247538960336858e+00
1.052334111732595484e+05 3.799998513790951438e-01 2.294084385382412217e-01 3.562957030741218389e+00
1.099077312461940019e+05 3.799998486854976876e-01 2.185926360946141289e-01 3.562738374353207060e+00
1.164944435627057683e+05 3.799998450759626278e-01 2.044669091579814357e-01 3.562443780044112884e+00
1.218466821545530984e+05 3.799998422389957442e-01 1.937064887098942367e-01 3.562211670736044500e+00
1.294760709460048820e+05 3.799998383925708989e-01 1.797086020948154006e-01 3.561894651398947342e+00
1.353101056063727592e+05 3.799998355560932906e-01 1.699320104993843339e-01 3.561668008454909273e+00
1.449206536939359794e+05 3.799998310724822526e-01 1.555077198876959610e-01 3.561324298449933146e+00
1.520970942798622127e+05 3.799998278551636188e-01 1.460180807646187517e-01 3.561094412796640185e+00
1.600603723148058052e+05 3.799998243958973565e-01 1.366748594231435299e-01 3.560865552493255315e+00
1.689988891018274007e+05 3.799998206323252914e-01 1.275148100589746925e-01 3.560646718962753532e+00
1.791466999365724623e+05 3.799998164884923479e-01 1.185562520131129560e-01 3.560425088094872237e+00
1.856976832019676513e+05 3.799998138504918632e-01 1.134487334707405537e-01 3.560306569282461808e+00
1.985865949815759959e+05 3.799998088243906058e-01 1.047288803996244966e-01 3.560085094464056965e+00
2.059250711010009691e+05 3.799998060235582065e-01 1.003769061931508028e-01 3.559974037929117152e+00
2.212540523699476616e+05 3.799998003299275284e-01 9.236915907301546103e-02 3.559766936263760950e+00
2.321436392784682685e+05 3.799997963109238985e-01 8.719888132468578412e-02 3.559635375245123967e+00
2.424458190329188947e+05 3.799997926024055728e-01 8.266969722271810816e-02 3.559519533114980483e+00
2.634079065101278247e+05 3.799997852657912567e-01 7.397707715942894446e-02 3.559294896886966875e+00
2.756575161927959998e+05 3.799997810495945871e-01 6.898506961151769368e-02 3.559165474509418559e+00
2.903123613932281733e+05 3.799997760460352425e-01 6.291684874333997035e-02 3.559009848834544965e+00
3.032941278919737670e+05 3.799997717365840577e-01 5.745942146949757634e-02 3.558868114077412770e+00
3.270722110511096544e+05 3.799997640912241570e-01 4.699585625364081920e-02 3.558594352547125972e+00
3.415122292850788799e+05 3.799997595067987621e-01 4.013506905727384083e-02 3.558421692942793424e+00
3.632666823228240246e+05 3.799997529058961043e-01 2.912371750741745910e-02 3.558140829317272047e+00
3.759965760186811676e+05 3.799997490979526438e-01 2.207817157235590633e-02 3.557960790790723138e+00
3.963552620525705861e+05 3.799997432577708611e-01 9.980898547877795415e-03 3.557652206320136123e+00
4.233828926104099373e+05 3.799997358807133963e-01 -8.042967731173951071e-03 3.557190802481266623e+00
4.394471301184638869e+05 3.799997317115511031e-01 -1.986454923005914752e-02 3.556888858855697499e+00
4.622980769768478349e+05 3.799997260562782420e-01 -3.818130884312480322e-02 3.556429540829819658e+00
4.873220295778364525e+05 3.799997202923971473e-01 -5.964009923558340892e-02 3.555894297283630934e+00
5.065210370158795267e+05 3.799997161276404967e-01 -7.680513282136780528e-02 3.555475721604242523e+00
5.302472475634020520e+05 3.799997113142121186e-01 -9.782516274363753372e-02 3.554975409906939721e+00
5.543058019491269952e+05 3.799997067622225000e-01 -1.183269948861769422e-01 3.554498133763376089e+00
5.794673978942212416e+05 3.799997023156325704e-01 -1.385099413219680331e-01 3.554040779904855896e+00
6.061435118676497368e+05 3.799996979089871885e-01 -1.585237258221319778e-01 3.553600922741646517e+00
6.346577428108822787e+05 3.799996935034469780e-01 -1.783846714703307135e-01 3.553179053230032469e+00
6.639638164899656549e+05 3.799996892711026697e-01 -1.973842054724637696e-01 3.552790031797739889e+00
6.964500123959048651e+05 3.799996848662501314e-01 -2.171250663942309589e-01 3.552393697856937926e+00
7.310503931452403776e+05 3.799996804753570934e-01 -2.367118844804581568e-01 3.552022205862330306e+00
7.680577449820415350e+05 3.799996760780934846e-01 -2.562989844678811302e-01 3.551657520249079880e+00
8.074953211260540411e+05 3.799996716903288885e-01 -2.757642907329287407e-01 3.551313893169544933e+00
8.388007304465094348e+05 3.799996684014493864e-01 -2.903365033785709759e-01 3.551060954946692050e+00
8.828868925468651578e+05 3.799996640280196569e-01 -3.096588623305223664e-01 3.550738775758883747e+00
9.298378433470855234e+05 3.799996596641618263e-01 -3.288898749842519842e-01 3.550429994175383630e+00
9.670871277824538993e+05 3.799996563928359494e-01 -3.432709917785357612e-01 3.550207606741324629e+00
1.019489443452750915e+06 3.799996520445701464e-01 -3.623365156555268807e-01 3.549924804379149368e+00
1.072995672505956842e+06 3.799996478855357518e-01 -3.804886510843389913e-01 3.549675900064270806e+00
1.119366523831235943e+06 3.799996444610428958e-01 -3.954515105390472574e-01 3.549467034077283145e+00
1.178926758422059705e+06 3.799996403218125485e-01 -4.134619272701610670e-01 3.549233904167511611e+00
1.230797897545384709e+06 3.799996368965520843e-01 -4.283556536045012297e-01 3.549043260667470001e+00
1.297339294167859014e+06 3.799996327597144896e-01 -4.462924963840614878e-01 3.548826049673083016e+00
1.355101883673436008e+06 3.799996293483247078e-01 -4.610991592828136421e-01 3.548643156192114567e+00
1.429185530305035645e+06 3.799996252263093122e-01 -4.789234625944222001e-01 3.548439226676201930e+00
1.507706318094622344e+06 3.799996211162158799e-01 -4.966498151965950125e-01 3.548247737248666489e+00
1.575759620365294395e+06 3.799996177275660192e-01 -5.112743915734296873e-01 3.548087333765225893e+00
1.663114658589182189e+06 3.799996136306519889e-01 -5.289129705352363375e-01 3.547904339472149449e+00
1.739004578574949643e+06 3.799996102456388858e-01 -5.435096316388718929e-01 3.547747229913466249e+00
1.836283636740786023e+06 3.799996061566284222e-01 -5.610860987337266126e-01 3.547571671764471191e+00
1.916363320514689200e+06 3.799996029589468027e-01 -5.748325176050423924e-01 3.547434003462293095e+00
2.004604261371626751e+06 3.799995995932055060e-01 -5.892997808444951913e-01 3.547289677744196013e+00
2.117260150489576161e+06 3.799995955400503611e-01 -6.066745670947447655e-01 3.547128269412223922e+00
2.215501564692523330e+06 3.799995921785986885e-01 -6.211011457366244493e-01 3.546989960702695122e+00
2.341209926039948128e+06 3.799995881200393111e-01 -6.384771729774133542e-01 3.546833893857936459e+00
2.444597731664380524e+06 3.799995849485234278e-01 -6.520514908158967504e-01 3.546713056483391746e+00
2.589681758957916405e+06 3.799995807321677188e-01 -6.700808182159370130e-01 3.546556934481039924e+00
2.704482158334390260e+06 3.799995775703903789e-01 -6.835859191219613162e-01 3.546443728466627032e+00
2.858874671824741177e+06 3.799995735437091682e-01 -7.007700471765465622e-01 3.546303781832430779e+00
2.992996083170546219e+06 3.799995702136673703e-01 -7.149607487021023555e-01 3.546193176236473121e+00
3.164310726110429503e+06 3.799995661989761797e-01 -7.320582393983975367e-01 3.546062866553546300e+00
3.305356332048108336e+06 3.799995630553635317e-01 -7.454172804309611156e-01 3.545968089125646205e+00
3.460470350097557995e+06 3.799995597491703236e-01 -7.594576801632435537e-01 3.545871093660573070e+00
3.658949978196781594e+06 3.799995557538761171e-01 -7.764363488138641411e-01 3.545751248091105978e+00
3.822362582011864055e+06 3.799995526245431576e-01 -7.897232651368660816e-01 3.545660626057857812e+00
4.051561569559749216e+06 3.799995484621170316e-01 -8.073910695090584788e-01 3.545541740634359673e+00
4.232693865487119183e+06 3.799995453419283686e-01 -8.206198573918672690e-01 3.545456399233198663e+00
4.476356741018197499e+06 3.799995413648363241e-01 -8.374904436278512998e-01 3.545345273465392300e+00
4.687592380667388439e+06 3.799995380772454578e-01 -8.513794026698273676e-01 3.545267497465441675e+00
4.897238969075010158e+06 3.799995349706386527e-01 -8.645267840763479761e-01 3.545188258744273568e+00
5.178649252400390804e+06 3.799995310184965946e-01 -8.812808216545769957e-01 3.545080757911538427e+00
5.422574113162148744e+06 3.799995277507429159e-01 -8.950510687893151740e-01 3.545012706871002894e+00
5.734409575643416494e+06 3.799995238063232916e-01 -9.117905697576931257e-01 3.544901083499348182e+00
6.004829646179418080e+06 3.799995205430588552e-01 -9.255452835380557630e-01 3.544832397632746712e+00
6.349938632189721800e+06 3.799995166104162547e-01 -9.421831933288640215e-01 3.544734413970292763e+00
6.633599212365827523e+06 3.799995135307300265e-01 -9.551738404336944654e-01 3.544667621508543753e+00
6.946039635827524588e+06 3.799995102810969638e-01 -9.688301450649716706e-01 3.544610204202121473e+00
7.343851126388598233e+06 3.799995063722063637e-01 -9.853176757259239915e-01 3.544526409761914465e+00
7.689070812749045901e+06 3.799995031344586272e-01 -9.988880083513256292e-01 3.544478853949842634e+00
8.130482484720121138e+06 3.799994992222238133e-01 -1.015315988825545856e+00 3.544413938669596309e+00
8.492334213896309957e+06 3.799994961657509052e-01 -1.028123819357573909e+00 3.544370277388499524e+00
8.999860348342441022e+06 3.799994920930402920e-01 -1.045143041232411862e+00 3.544324172278377816e+00
9.399947959588898346e+06 3.799994890424308602e-01 -1.057864100763124204e+00 3.544296511054638721e+00
9.960931103040589020e+06 3.799994849781899720e-01 -1.074769083608616560e+00 3.544270493629303687e+00
1.040324141095957160e+07 3.799994819326764084e-01 -1.087407711211155981e+00 3.544258197036507685e+00
1.099645211195141077e+07 3.799994780561389840e-01 -1.103471184649120085e+00 3.544248725400107158e+00
1.150981185059452429e+07 3.799994748486645868e-01 -1.116706268160642335e+00 3.544254875600258092e+00
1.216263507045170665e+07 3.799994709915578417e-01 -1.132609307797941778e+00 3.544266004199675635e+00
1.272785460586010665e+07 3.799994677981142766e-01 -1.145724335422231288e+00 3.544288190887338708e+00
1.345012807000181079e+07 3.799994639375369188e-01 -1.161550303172826926e+00 3.544322384063551379e+00
1.404309882986370102e+07 3.799994609120143085e-01 -1.173918617268674414e+00 3.544357659581083286e+00
1.487282771834286861e+07 3.799994568849636711e-01 -1.190346368474916705e+00 3.544412959218792292e+00
1.551805159588792175e+07 3.799994539044685427e-01 -1.202476502442887618e+00 3.544461079978049600e+00
1.642645736419134587e+07 3.799994499105057155e-01 -1.218688820237583847e+00 3.544535289491531849e+00
1.714673336390385777e+07 3.799994468961079841e-01 -1.230901975886188993e+00 3.544596310785662396e+00
1.815372632608300075e+07 3.799994428855398843e-01 -1.247110569011312453e+00 3.544687752312293050e+00
1.894543982775440067e+07 3.799994398840582099e-01 -1.259273125809166283e+00 3.544749364732922015e+00
2.005607383070919290e+07 3.799994358757199930e-01 -1.275373392781327109e+00 3.544860904953335279e+00
2.093103930755952746e+07 3.799994328690698975e-01 -1.287459553976444182e+00 3.544941443683711224e+00
2.210380604748562351e+07 3.799994290356284443e-01 -1.302821072140779357e+00 3.545052371142054959e+00
2.339420415345389396e+07 3.799994250340983926e-01 -1.318829875967224119e+00 3.545168776810964317e+00
2.441070879460726678e+07 3.799994220318679283e-01 -1.330802717707501248e+00 3.545260279361862388e+00
2.582633482056334615e+07 3.799994180492076712e-01 -1.346645903357765350e+00 3.545383302013784821e+00
2.694251977132827789e+07 3.799994150571083251e-01 -1.358508540892094274e+00 3.545477782937429989e+00
2.851077142496757209e+07 3.799994110516442536e-01 -1.374303936924398784e+00 3.545612812269971048e+00
2.974795258486776799e+07 3.799994080403747421e-01 -1.386124725604099162e+00 3.545716732776080349e+00
3.146965314174469188e+07 3.799994040462026934e-01 -1.401727096329397959e+00 3.545857204744158331e+00
3.322036538322725147e+07 3.799994002025114948e-01 -1.416616103124444415e+00 3.546002242291903528e+00
3.465209497269405425e+07 3.799993971959900740e-01 -1.428193986131871540e+00 3.546117021371680167e+00
3.667446115589853376e+07 3.799993931460086127e-01 -1.443665290703292525e+00 3.546277100629004142e+00
3.827305964521718025e+07 3.799993900924908963e-01 -1.455222046366655420e+00 3.546401941177312445e+00
4.051519461157460511e+07 3.799993860072362617e-01 -1.470526444061673210e+00 3.546575044021463174e+00
4.279343328728925437e+07 3.799993820749898443e-01 -1.485067049845282705e+00 3.546748731451292436e+00
4.477226444969569147e+07 3.799993788021511221e-01 -1.497032506999167900e+00 3.546893797417950633e+00
4.730389747906512767e+07 3.799993748187530107e-01 -1.511369576319142816e+00 3.547079990968215579e+00
4.939732018391092867e+07 3.799993716642918185e-01 -1.522560362289891778e+00 3.547228902979155496e+00
5.234691668150942773e+07 3.799993674187791548e-01 -1.537351237479554156e+00 3.547436545997586066e+00
5.469051025769961625e+07 3.799993641952024159e-01 -1.548357257869053871e+00 3.547599946242250724e+00
5.786073605081719160e+07 3.799993600293465335e-01 -1.562259836385999634e+00 3.547818897598356003e+00
6.064499614890328050e+07 3.799993565182093747e-01 -1.573703386418411787e+00 3.548004919940696222e+00
6.423110546527205408e+07 3.799993522065535090e-01 -1.587327868988749557e+00 3.548246494873704027e+00
6.721170034327372909e+07 3.799993487678725579e-01 -1.597863712306163642e+00 3.548442688863895356e+00
7.129559670705932379e+07 3.799993442595708260e-01 -1.611174223039041564e+00 3.548708820215798809e+00
7.491734319403834641e+07 3.799993404158344967e-01 -1.622086986926978724e+00 3.548935302551716742e+00
7.857220106056021154e+07 3.799993366865024313e-01 -1.632230179970139305e+00 3.549161037759785309e+00
8.247335007980604470e+07 3.799993328461920838e-01 -1.642214468148597062e+00 3.549395418410709269e+00
8.792765044220575690e+07 3.799993276966802114e-01 -1.654833023016428761e+00 3.549712206472351639e+00
9.262180085785724223e+07 3.799993234331973113e-01 -1.664621943880406851e+00 3.549966027665697244e+00
9.745986399145181477e+07 3.799993191937726111e-01 -1.673733317809267929e+00 3.550213202668194956e+00
1.030879575299219787e+08 3.799993144153207547e-01 -1.683301432082973559e+00 3.550472292039869693e+00
1.075487819446744770e+08 3.799993107287766847e-01 -1.690177653118281276e+00 3.550654167512221626e+00
1.140016547914453000e+08 3.799993055650293661e-01 -1.699033153748729319e+00 3.550896537864892455e+00
1.218238862642742991e+08 3.799992994971186366e-01 -1.708394406038384883e+00 3.551134148404699431e+00
1.277773597261733562e+08 3.799992950046204299e-01 -1.714631981619883838e+00 3.551276263470795058e+00
1.345132963425059319e+08 3.799992900330070311e-01 -1.720889291773919805e+00 3.551398512001465946e+00
1.422758071051727533e+08 3.799992844291674166e-01 -1.727175517804251159e+00 3.551492885424103463e+00
1.505942707750055492e+08 3.799992785661928663e-01 -1.732953880750934150e+00 3.551547521340136626e+00
1.616014155776373744e+08 3.799992709517522327e-01 -1.739318865033011141e+00 3.551551888755086317e+00
1.681873944030046165e+08 3.799992664686530630e-01 -1.742509597883641792e+00 3.551526843226232355e+00
1.758177541047646105e+08 3.799992613307205391e-01 -1.745695649786026982e+00 3.551477195774206841e+00
1.848843224859973192e+08 3.799992552907197618e-01 -1.748848631040427870e+00 3.551398112289381626e+00
1.849560740875082016e+08 3.799992552434201531e-01 -1.748868391645636677e+00 3.551397373165241067e+00
1.958910181577680707e+08 3.799992480360622205e-01 -1.751867559746784098e+00 3.551284616104481096e+00
1.959771200795811117e+08 3.799992479798554590e-01 -1.751885098406702035e+00 3.551283671884619686e+00
2.091334937326182127e+08 3.799992393937455248e-01 -1.754536940702307923e+00 3.551139426187111425e+00
2.222478176452094913e+08 3.799992309634055987e-01 -1.756354585659579692e+00 3.550993649281340758e+00
2.250657933449085951e+08 3.799992290842038600e-01 -1.756655338522887355e+00 3.550966901966782885e+00
2.251897801123194098e+08 3.799992290044711396e-01 -1.756664665981461093e+00 3.550965717523128173e+00
2.442341475866214931e+08 3.799992167605968918e-01 -1.758041054284714022e+00 3.550785895190671226e+00
2.443829317075144649e+08 3.799992166653015091e-01 -1.758045208568296491e+00 3.550784737384894640e+00
2.672956863250340819e+08 3.799992019913339680e-01 -1.758625355923403522e+00 3.550609300625819476e+00
2.674742272701056600e+08 3.799992018771323754e-01 -1.758624379832042672e+00 3.550608197791935261e+00
2.903428593534728885e+08 3.799991873575253587e-01 -1.758539709987878563e+00 3.550462007622080751e+00
2.952551983232437372e+08 3.799991841050491814e-01 -1.758419624649571356e+00 3.550440624302170001e+00
2.954694474573296309e+08 3.799991839678291683e-01 -1.758414386004039542e+00 3.550439610706322302e+00
3.230183044294666052e+08 3.799991664547484604e-01 -1.757777554839363487e+00 3.550304903696376080e+00
3.289351622015468478e+08 3.799991625249372618e-01 -1.757562746411490462e+00 3.550286171118917533e+00
3.291922611624499559e+08 3.799991623597031576e-01 -1.757554374839322531e+00 3.550285260059149461e+00
3.623786876955298185e+08 3.799991411890508153e-01 -1.756522860424422738e+00 3.550165115805445026e+00
3.695053782320524454e+08 3.799991364320502440e-01 -1.756232640606025130e+00 3.550146999039372808e+00
3.698138969851361513e+08 3.799991362327718170e-01 -1.756222117260615612e+00 3.550146147512483807e+00
4.097909666246507168e+08 3.799991106010392472e-01 -1.754910068442276039e+00 3.550033097696403850e+00
4.183747487205094099e+08 3.799991048341780919e-01 -1.754580453893332059e+00 3.550016850971541071e+00
4.187449712242097855e+08 3.799991045935821043e-01 -1.754568494569756165e+00 3.550016044311607999e+00
4.667445831907628179e+08 3.799990736281187997e-01 -1.753081704667541318e+00 3.549909443104560580e+00
4.671696112743637562e+08 3.799990733506605212e-01 -1.753069169538944649e+00 3.549908683295422307e+00
4.775027436277427077e+08 3.799990663575951166e-01 -1.752707852582976011e+00 3.549893146775243036e+00
4.779400240865840912e+08 3.799990660714530621e-01 -1.752695166099548008e+00 3.549892391195822228e+00
5.346221175763629079e+08 3.799990292521148172e-01 -1.751129505498571159e+00 3.549792511794373162e+00
5.469253466148005724e+08 3.799990208600758090e-01 -1.750751487171351428e+00 3.549777847434632427e+00
5.474343999124515057e+08 3.799990205245668551e-01 -1.750738709413312000e+00 3.549777128403152737e+00
6.135917847458736897e+08 3.799989772428032930e-01 -1.749148816021260266e+00 3.549683862379518384e+00
6.141696391758829355e+08 3.799989768600982032e-01 -1.749135970339934953e+00 3.549683253380667924e+00
6.286248097976479530e+08 3.799989669188528207e-01 -1.748768001308824482e+00 3.549670087287825737e+00
6.292185964906610250e+08 3.799989665246367165e-01 -1.748755134660892718e+00 3.549669480066424576e+00
7.067974525186769962e+08 3.799989154010313119e-01 -1.747156459613442125e+00 3.549590495188925221e+00
7.239642568558726311e+08 3.799989035009135319e-01 -1.746785791235782259e+00 3.549578132689824805e+00
7.246662740026134253e+08 3.799989030314570582e-01 -1.746772903857527925e+00 3.549577568732250832e+00
8.168650219733424187e+08 3.799988418365807252e-01 -1.745167795601329841e+00 3.549500991015219320e+00
8.176802408718348742e+08 3.799988412889375167e-01 -1.745154786743311259e+00 3.549500405063358954e+00
8.383015157913286686e+08 3.799988268793408341e-01 -1.744785762655616024e+00 3.549490090186723013e+00
8.391416479678351879e+08 3.799988263134889688e-01 -1.744772813153593338e+00 3.549489510502171985e+00
9.497183087810283899e+08 3.799987523900129616e-01 -1.743160352931349966e+00 3.549415568643963681e+00
9.506881552400288582e+08 3.799987517337538590e-01 -1.743147556700066936e+00 3.549415111267510525e+00
9.755448526586974859e+08 3.799987342266729629e-01 -1.742788610871120802e+00 3.549406262736011453e+00
9.765445950513147116e+08 3.799987335484204531e-01 -1.742775889119758226e+00 3.549405819952704100e+00
1.108967097348923445e+09 3.799986443782271128e-01 -1.741200286838189948e+00 3.549349625854096857e+00
1.110130913099724293e+09 3.799986435851934186e-01 -1.741187998210291799e+00 3.549349276098522576e+00
1.140102450483486414e+09 3.799986223138073216e-01 -1.740844460119994386e+00 3.549342264817339831e+00
1.141302141354626656e+09 3.799986214942270291e-01 -1.740832315883425352e+00 3.549341918565156906e+00
1.300996696231038332e+09 3.799985132102419727e-01 -1.739302927402484933e+00 3.549297796670538574e+00
1.302393275131999016e+09 3.799985122522530623e-01 -1.739290786332357674e+00 3.549297494573574241e+00
1.338531320570144892e+09 3.799984864176003674e-01 -1.738964326292590457e+00 3.549290949790707028e+00
1.339970949615513802e+09 3.799984854276111657e-01 -1.738952224802959856e+00 3.549290648808940407e+00
1.532549478010344744e+09 3.799983539682996736e-01 -1.737487843595930448e+00 3.549260155804021544e+00
1.534225372691497564e+09 3.799983528111688935e-01 -1.737476939230676809e+00 3.549260023784148732e+00
1.535901267372650623e+09 3.799983516540381134e-01 -1.737466034865422948e+00 3.549259891764275476e+00
1.579525222764873028e+09 3.799983202501441837e-01 -1.737164389352087834e+00 3.549255341376073236e+00
1.811753531890434265e+09 3.799981607239286685e-01 -1.735823644211517580e+00 3.549243992023872085e+00
1.813764605507818222e+09 3.799981593273307756e-01 -1.735813187729538187e+00 3.549243934129864275e+00
1.815775679125201702e+09 3.799981579307327162e-01 -1.735802731247559016e+00 3.549243876235856465e+00
1.868372394427658319e+09 3.799981198291659257e-01 -1.735545693021949276e+00 3.549243249528614363e+00
1.870445460252989769e+09 3.799981183862280454e-01 -1.735535428977971195e+00 3.549243208406772876e+00
2.150820543781309605e+09 3.799979246757825280e-01 -1.734258193562409733e+00 3.549246664354685166e+00
2.153233832122169971e+09 3.799979229906311762e-01 -1.734248780898520526e+00 3.549246792235217551e+00
2.216647453083265781e+09 3.799978768100689130e-01 -1.734017675560770133e+00 3.549248160944168173e+00
2.219135132073662758e+09 3.799978750692275531e-01 -1.734008379353029206e+00 3.549248293442341495e+00
2.557218300382188320e+09 3.799976402415227161e-01 -1.732831698230261619e+00 3.549271272935908605e+00
2.560114246391220570e+09 3.799976382095683336e-01 -1.732822770156979608e+00 3.549271472265674632e+00
2.563010192400252819e+09 3.799976361776140066e-01 -1.732813842083697597e+00 3.549271671595441546e+00
2.639552881450788498e+09 3.799975801712618395e-01 -1.732582693797799944e+00 3.549274867382441023e+00
3.047212365110467911e+09 3.799972956506774691e-01 -1.731425491939631911e+00 3.549312545605971536e+00
3.050687500321306705e+09 3.799972932012877225e-01 -1.731416249008153940e+00 3.549312891084417387e+00
3.054162635532145500e+09 3.799972907518978094e-01 -1.731407006076675748e+00 3.549313236562863239e+00
3.146442352534121037e+09 3.799972229124860545e-01 -1.731173584647316854e+00 3.549319637915944625e+00
3.150024610280292511e+09 3.799972203821632144e-01 -1.731164480110472192e+00 3.549320003494733200e+00
3.642155513206080914e+09 3.799968752896478730e-01 -1.729941474381691879e+00 3.549379763569288304e+00
3.646325675459087849e+09 3.799968723368867263e-01 -1.729931677236433041e+00 3.549380284354652026e+00
3.650495837712094307e+09 3.799968693841256906e-01 -1.729921880091173536e+00 3.549380805140015305e+00
3.761874233326463223e+09 3.799967871239136041e-01 -1.729704733861729959e+00 3.549391243713937882e+00
4.355253258470215797e+09 3.799963690174174569e-01 -1.728415423008545337e+00 3.549476248235226006e+00
4.360257453173823357e+09 3.799963654572280913e-01 -1.728405532190061322e+00 3.549476966057271810e+00
4.365261647877430916e+09 3.799963618970387258e-01 -1.728395641371577529e+00 3.549477683879318057e+00
4.499532748418192863e+09 3.799962623149830687e-01 -1.728171526091389687e+00 3.549490301577153062e+00
4.504691199572679520e+09 3.799962586378078377e-01 -1.728161484653298885e+00 3.549491017868526832e+00
5.220978942194394112e+09 3.799957514065414599e-01 -1.726662581377296224e+00 3.549595021406302564e+00
5.226983975838722229e+09 3.799957471143363685e-01 -1.726650221453544409e+00 3.549595819145194842e+00
5.232989009483053207e+09 3.799957428221313327e-01 -1.726637861529793039e+00 3.549596616884087119e+00
5.395039868837243080e+09 3.799956221161610581e-01 -1.726369498099212363e+00 3.549611272579773047e+00
5.401230010222629547e+09 3.799956176826280174e-01 -1.726356779801462071e+00 3.549612093752377184e+00
6.265854796307735443e+09 3.799950018185992429e-01 -1.724683562755416899e+00 3.549742913111072262e+00
6.273060836680931091e+09 3.799949966374613908e-01 -1.724670637603702872e+00 3.549743971343715998e+00
6.468410385063029289e+09 3.799948503731322980e-01 -1.724339942769178569e+00 3.549763422605313412e+00
6.475838554725490570e+09 3.799948450206274142e-01 -1.724326591654268048e+00 3.549764514085220757e+00
7.518264613169108391e+09 3.799940978132211322e-01 -1.722330066054511111e+00 3.549922366102673976e+00
7.526911861616942406e+09 3.799940915583704393e-01 -1.722313416454017920e+00 3.549923588451614265e+00
7.535559110064776421e+09 3.799940853035196353e-01 -1.722296766853524952e+00 3.549924810800554109e+00
7.771311343858894348e+09 3.799939076587663944e-01 -1.721920948677900798e+00 3.549949185173599808e+00
7.780225147453847885e+09 3.799939011957088608e-01 -1.721904131375720182e+00 3.549950436361782646e+00
9.038450890298423767e+09 3.799929923588865055e-01 -1.719488997442672584e+00 3.550147325686224598e+00
9.048827588435825348e+09 3.799929847939588212e-01 -1.719469885913543994e+00 3.550148894228588148e+00
9.059204286573226929e+09 3.799929772290311369e-01 -1.719450774384415404e+00 3.550150462770950810e+00
9.343706298008886337e+09 3.799927613170952512e-01 -1.718970229478122391e+00 3.550179239204581005e+00
1.086059908322612000e+10 3.799916556058456907e-01 -1.716140201193184778e+00 3.550420173463278317e+00
1.087305112099100113e+10 3.799916464468476862e-01 -1.716117337147216038e+00 3.550422030585357991e+00
1.088550315875588226e+10 3.799916372878495707e-01 -1.716094473101246853e+00 3.550423887707436776e+00
1.122844093012608910e+10 3.799913746160259453e-01 -1.715522708216886016e+00 3.550459859689502728e+00
1.124127680730282211e+10 3.799913651474709497e-01 -1.715499441429110705e+00 3.550461770648240645e+00
1.307208099026912117e+10 3.799900162673561788e-01 -1.712106225373254631e+00 3.550749999565170789e+00
1.308702343558697891e+10 3.799900051589619188e-01 -1.712079035543500716e+00 3.550752228122968646e+00
1.310196588090483665e+10 3.799899940505676588e-01 -1.712051845713746800e+00 3.550754456680765170e+00
1.348140491978560829e+10 3.799897003470141810e-01 -1.711460639614470258e+00 3.550794865865507077e+00
1.349649815867485428e+10 3.799896891021130041e-01 -1.711433476883366778e+00 3.550797109226163428e+00
1.570579277335831833e+10 3.799880403513264393e-01 -1.707443846836411705e+00 3.551142519345479531e+00
1.572341389401691437e+10 3.799880270924320125e-01 -1.707412933421744272e+00 3.551145144936586284e+00
1.606019603621739388e+10 3.799877637856001744e-01 -1.706882001565167339e+00 3.551180420917195768e+00
1.607737048457271385e+10 3.799877508572057083e-01 -1.706851635227731201e+00 3.551182993270460830e+00
1.609454493292803574e+10 3.799877379288111867e-01 -1.706821268890295062e+00 3.551185565623725893e+00
1.795176816212073898e+10 3.799863237077343858e-01 -1.703583390034468348e+00 3.551471295059246192e+00
1.796255877216405869e+10 3.799863154479406480e-01 -1.703564700005799182e+00 3.551472975308606728e+00
1.953642822384769440e+10 3.799851111769352308e-01 -1.700806003927749943e+00 3.551724480081434265e+00
1.982407891547200775e+10 3.799848819199074246e-01 -1.700359935605724848e+00 3.551756294104222000e+00
1.983660966441351318e+10 3.799848722569765802e-01 -1.700338392767025475e+00 3.551758191218404193e+00
2.204953992748269653e+10 3.799831515125734471e-01 -1.696563315030741315e+00 3.552093744453839186e+00
2.206457682621250153e+10 3.799831398010334871e-01 -1.696537702547700643e+00 3.552096025241840760e+00
2.470955116885371399e+10 3.799810594437761924e-01 -1.692114612895380343e+00 3.552504792042961768e+00
2.472746299346921158e+10 3.799810453306107783e-01 -1.692084760474498850e+00 3.552507569527163067e+00
2.474537481808470535e+10 3.799810312174453641e-01 -1.692054908053617357e+00 3.552510347011363478e+00
2.648089666545549393e+10 3.799796475363189652e-01 -1.689160446492567802e+00 3.552781302165358923e+00
2.649109696277266693e+10 3.799796393725286547e-01 -1.689143430840537530e+00 3.552782898224212449e+00
2.821627061612003708e+10 3.799782512990268479e-01 -1.686266349847419743e+00 3.553049667931077238e+00
2.852594364064659119e+10 3.799779931388975740e-01 -1.685786745996133096e+00 3.553086428882811454e+00
3.028732923118983459e+10 3.799765705422250561e-01 -1.682798504442109877e+00 3.553370152924024694e+00
3.062655734778384781e+10 3.799762853103171301e-01 -1.682278075460998279e+00 3.553410722468691940e+00
3.301461432977535629e+10 3.799743265111251711e-01 -1.678302858687878096e+00 3.553781914574408951e+00
3.303055404687450409e+10 3.799743134244506493e-01 -1.678276335584147017e+00 3.553784393953614451e+00
3.560181263692039490e+10 3.799721794575798284e-01 -1.673951141856562908e+00 3.554189438678000634e+00
3.591486460085751343e+10 3.799719097990142402e-01 -1.673455893656869975e+00 3.554228187461926147e+00
3.839395864541686249e+10 3.799698197815922218e-01 -1.669227960380620823e+00 3.554619456077366291e+00
4.042382680860199738e+10 3.799680941891016572e-01 -1.665682650125252851e+00 3.554952898804066397e+00
4.071275677927457428e+10 3.799678405125112013e-01 -1.665212199155907236e+00 3.554990003766010265e+00
4.315859882501546478e+10 3.799657278633475355e-01 -1.660904360452734263e+00 3.555384382564406032e+00
4.345937896195871735e+10 3.799654595475046026e-01 -1.660395139809501597e+00 3.555425386033314261e+00
4.506369622549850464e+10 3.799640475664849415e-01 -1.657539874525965962e+00 3.555677579519844311e+00
4.669651551224729156e+10 3.799626020840293217e-01 -1.654593647377575083e+00 3.555939557702166631e+00
4.865806611557601929e+10 3.799608498811178903e-01 -1.650989733725239716e+00 3.556257406628623663e+00
5.098915388827040863e+10 3.799587451374619729e-01 -1.646622077490274894e+00 3.556638172705201661e+00
5.339958853583264160e+10 3.799565413248778278e-01 -1.641997723452834457e+00 3.557039681497747630e+00
5.597428190237861633e+10 3.799541433326084072e-01 -1.636948776701488528e+00 3.557463644205125952e+00
5.810369981169741058e+10 3.799521372043070389e-01 -1.632667097174807846e+00 3.557822865042072014e+00
6.034231320298000336e+10 3.799500006161605770e-01 -1.628045337237583379e+00 3.558206869817712725e+00
6.063900510432833099e+10 3.799497089983973619e-01 -1.627442855950928635e+00 3.558252306743475479e+00
6.066239653752297974e+10 3.799496863045795925e-01 -1.627393313163961297e+00 3.558256368386900625e+00
6.068578797071762085e+10 3.799496636107618786e-01 -1.627343770376993737e+00 3.558260430030325772e+00
6.306499541479504395e+10 3.799473544148496695e-01 -1.622300803851425499e+00 3.558673778212880112e+00
6.332377596750156403e+10 3.799470943028581682e-01 -1.621752228651616390e+00 3.558715129185944903e+00
6.334525046834857178e+10 3.799470731168466675e-01 -1.621705358865244584e+00 3.558718935134920436e+00
6.553885651524896240e+10 3.799449070228503311e-01 -1.616910610883697252e+00 3.559108080637168658e+00
6.556086550951368713e+10 3.799448849833678699e-01 -1.616861402802053149e+00 3.559112043037273132e+00
6.586568714171125793e+10 3.799445722332910891e-01 -1.616188821535957887e+00 3.559162416039756138e+00
6.783790594035735321e+10 3.799426017051771853e-01 -1.611758186353217992e+00 3.559522710624213993e+00
6.809332121622938538e+10 3.799423365009893527e-01 -1.611182997989728749e+00 3.559565742763182605e+00
7.047205365155447388e+10 3.799399115594040421e-01 -1.605696325887446374e+00 3.560003383231970631e+00
7.049495329370440674e+10 3.799398878471348384e-01 -1.605642010381966411e+00 3.560007674296803870e+00
7.079083217295800781e+10 3.799395740776433383e-01 -1.604947458192174548e+00 3.560059356141919817e+00
7.282113788114657593e+10 3.799374739992296135e-01 -1.600103880981165849e+00 3.560444734591001303e+00
7.307172290592538452e+10 3.799372048829449122e-01 -1.599501184161912670e+00 3.560489470612714147e+00
7.514412657268580627e+10 3.799350144730983536e-01 -1.594411929127255600e+00 3.560887479590505222e+00
7.516400817942501831e+10 3.799349931627216681e-01 -1.594362053523913136e+00 3.560891348936699785e+00
7.720303419657420349e+10 3.799328012692024248e-01 -1.589222810351660131e+00 3.561289192898423828e+00
7.748866797192655945e+10 3.799324841963953037e-01 -1.588495665215181152e+00 3.561342274763308779e+00
7.932304182521713257e+10 3.799304850404654488e-01 -1.583736380487466899e+00 3.561708904136178688e+00
7.956939547883065796e+10 3.799302079611875382e-01 -1.583094556205099090e+00 3.561755835535378889e+00
8.169745678944657898e+10 3.799278406297438293e-01 -1.577416455586330812e+00 3.562184920987502057e+00
8.196992107945024109e+10 3.799275272390201241e-01 -1.576679633768401034e+00 3.562237862088294627e+00
8.388347407873687744e+10 3.799253636230348619e-01 -1.571395140977736915e+00 3.562634864791869305e+00
8.416645614913568115e+10 3.799250338418250217e-01 -1.570611963904799735e+00 3.562690858082520506e+00
8.626104890039533997e+10 3.799226112550974088e-01 -1.564655863861172502e+00 3.563130816696936431e+00
8.650099593591897583e+10 3.799223242594330641e-01 -1.563963585420236946e+00 3.563179788184290153e+00
8.829775000959352112e+10 3.799202103054102331e-01 -1.558686002852372354e+00 3.563567883924654733e+00
8.853067814237815857e+10 3.799199281369269876e-01 -1.557999428112955886e+00 3.563616302568368255e+00
9.050462103852879333e+10 3.799175530739366535e-01 -1.552017526456166419e+00 3.564051617808629668e+00
9.076237722580468750e+10 3.799172330805264397e-01 -1.551224618269238853e+00 3.564107146192431408e+00
9.273209261236405945e+10 3.799148124226778833e-01 -1.545056369553521769e+00 3.564553238999842222e+00
9.275097561454270935e+10 3.799147889089491414e-01 -1.544995969840609717e+00 3.564557595015290126e+00
9.465809038193969727e+10 3.799123990106240689e-01 -1.538837097187890190e+00 3.565001168115843999e+00
9.650912136844628906e+10 3.799100337382324000e-01 -1.532674783867985058e+00 3.565443392058683436e+00
9.673460851555780029e+10 3.799097376752222921e-01 -1.531918095827815796e+00 3.565495764578612281e+00
9.853332344856719971e+10 3.799073895704282444e-01 -1.525721713317998773e+00 3.565939016219434876e+00
9.877722101294522095e+10 3.799070605422811830e-01 -1.524868089136199867e+00 3.565997605725428343e+00
1.005466351442580414e+11 3.799046993758340429e-01 -1.518560372527666180e+00 3.566448825847716719e+00
1.022538773395592499e+11 3.799023757295797998e-01 -1.512269051971855571e+00 3.566901001832637697e+00
1.022702853470800476e+11 3.799023531271796816e-01 -1.512207435161984748e+00 3.566905425505408900e+00
1.039324059258495331e+11 3.799000447753396181e-01 -1.505889759577768716e+00 3.567358340307261955e+00
1.055638337138179321e+11 3.798977330939918295e-01 -1.499511153216852133e+00 3.567814219554217292e+00
1.057993701258545837e+11 3.798973897070106465e-01 -1.498567765660890450e+00 3.567883620503341291e+00
1.073695882526304932e+11 3.798951145123272144e-01 -1.492237193931409411e+00 3.568334307044446874e+00
1.088994672148015289e+11 3.798928528280791084e-01 -1.485888241145313149e+00 3.568785003129511857e+00
1.104020345243569794e+11 3.798905863328885801e-01 -1.479478432033812796e+00 3.569238612449974646e+00
1.118651144751782532e+11 3.798883346786483539e-01 -1.473055720816540237e+00 3.569692004912280225e+00
1.120795716780330658e+11 3.798879945847058459e-01 -1.472089969452622382e+00 3.569761193900503393e+00
1.135048693180900574e+11 3.798857501633850497e-01 -1.465634124712842823e+00 3.570214965419044706e+00
1.146936449885941620e+11 3.798838474134614840e-01 -1.460124238160935173e+00 3.570599331657624553e+00
1.160521776110893250e+11 3.798816254979632268e-01 -1.453661868264156443e+00 3.571049496034023996e+00
1.173782579815270844e+11 3.798794120783062778e-01 -1.447177683117592650e+00 3.571499213318287680e+00
1.175972217105876007e+11 3.798790386585020329e-01 -1.446092316920106313e+00 3.571574883360818742e+00
1.189014210903476257e+11 3.798768096846774633e-01 -1.439535982485234289e+00 3.572026061506173189e+00
1.201700383423189240e+11 3.798745965143329739e-01 -1.432980703425016156e+00 3.572475448477443472e+00
1.214115142542659912e+11 3.798723854193329363e-01 -1.426389780737573609e+00 3.572924758557608271e+00
1.226263937867695465e+11 3.798701763674594556e-01 -1.419783135196886148e+00 3.573371094305075601e+00
1.238111566833332672e+11 3.798679768482630115e-01 -1.413155020214175828e+00 3.573816351760728871e+00
1.249677320204968719e+11 3.798657843312008842e-01 -1.406513564076606215e+00 3.574259450102837743e+00
1.259081309784919891e+11 3.798639699115958224e-01 -1.400981526526410503e+00 3.574625072926679081e+00
1.270112731505333710e+11 3.798617971305863206e-01 -1.394336740139344943e+00 3.575061974605106663e+00
1.280848099038050537e+11 3.798596379182094807e-01 -1.387699989860503802e+00 3.575495451816011361e+00
1.291290542797549438e+11 3.798574931770982155e-01 -1.381088411074060218e+00 3.575923321914747710e+00
1.301452338534975891e+11 3.798553620363599448e-01 -1.375532710670140046e+00 3.576286481179503873e+00
1.311802417462702484e+11 3.798531525715246326e-01 -1.369153649605830081e+00 3.576687682243924193e+00
1.322347222512573242e+11 3.798508558930584478e-01 -1.362097230665334502e+00 3.577126009888440983e+00
1.332435782863359680e+11 3.798486096767642595e-01 -1.356184084618470287e+00 3.577496457036217326e+00
1.342404932964531250e+11 3.798463470877211923e-01 -1.350585916755439042e+00 3.577839421006891119e+00
1.352748568966865997e+11 3.798439575612098662e-01 -1.343589345274323277e+00 3.578255899614743107e+00
1.362903566729228516e+11 3.798415596183666865e-01 -1.337334923530286712e+00 3.578629714678399409e+00
1.372733559108022156e+11 3.798391912692928862e-01 -1.331361224955389222e+00 3.578980054828551971e+00
1.382634111956058044e+11 3.798367597578752863e-01 -1.325292540440729194e+00 3.579328339312685348e+00
1.392544122980471802e+11 3.798342788440375317e-01 -1.319128551208008426e+00 3.579675359874165519e+00
1.402369850326652222e+11 3.798317700199190239e-01 -1.312839087808045591e+00 3.580024537966269627e+00
1.412020367840360107e+11 3.798292558427718291e-01 -1.306496079178635750e+00 3.580373587931072521e+00
1.421443798588951111e+11 3.798267504460888788e-01 -1.300135052851631556e+00 3.580720702055292470e+00
1.430623142522764587e+11 3.798242596991726616e-01 -1.293784326426671738e+00 3.581063835775237347e+00
1.439555303606151733e+11 3.798217861716399191e-01 -1.287454827303911031e+00 3.581402473394486918e+00
1.448251355545122375e+11 3.798193286201159147e-01 -1.281145406520591612e+00 3.581736948089726980e+00
1.456722028332250671e+11 3.798168857763676298e-01 -1.274855335816969415e+00 3.582067490911173380e+00
1.464976408265017395e+11 3.798144567117414105e-01 -1.268585613697493342e+00 3.582394155907264288e+00
1.479496686069700623e+11 3.798100635528702251e-01 -1.257211449087121791e+00 3.582980494319851772e+00
1.487163037410309448e+11 3.798076758852113599e-01 -1.251010568240606080e+00 3.583296682307932635e+00
1.494641414629372864e+11 3.798052997651752971e-01 -1.244826620317146970e+00 3.583609552874194470e+00
1.501947015398431396e+11 3.798029318150418776e-01 -1.238654662379182980e+00 3.583919043028827911e+00
1.509085246886150208e+11 3.798005716073887816e-01 -1.232496891063734612e+00 3.584225075315928599e+00
1.522659227442128601e+11 3.797959490219192658e-01 -1.220416507849616305e+00 3.584817527487256683e+00
1.528943019544971313e+11 3.797937455780548976e-01 -1.214653137347384781e+00 3.585096798412074737e+00
1.534747367448398132e+11 3.797916720374595601e-01 -1.209218984958220888e+00 3.585357843297602543e+00
1.544893619646763000e+11 3.797879540775100926e-01 -1.199463428322375957e+00 3.585820865668511992e+00
1.549376132347965088e+11 3.797862720177475060e-01 -1.195041319499844823e+00 3.586028062022697860e+00
1.557330804361817017e+11 3.797832242186951479e-01 -1.187002385654785330e+00 3.586400119442889611e+00
1.564310091156012573e+11 3.797804811456884644e-01 -1.179737786101383801e+00 3.586732143079492729e+00
1.570576446727248230e+11 3.797779605998320984e-01 -1.173031128736821360e+00 3.587033529459782599e+00
1.579026663304212341e+11 3.797744706619481381e-01 -1.163719612685176319e+00 3.587445990324656275e+00
1.584206665404176025e+11 3.797722771759549643e-01 -1.157847249804686340e+00 3.587701844586187239e+00
1.591436146246828613e+11 3.797691432017596957e-01 -1.149428730916281394e+00 3.588063079970520874e+00
1.598145804537445068e+11 3.797661548338498450e-01 -1.141374439021431764e+00 3.588402803535383878e+00
1.602710549097070312e+11 3.797640753564953120e-01 -1.135747439031298489e+00 3.588636871982176402e+00
1.608372530590129089e+11 3.797614419197641311e-01 -1.128606906977796420e+00 3.588929871443541586e+00
