# #MIST v1.1 [Fe/H] = 0, v_init = 0, reprocessed track 
# #star_age 	 star_mass 	 logL 	 logT
5.840434233495704575e+03 3.999999725615230872e-01 7.976541798786129789e-01 3.568745070264736974e+00
5.918428886380120275e+03 3.999999722406064606e-01 7.964612635117661599e-01 3.568761853909003356e+00
6.254327391928413817e+03 3.999999709653533908e-01 7.917762326837016751e-01 3.568843024077134718e+00
6.860985777228070219e+03 3.999999687361334155e-01 7.836083139290346278e-01 3.568990395116495407e+00
7.212356901106129953e+03 3.999999674617844003e-01 7.789139297311427068e-01 3.569068108598932199e+00
7.569127097478292853e+03 3.999999661890344393e-01 7.742199343409512657e-01 3.569144283357503333e+00
7.931179417724710220e+03 3.999999649186259942e-01 7.695296395516788568e-01 3.569218981904614285e+00
8.384287459152137671e+03 3.999999633359029860e-01 7.636744389183455217e-01 3.569308909046124967e+00
8.759661149393952655e+03 3.999999620665870559e-01 7.589734192057476792e-01 3.569379696000829050e+00
9.438042123865325266e+03 3.999999598465410755e-01 7.507470753127958307e-01 3.569502368994344810e+00
9.920740498928849775e+03 3.999999582683685384e-01 7.449493065564050109e-01 3.569601930123743383e+00
1.032033727080513563e+04 3.999999570036105179e-01 7.402434574088982977e-01 3.569666760280153728e+00
1.113785318536332852e+04 3.999999544793768624e-01 7.308254975829322486e-01 3.569789393254324761e+00
1.155802660038981048e+04 3.999999532138721614e-01 7.261001827672888265e-01 3.569849840506103433e+00
1.241849588171682990e+04 3.999999506857399023e-01 7.166462663899104690e-01 3.569966775960918604e+00
1.296277035385112686e+04 3.999999491104885285e-01 7.107329449718465808e-01 3.570033709288659374e+00
1.376279008106467518e+04 3.999999468971221495e-01 7.024323714248892347e-01 3.570130776184647470e+00
1.469386629914970763e+04 3.999999443795780874e-01 6.928825368847191246e-01 3.570236920932188696e+00
1.527923342383913950e+04 3.999999428205723295e-01 6.869923199121356072e-01 3.570296895762631095e+00
1.625411264766637032e+04 3.999999403227539330e-01 6.775381219289565715e-01 3.570393170637561120e+00
1.726367913822397895e+04 3.999999378201809508e-01 6.680382263449404778e-01 3.570479971242676243e+00
1.830810048106626709e+04 3.999999353156671877e-01 6.585400889854353679e-01 3.570563868989729439e+00
1.926050259055424613e+04 3.999999331211709364e-01 6.501858980887276207e-01 3.570632532032205653e+00
1.993948872416531958e+04 3.999999315634190089e-01 6.442322098639856609e-01 3.570673334561300649e+00
2.119883957277988520e+04 3.999999287755857669e-01 6.335422278890292525e-01 3.570739739938188162e+00
2.236908468008574346e+04 3.999999262873772388e-01 6.240297918513294517e-01 3.570802007379745291e+00
2.358254985768746337e+04 3.999999237911673888e-01 6.144704561137197540e-01 3.570864097992180408e+00
2.483428001028644940e+04 3.999999213004523657e-01 6.048905866237117568e-01 3.570912511058482508e+00
2.663119379013842627e+04 3.999999178799388266e-01 5.916947604878226574e-01 3.570972545191202219e+00
2.798124454331945890e+04 3.999999153985416278e-01 5.821333626747517975e-01 3.571025324891672348e+00
2.953626031389154377e+04 3.999999126241403080e-01 5.713722642397665030e-01 3.571054638226927480e+00
3.098269501776985635e+04 3.999999101466254481e-01 5.617206658267286379e-01 3.571074111024144848e+00
3.247949568258141517e+04 3.999999076669580322e-01 5.520489451725318908e-01 3.571089308992454026e+00
3.462986634026902902e+04 3.999999042596111831e-01 5.387517811268963674e-01 3.571102801861845144e+00
3.644013066496557440e+04 3.999999014802260167e-01 5.278297848464265085e-01 3.571098319685345412e+00
3.811295505100026639e+04 3.999998990156615752e-01 5.181443598009652929e-01 3.571095982567797034e+00
4.072936178364031366e+04 3.999998953185166517e-01 5.035509011747077990e-01 3.571075611919772186e+00
4.254816317586234800e+04 3.999998928537214504e-01 4.938042157250437381e-01 3.571051015889963764e+00
4.465192415006957890e+04 3.999998900906163724e-01 4.828610301750579925e-01 3.571023249075984118e+00
4.735041585957728967e+04 3.999998867190635021e-01 4.694688690202686310e-01 3.570974971725977998e+00
4.962953502370613569e+04 3.999998839658679972e-01 4.585038399881823379e-01 3.570926498769416924e+00
5.257113779713901022e+04 3.999998805856441741e-01 4.450120513411690015e-01 3.570854621321862155e+00
5.506016902419248072e+04 3.999998778204560956e-01 4.339549833467063467e-01 3.570784998574005442e+00
5.825948092837780132e+04 3.999998744408093665e-01 4.203951013715530038e-01 3.570686635951824783e+00
6.096642627468486899e+04 3.999998716767189655e-01 4.092613170312638382e-01 3.570591343232223380e+00
6.475774174778540328e+04 3.999998679895669373e-01 3.944262704889641702e-01 3.570457019654773134e+00
6.739801469905622071e+04 3.999998655278281801e-01 3.845103911396027807e-01 3.570357007568498275e+00
7.153667343416916265e+04 3.999998618287137209e-01 3.696220502764200333e-01 3.570194687372774123e+00
7.554860620043486415e+04 3.999998584256033718e-01 3.559629095012364353e-01 3.570035608872216493e+00
7.894857284688290383e+04 3.999998556381081372e-01 3.448176031787524298e-01 3.569896056199836298e+00
8.370402651134968619e+04 3.999998519250422824e-01 3.299961797085760873e-01 3.569693821362443398e+00
8.835965431470586918e+04 3.999998484737584126e-01 3.163229513020320294e-01 3.569493835379191626e+00
9.234503873762782314e+04 3.999998456166394822e-01 3.051397401329690173e-01 3.569320961219164090e+00
9.799486871249327669e+04 3.999998417589437083e-01 2.902462101824196949e-01 3.569079811573321326e+00
1.019905055805448792e+05 3.999998391424423594e-01 2.803176807876723853e-01 3.568910986592893408e+00
1.083666757256527198e+05 3.999998351385323225e-01 2.654646663458760103e-01 3.568638631789589066e+00
1.129189858752692817e+05 3.999998323962772884e-01 2.555622820612815094e-01 3.568446752215538975e+00
1.202121098307958891e+05 3.999998281823539115e-01 2.409363826733117164e-01 3.568153014443666393e+00
1.255050592669128673e+05 3.999998252459396886e-01 2.312308804905724990e-01 3.567951373596857323e+00
1.342313908203842002e+05 3.999998205973888665e-01 2.168565212451229463e-01 3.567644261081168722e+00
1.407262122024666169e+05 3.999998172727438073e-01 2.073713537860712441e-01 3.567433310619512632e+00
1.478922865109382838e+05 3.999998137187141256e-01 1.980343860173289783e-01 3.567228357482929546e+00
1.558569146229870676e+05 3.999998098901277332e-01 1.888950300381727621e-01 3.567023866394132270e+00
1.648368174708375009e+05 3.999998057030341725e-01 1.799634424468745664e-01 3.566825983926630528e+00
1.751683987536300847e+05 3.999998010266997972e-01 1.711466372304640271e-01 3.566614588909168049e+00
1.856569040288975812e+05 3.999997964405678785e-01 1.635122640312240416e-01 3.566429869292184307e+00
1.941598869870828348e+05 3.999997927423277200e-01 1.580830141524474097e-01 3.566299762151225572e+00
2.076780751488148817e+05 3.999997870837617153e-01 1.504505362540360380e-01 3.566108714707441507e+00
2.163797354481932707e+05 3.999997834898659788e-01 1.460266876088433530e-01 3.566001281750695640e+00
2.282217392158129078e+05 3.999997786330460325e-01 1.403572298191150813e-01 3.565867181932815377e+00
2.384653881648269016e+05 3.999997745406760896e-01 1.356775455803477248e-01 3.565749016091683821e+00
2.579162514703628840e+05 3.999997669896374619e-01 1.270909824807003319e-01 3.565528279668163325e+00
2.696544867669366067e+05 3.999997625061819662e-01 1.218617276968136237e-01 3.565394130526704508e+00
2.844209010695060715e+05 3.999997569269388986e-01 1.150154873673744221e-01 3.565219964740397263e+00
2.963719693625764921e+05 3.999997525427961831e-01 1.093451978891155085e-01 3.565072833997333213e+00
3.195732067453434574e+05 3.999997442707891593e-01 9.761705177929806687e-02 3.564768459663628430e+00
3.306572991737375269e+05 3.999997404345643215e-01 9.160418164759195903e-02 3.564614002725567055e+00
3.513850628870323999e+05 3.999997334719076481e-01 7.943771714419656238e-02 3.564291580259304038e+00
3.701593207262271317e+05 3.999997274168510253e-01 6.726362507330405083e-02 3.563965690992932256e+00
3.951047989050588803e+05 3.999997197640570157e-01 4.914025344459518885e-02 3.563480345584480347e+00
4.115308921841646079e+05 3.999997149689738518e-01 3.578170462780646405e-02 3.563124599984863305e+00
4.315585788369930815e+05 3.999997094322633728e-01 1.835258425859139647e-02 3.562655847000558040e+00
4.512174088371219113e+05 3.999997043057893498e-01 2.332668743976716585e-06 3.562168737068510005e+00
4.740083000993395690e+05 3.999996987563155804e-01 -2.190199734419809655e-02 3.561584438163365007e+00
4.962289987783826655e+05 3.999996937233312178e-01 -4.317064873319315099e-02 3.561014604300630992e+00
5.188003487699908437e+05 3.999996889578076864e-01 -6.383745580092624328e-02 3.560477489355021952e+00
5.424836484345069621e+05 3.999996842891907489e-01 -8.423028245903843580e-02 3.559957642918593734e+00
5.677507547728705686e+05 3.999996796355499984e-01 -1.045909161063439674e-01 3.559443215096409485e+00
5.948227862884284696e+05 3.999996749765345472e-01 -1.248494838123534317e-01 3.558943680532886678e+00
6.219890660854607122e+05 3.999996706038191352e-01 -1.437674405464513250e-01 3.558495984581341087e+00
6.527089743528813124e+05 3.999996659656744891e-01 -1.638311943879218746e-01 3.558022095508636351e+00
6.792457128850085428e+05 3.999996621889841952e-01 -1.801380858478104086e-01 3.557643619276760205e+00
7.139647784396655625e+05 3.999996575464735971e-01 -2.000998223892751504e-01 3.557199695256676897e+00
7.485861449305416318e+05 3.999996532121314896e-01 -2.186519742983484005e-01 3.556807113788099439e+00
7.878328509020410711e+05 3.999996485994696815e-01 -2.383798701358518235e-01 3.556393574965255766e+00
8.217331729128969600e+05 3.999996448418725592e-01 -2.544375320737146673e-01 3.556060042313935021e+00
8.631609858681658516e+05 3.999996405187323800e-01 -2.728061813610703767e-01 3.555703362995121353e+00
9.101274746439378941e+05 3.999996359156431369e-01 -2.923159027726617287e-01 3.555335840707778416e+00
9.472758207907992182e+05 3.999996324777260748e-01 -3.068678213895636997e-01 3.555066592075795118e+00
9.997008309855983825e+05 3.999996278956278184e-01 -3.261891541083810631e-01 3.554726469359806629e+00
1.052141537580220727e+06 3.999996235989181637e-01 -3.442458052339587016e-01 3.554423151022307437e+00
1.100101706573185744e+06 3.999996198746170739e-01 -3.599162612500261260e-01 3.554155357148085947e+00
1.158597532961032586e+06 3.999996155960776067e-01 -3.778208970211642814e-01 3.553872935363979746e+00
1.212026865461429814e+06 3.999996118921761989e-01 -3.933224923972591380e-01 3.553628184270107848e+00
1.277244293662587414e+06 3.999996076298183434e-01 -4.110716169689419552e-01 3.553369485111395498e+00
1.332309118468383327e+06 3.999996042164987164e-01 -4.252904949013762703e-01 3.553160887809979407e+00
1.409730976303420728e+06 3.999995996794533659e-01 -4.441592917281978470e-01 3.552891549679685568e+00
1.471028010349868797e+06 3.999995962823549855e-01 -4.582638275269486083e-01 3.552695911124253758e+00
1.557328832628777716e+06 3.999995917588933247e-01 -4.770108327706952811e-01 3.552444125118793927e+00
1.625605928149483865e+06 3.999995883734184798e-01 -4.910201540835571477e-01 3.552261180514471928e+00
1.715117991342700552e+06 3.999995841718667622e-01 -5.083659315965018965e-01 3.552044757775619122e+00
1.797260780353523791e+06 3.999995805119183623e-01 -5.235003652509497840e-01 3.551849760575606751e+00
1.877015401688241865e+06 3.999995771344518891e-01 -5.374293477681136855e-01 3.551679269238776193e+00
1.981911942091417033e+06 3.999995729270979239e-01 -5.547242350396983657e-01 3.551481453471147631e+00
2.077802630939258728e+06 3.999995692779083623e-01 -5.697601221097901014e-01 3.551300914681682297e+00
2.194431368790563196e+06 3.999995650858167995e-01 -5.869778704921311263e-01 3.551107730720224787e+00
2.292541436004006770e+06 3.999995617371081558e-01 -6.007324579913625451e-01 3.550953322556645197e+00
2.430575553253005259e+06 3.999995572758614504e-01 -6.190238548066546720e-01 3.550755910703695228e+00
2.539779536869482137e+06 3.999995539332629191e-01 -6.327259593944608573e-01 3.550608778681386468e+00
2.683545832343434915e+06 3.999995497634034614e-01 -6.497901796759084636e-01 3.550432649487179848e+00
2.814735007694103755e+06 3.999995461488778381e-01 -6.645814991335676769e-01 3.550280220019188526e+00
2.941682054855687078e+06 3.999995428212894111e-01 -6.781605954754535981e-01 3.550149693924723682e+00
3.108339587597562000e+06 3.999995386792272734e-01 -6.950468311618692718e-01 3.549991813711182331e+00
3.260535390138239134e+06 3.999995350855902743e-01 -7.096610793526965111e-01 3.549864073498142147e+00
3.445650613691029139e+06 3.999995309526649390e-01 -7.264495434552863395e-01 3.549722233722461873e+00
3.601466297650516964e+06 3.999995276450619142e-01 -7.398652938620118302e-01 3.549613920113445786e+00
3.764458452938170172e+06 3.999995243400076839e-01 -7.532439422924993577e-01 3.549512582571677122e+00
3.993085930703225080e+06 3.999995199449098982e-01 -7.710234858133246938e-01 3.549381012390801615e+00
4.173980222649781033e+06 3.999995166473844788e-01 -7.843468977352516802e-01 3.549286497875704161e+00
4.411128967865759507e+06 3.999995125470958701e-01 -8.009233434205298430e-01 3.549166908160583667e+00
4.627336845222704113e+06 3.999995089885103328e-01 -8.152315588233625121e-01 3.549082675104206608e+00
4.890452602552829310e+06 3.999995048953357557e-01 -8.317414609193363173e-01 3.548972470832751469e+00
5.111739369348769076e+06 3.999995016179557217e-01 -8.449209156966672740e-01 3.548894030694622614e+00
5.361238448485526256e+06 3.999994980852642490e-01 -8.590837872182006674e-01 3.548820524025519951e+00
5.664467974402597174e+06 3.999994940254743558e-01 -8.754360260983886644e-01 3.548717105406840489e+00
5.941655507421600632e+06 3.999994904904915494e-01 -8.895760699817398809e-01 3.548651837399087405e+00
6.278818417466070503e+06 3.999994864243716641e-01 -9.059055562701764375e-01 3.548560582553239584e+00
6.561770390079917386e+06 3.999994831742582635e-01 -9.189354636109674512e-01 3.548493440200626736e+00
6.958344851621461101e+06 3.999994788499712794e-01 -9.362290548058963546e-01 3.548415069952109313e+00
7.271681833396445960e+06 3.999994756060030188e-01 -9.491943740807962104e-01 3.548358441474256608e+00
7.599320369265872054e+06 3.999994723616607240e-01 -9.621491808024065229e-01 3.548304925751220473e+00
8.058625069061685354e+06 3.999994680436294026e-01 -9.793677452269955452e-01 3.548239836454914364e+00
8.420966765368752182e+06 3.999994648087321636e-01 -9.922494980291451938e-01 3.548195716623425255e+00
8.927506410314379260e+06 3.999994605142379589e-01 -1.009336698238276320e+00 3.548140985967064509e+00
9.326997736188303679e+06 3.999994572965471784e-01 -1.022109341189868292e+00 3.548107640378850292e+00
9.852594347298007458e+06 3.999994532764349908e-01 -1.038053554208815843e+00 3.548069452564998727e+00
1.033091916268467158e+07 3.999994497842245256e-01 -1.051879366817566996e+00 3.548042300277381322e+00
1.091134673780627176e+07 3.999994457763844102e-01 -1.067701788830851317e+00 3.548022651158736718e+00
1.143812147681517340e+07 3.999994423036920543e-01 -1.081377357891407875e+00 3.548014293361112959e+00
1.207495205792628042e+07 3.999994383301613832e-01 -1.097022902812910150e+00 3.548005879855630429e+00
1.260777172559223324e+07 3.999994351566108497e-01 -1.109486028437142613e+00 3.548007727703304859e+00
1.335862732580293901e+07 3.999994309045874497e-01 -1.126147014794481871e+00 3.548019437744577509e+00
1.394936275096066296e+07 3.999994277231528339e-01 -1.138590373832452318e+00 3.548033873965229734e+00
1.477444451302796602e+07 3.999994234971655516e-01 -1.155087212760022908e+00 3.548060663958928274e+00
1.542803422842528298e+07 3.999994203127171799e-01 -1.167580842459749357e+00 3.548064406991533026e+00
1.634269798166570254e+07 3.999994160751013661e-01 -1.184142133365078786e+00 3.548084414470793924e+00
1.706400107319590077e+07 3.999994128958425099e-01 -1.196299884704385530e+00 3.548165381599499568e+00
1.801064282111740112e+07 3.999994089262349228e-01 -1.211661760989401593e+00 3.548218463400135469e+00
1.887293589549624175e+07 3.999994054716289882e-01 -1.225004245382590895e+00 3.548268363210585363e+00
1.991114093109700084e+07 3.999994015289584648e-01 -1.240182063321418227e+00 3.548333969429525947e+00
2.108382650356391817e+07 3.999993973046793716e-01 -1.256389755772267192e+00 3.548411178197453886e+00
2.200981973671025783e+07 3.999993941292458999e-01 -1.268534692702240951e+00 3.548472974709051542e+00
2.330697144437909126e+07 3.999993898951094140e-01 -1.284666067479505625e+00 3.548561538430488493e+00
2.433011517203065753e+07 3.999993867149929661e-01 -1.296730889912626417e+00 3.548632103136491356e+00
2.566586713457849994e+07 3.999993827614010677e-01 -1.311650714465605549e+00 3.548727666287782689e+00
2.688668008003593236e+07 3.999993793062596725e-01 -1.324636747388145963e+00 3.548811608063481060e+00
2.835619868186460808e+07 3.999993753576807642e-01 -1.339370871783434058e+00 3.548917815084906557e+00
3.002806430317131430e+07 3.999993710917925105e-01 -1.355174818183652041e+00 3.549037735076033151e+00
3.134812601213683188e+07 3.999993678818464238e-01 -1.366969535525658364e+00 3.549134388264790552e+00
3.319913817599733919e+07 3.999993635918890900e-01 -1.382591513323848442e+00 3.549271755206422352e+00
3.466045556837849319e+07 3.999993603625392469e-01 -1.394231284526162629e+00 3.549382488699013294e+00
3.657795955824660510e+07 3.999993563208533720e-01 -1.408633776270559412e+00 3.549531513702312679e+00
3.832954448577331007e+07 3.999993527864067477e-01 -1.421093918792708077e+00 3.549664990918356189e+00
4.046216957049814612e+07 3.999993486929877551e-01 -1.435308417619560517e+00 3.549833331692905602e+00
4.241782016164098680e+07 3.999993450998301503e-01 -1.447613161908837043e+00 3.549984841921007384e+00
4.479091090151862800e+07 3.999993409474976169e-01 -1.461565055642127797e+00 3.550177976226186694e+00
4.731024530078107864e+07 3.999993367518798193e-01 -1.475377641241392368e+00 3.550384259358556172e+00
4.962008211194801331e+07 3.999993330631598232e-01 -1.487285674062727159e+00 3.550570306394393860e+00
5.244173413026811182e+07 3.999993287688485832e-01 -1.500800826805475774e+00 3.550803939499908246e+00
5.503384940673556179e+07 3.999993249845071874e-01 -1.512419803770236992e+00 3.551014390540225385e+00
5.821271196159987152e+07 3.999993205550483877e-01 -1.525600135124068002e+00 3.551279421500852962e+00
6.091784373707675189e+07 3.999993169363302292e-01 -1.536044963424696208e+00 3.551500786740339866e+00
6.377630851040899754e+07 3.999993132511014404e-01 -1.546357943783271516e+00 3.551732481347285475e+00
6.782841591563051939e+07 3.999993082445534309e-01 -1.559805958503793999e+00 3.552058464756061795e+00
7.110819003396682441e+07 3.999993043580589158e-01 -1.569768386397278448e+00 3.552321138899872111e+00
7.552700692669051886e+07 3.999992993319729795e-01 -1.582009418290131419e+00 3.552672886740294800e+00
7.935484255748042464e+07 3.999992951414358955e-01 -1.591661769416742089e+00 3.552966135379215018e+00
8.348547504549910128e+07 3.999992907729907343e-01 -1.601195658200005312e+00 3.553265225541707650e+00
8.795866508845883608e+07 3.999992862009287831e-01 -1.610503181903376602e+00 3.553589545454240550e+00
9.284625726323635876e+07 3.999992813699947414e-01 -1.619669194644985266e+00 3.553921266135751544e+00
9.773515687228436768e+07 3.999992766938433864e-01 -1.627881144058699769e+00 3.554237441058600844e+00
1.036695631995230913e+08 3.999992711845431481e-01 -1.636759338854792523e+00 3.554582154605811617e+00
1.097295870670538247e+08 3.999992657378275140e-01 -1.644733646801016969e+00 3.554895743148867915e+00
1.153358614763390422e+08 3.999992608124038340e-01 -1.651304094544814749e+00 3.555137554330659810e+00
1.230431698579321504e+08 3.999992542382795890e-01 -1.659179929870701287e+00 3.555427699381387363e+00
1.295565717286406010e+08 3.999992488097971477e-01 -1.664988290614099808e+00 3.555613994613816775e+00
1.370522937280342579e+08 3.999992426919209421e-01 -1.670854385050341895e+00 3.555770092259131765e+00
1.446262684649572372e+08 3.999992366473275052e-01 -1.676023599676251585e+00 3.555875458540940670e+00
1.510137446442222595e+08 3.999992315961713452e-01 -1.679840062807837153e+00 3.555917279606454429e+00
1.613770394185380042e+08 3.999992235824264553e-01 -1.685219651900984772e+00 3.555928666165708574e+00
1.686303007609361708e+08 3.999992180397506369e-01 -1.688376447873944031e+00 3.555897456271900126e+00
1.772053409022802711e+08 3.999992115563633099e-01 -1.691560759106242928e+00 3.555829861829967520e+00
1.772730302330445945e+08 3.999992115057274256e-01 -1.691581422801911039e+00 3.555829110529793002e+00
1.875888842415303588e+08 3.999992037900498287e-01 -1.694718886648670431e+00 3.555714402982151690e+00
1.909777073534259200e+08 3.999992012292385990e-01 -1.695348795362815242e+00 3.555687405865648909e+00
2.040559785249729753e+08 3.999991915616745164e-01 -1.698068306639039848e+00 3.555525746858939407e+00
2.149949404813973308e+08 3.999991836037215531e-01 -1.700012091178213058e+00 3.555368027138884113e+00
2.198936964410924911e+08 3.999991799528122005e-01 -1.700270563686668623e+00 3.555335478934332993e+00
2.388003573619697690e+08 3.999991661820589961e-01 -1.701739940535733631e+00 3.555136172080996193e+00
2.389482582296689451e+08 3.999991660747287403e-01 -1.701744708308178478e+00 3.555134874446816085e+00
2.460090799409359992e+08 3.999991608248419928e-01 -1.701573712166108976e+00 3.555113232047900418e+00
2.618728927230404019e+08 3.999991494401057834e-01 -1.702423403102084842e+00 3.554937351119694444e+00
2.703675947582683563e+08 3.999991431062871472e-01 -1.702099978782215972e+00 3.554919838516427344e+00
2.894534465315817595e+08 3.999991294471093028e-01 -1.702326011897660862e+00 3.554755624197887709e+00
2.996731481519044042e+08 3.999991217904059204e-01 -1.701893604607613186e+00 3.554744596046939709e+00
2.998991549904156923e+08 3.999991216257238191e-01 -1.701887978948052327e+00 3.554743756031539359e+00
3.349302149596721530e+08 3.999990960877694568e-01 -1.700998946489115760e+00 3.554614513311013191e+00
3.352014231658857465e+08 3.999990958893358539e-01 -1.700991058682509438e+00 3.554613569270301365e+00
3.354726313720993400e+08 3.999990956909021955e-01 -1.700983170875903117e+00 3.554612625229589540e+00
3.776726282589351535e+08 3.999990647926601195e-01 -1.699742668602902684e+00 3.554473342956470105e+00
3.779980781063914299e+08 3.999990645533189060e-01 -1.699732472148027584e+00 3.554472632911037433e+00
3.957727535754928589e+08 3.999990509497102220e-01 -1.699118310789286213e+00 3.554491551106691016e+00
4.291587941265245676e+08 3.999990268918061087e-01 -1.698147804099106928e+00 3.554365800981184709e+00
4.295493339434720874e+08 3.999990266028312647e-01 -1.698136435717897186e+00 3.554365176889145772e+00
4.509599989737975597e+08 3.999990100826152917e-01 -1.697499281755395772e+00 3.554392900197218985e+00
4.910846870976791978e+08 3.999989810141558189e-01 -1.696380578868824207e+00 3.554274843218329316e+00
4.915495086296779513e+08 3.999989806678677096e-01 -1.696368523215781465e+00 3.554274433810087785e+00
5.173357457786145210e+08 3.999989606056982838e-01 -1.695706485399582020e+00 3.554316799964472473e+00
5.178329890975748301e+08 3.999989602329439009e-01 -1.695694967776677053e+00 3.554316264209071985e+00
5.960231875694321394e+08 3.999989015319073138e-01 -1.693930948252603264e+00 3.554241672256265083e+00
5.966136171023175716e+08 3.999989010862113892e-01 -1.693918954171036440e+00 3.554241380889012092e+00
5.972040466352028847e+08 3.999989006405154646e-01 -1.693906960089470060e+00 3.554241089521758656e+00
6.905009788883889914e+08 3.999988300997120438e-01 -1.692063771650759385e+00 3.554203309141453104e+00
6.912059775585199594e+08 3.999988295638540747e-01 -1.692051129567883505e+00 3.554203227691688394e+00
6.919109762286509275e+08 3.999988290279961056e-01 -1.692038487485007625e+00 3.554203146241924571e+00
7.368195798678064346e+08 3.999987932355813514e-01 -1.691337270537877524e+00 3.554284443518072045e+00
8.046677025694488287e+08 3.999987431642779701e-01 -1.690126252888238145e+00 3.554192215688161571e+00
8.055124706627445221e+08 3.999987425176357858e-01 -1.690114239493454740e+00 3.554192177988687806e+00
8.596032541711997986e+08 3.999986990556609889e-01 -1.689386559035352064e+00 3.554306749550773858e+00
8.605152520819387436e+08 3.999986983527589191e-01 -1.689372038696464795e+00 3.554307605886102728e+00
9.421959481579756737e+08 3.999986376943936439e-01 -1.688167393165046715e+00 3.554223268536901070e+00
1.007346915710918188e+09 3.999985849214003353e-01 -1.687196129632113184e+00 3.554430211321863986e+00
1.008441313203804970e+09 3.999985840713149443e-01 -1.687182751862862151e+00 3.554430857310454162e+00
1.009535710696691871e+09 3.999985832212293868e-01 -1.687169374093611118e+00 3.554431503299044781e+00
1.185295948054312229e+09 3.999984463884548869e-01 -1.685076314367106143e+00 3.554554998201843397e+00
1.186609225045776367e+09 3.999984453611651891e-01 -1.685061549649009560e+00 3.554556232670365468e+00
1.187922502037240744e+09 3.999984443338753803e-01 -1.685046784930913644e+00 3.554557467138887983e+00
1.282290451786980152e+09 3.999983664643809167e-01 -1.684047464467129718e+00 3.554786554757757955e+00
1.401198685451020718e+09 3.999982770543637489e-01 -1.682868603271056251e+00 3.554734063878507655e+00
1.402774617840777874e+09 3.999982758120914639e-01 -1.682855558131871820e+00 3.554735037135449360e+00
1.516434380788816929e+09 3.999981811276314692e-01 -1.682096216307765735e+00 3.554885440224681670e+00
1.518149720928024769e+09 3.999981797635776548e-01 -1.682085655380418654e+00 3.554885571976567071e+00
1.661542716238876343e+09 3.999980713116809694e-01 -1.680996402149566249e+00 3.554848155501217910e+00
1.798436299674545765e+09 3.999979564081792560e-01 -1.680195697967554969e+00 3.555010211673798715e+00
1.800494707841595173e+09 3.999979547622952714e-01 -1.680179865203116796e+00 3.555012352688353250e+00
1.802553116008644104e+09 3.999979531164111202e-01 -1.680164032438678401e+00 3.555014493702907785e+00
2.138073647237649679e+09 3.999976838844573335e-01 -1.677841559743280531e+00 3.555318405943718840e+00
2.140543737038108826e+09 3.999976818920717991e-01 -1.677827256206100515e+00 3.555320155649701164e+00
2.143013826838567972e+09 3.999976798996863203e-01 -1.677812952668920943e+00 3.555321905355683931e+00
2.145483916639026642e+09 3.999976779073008970e-01 -1.677798649131741149e+00 3.555323655061665367e+00
2.550084625954200745e+09 3.999973504141194347e-01 -1.674177937404844663e+00 3.556050396456179818e+00
2.553048733714751244e+09 3.999973480039272777e-01 -1.674139115662993671e+00 3.556059956095809937e+00
2.556012841475302696e+09 3.999973455937353428e-01 -1.674100293921143123e+00 3.556069515735439612e+00
2.741383847979394913e+09 3.999971837910810679e-01 -1.675760777082564656e+00 3.555444339924149766e+00
2.743769803921423912e+09 3.999971818482921382e-01 -1.675828602988116867e+00 3.555420430921058639e+00
3.116520210108912468e+09 3.999968831855734708e-01 -1.678501875413580091e+00 3.554187233092799936e+00
3.119063745785301685e+09 3.999968811903034105e-01 -1.678450384675093332e+00 3.554200839255983624e+00
3.220969600160275936e+09 3.999967955327785596e-01 -1.675553057261204515e+00 3.555037439019763212e+00
3.313565539794737816e+09 3.999967156514497857e-01 -1.676260267658155945e+00 3.554762642874185197e+00
3.718536658261770248e+09 3.999963942337398382e-01 -1.674473385294820815e+00 3.554953132618478673e+00
3.844676485107291222e+09 3.999962850360330169e-01 -1.673816030067935223e+00 3.555078519491674083e+00
3.995786308722704411e+09 3.999961532614246251e-01 -1.672486284168648307e+00 3.555413554059012604e+00
3.999049828110161304e+09 3.999961506268596145e-01 -1.672469723050481694e+00 3.555416211545415539e+00
4.180374843026530266e+09 3.999959905221443512e-01 -1.671407723688238978e+00 3.555655366278085872e+00
4.759947844264789581e+09 3.999955162243280515e-01 -1.667329380186187260e+00 3.556530340553715419e+00
4.764122439711883545e+09 3.999955127990891257e-01 -1.667285502844968459e+00 3.556541410698784933e+00
4.955875239396932602e+09 3.999953384166333170e-01 -1.670389376842359663e+00 3.555475227998257104e+00
4.959429741606876373e+09 3.999953355082717099e-01 -1.670460087022191953e+00 3.555450310933007785e+00
5.399678139558804512e+09 3.999949927852608500e-01 -1.669350888146419187e+00 3.555490504013655517e+00
5.529819367069906235e+09 3.999948761436197264e-01 -1.671207942548629699e+00 3.554815995420850250e+00
5.634527779150780678e+09 3.999947843648076762e-01 -1.669106424057145599e+00 3.555418641176390615e+00
5.826320005242525101e+09 3.999946128706932669e-01 -1.669110482014167118e+00 3.555314356232420536e+00
5.948524486134355545e+09 3.999945033293446639e-01 -1.668352465610368762e+00 3.555493584894404258e+00
6.621891802643781662e+09 3.999939588599180085e-01 -1.666015115476916053e+00 3.555843455938225262e+00
6.797518142823120117e+09 3.999937987425397079e-01 -1.663080650408302885e+00 3.556709191614233934e+00
6.946113704280731201e+09 3.999936607414869005e-01 -1.667022958587699888e+00 3.555406905800889028e+00
6.950626653366418839e+09 3.999936570795087354e-01 -1.667086419964293187e+00 3.555384186118436762e+00
7.055855037502366066e+09 3.999935615745054962e-01 -1.667688445211654713e+00 3.555121148428055822e+00
7.779004662374199867e+09 3.999929830769610728e-01 -1.664566828817381383e+00 3.555662959315361249e+00
7.943777467531244278e+09 3.999928331236659584e-01 -1.664593548124357891e+00 3.555571893188651522e+00
8.172383198384249687e+09 3.999926230540018501e-01 -1.663138942717393043e+00 3.555939540631652740e+00
8.499961369877073288e+09 3.999923172032309182e-01 -1.660669100404547072e+00 3.556609954092333048e+00
9.416047481715377808e+09 3.999915688064222818e-01 -1.663147656544564423e+00 3.555246898977717507e+00
9.507737754120681763e+09 3.999914846502015120e-01 -1.663532350918276892e+00 3.555047020089139309e+00
9.577224428907745361e+09 3.999914216674411716e-01 -1.662102799400642761e+00 3.555466439400519540e+00
9.832567594032394409e+09 3.999911839850492923e-01 -1.659990401370551316e+00 3.556042349134706182e+00
1.009958814795894814e+10 3.999909317098002681e-01 -1.658223843308165968e+00 3.556511301461934504e+00
1.120320153783218384e+10 3.999900221575987125e-01 -1.659762982476515880e+00 3.555334966645734340e+00
1.133797751907880783e+10 3.999898963236814819e-01 -1.657501972746060925e+00 3.555978175144215214e+00
1.143024275576882935e+10 3.999898097571998878e-01 -1.656672522673922510e+00 3.556227304087628216e+00
1.171641121629266739e+10 3.999895367315917660e-01 -1.655482058077514029e+00 3.556499212090979078e+00
1.185436857171473694e+10 3.999894042884617473e-01 -1.659216089946460526e+00 3.555210457971068827e+00
1.308120794867547989e+10 3.999883999739933804e-01 -1.653960705290180355e+00 3.556174328368175264e+00
1.316480025745237732e+10 3.999883208562247106e-01 -1.653399875762202598e+00 3.556340448626809092e+00
1.332779966605799484e+10 3.999881666363699906e-01 -1.653416110012312590e+00 3.556237062781425706e+00
1.340847657095894241e+10 3.999880899456521033e-01 -1.652705261679691340e+00 3.556453444520564666e+00
1.502506151667471886e+10 3.999867294259708550e-01 -1.648665898185271317e+00 3.556904691939559271e+00
1.515822139717104340e+10 3.999866001014716899e-01 -1.652322663301469818e+00 3.555633890238985018e+00
1.526125676109830475e+10 3.999865024490815713e-01 -1.649844434334813092e+00 3.556370432441396279e+00
1.563460497583142090e+10 3.999861364570525546e-01 -1.647132414214901752e+00 3.557132080938502305e+00
1.594933500991464615e+10 3.999858219639839674e-01 -1.650484670474537729e+00 3.555875004775156611e+00
1.758670879048705673e+10 3.999844679762332156e-01 -1.647048828888980854e+00 3.556139732598139425e+00
1.771021830849848938e+10 3.999843482739409706e-01 -1.643671821676198963e+00 3.557168362357586489e+00
1.795759683419697571e+10 3.999841023420143693e-01 -1.643054571679940068e+00 3.557290283477840376e+00
1.834153335745395660e+10 3.999837147267079063e-01 -1.645976647837570583e+00 3.556127993153981759e+00
1.846107345874361420e+10 3.999835977461603242e-01 -1.642819288651137022e+00 3.557094651519606465e+00
2.033062277738226318e+10 3.999820153889112051e-01 -1.638841523720822924e+00 3.557491884189087905e+00
2.065472395217264557e+10 3.999816858545479636e-01 -1.641559836235466197e+00 3.556420446711314298e+00
2.075579412960913849e+10 3.999815863366795177e-01 -1.637243106059979469e+00 3.557782171085193124e+00
2.076822201822776794e+10 3.999815758012106315e-01 -1.637171425003387748e+00 3.557799605069712712e+00
2.265748327143484497e+10 3.999799323931886308e-01 -1.634217769535345921e+00 3.557878945453556430e+00
2.285394686214700317e+10 3.999797308550550046e-01 -1.637440949744736640e+00 3.556695789326431711e+00
2.293656890426753998e+10 3.999796489072244832e-01 -1.633349142225771322e+00 3.557990315781822233e+00
2.475615929253252411e+10 3.999780673020672528e-01 -1.633632877457114718e+00 3.557044347763687497e+00
2.481441778695635986e+10 3.999780099519200660e-01 -1.631422496536688804e+00 3.557712733690258311e+00
2.497181784617588425e+10 3.999778509545951488e-01 -1.629166015491161135e+00 3.558375864292018242e+00
2.503721187599057007e+10 3.999777844780456615e-01 -1.630892118599349683e+00 3.557812383069268947e+00
2.628827290022970963e+10 3.999766608330639350e-01 -1.626888379066373957e+00 3.558526706097791426e+00
2.767291947706929016e+10 3.999753836883325198e-01 -1.628021807143865907e+00 3.557454650831842979e+00
2.776257990952844238e+10 3.999752921280761431e-01 -1.622307575355075082e+00 3.559309066584343206e+00
2.912408534318965149e+10 3.999740667757220591e-01 -1.622244312810351197e+00 3.558719648501534216e+00
2.931575735967925644e+10 3.999738651254710065e-01 -1.620252696577727081e+00 3.559275905108664428e+00
3.106767749657854080e+10 3.999722534204320223e-01 -1.621505096229130860e+00 3.557978487537627466e+00
3.114722180034789658e+10 3.999721717912049224e-01 -1.616073124295008157e+00 3.559741737484062973e+00
3.293681071954652405e+10 3.999705298794402619e-01 -1.615250706819755244e+00 3.559199188819816229e+00
3.319553066966458893e+10 3.999702532056005899e-01 -1.612136440217022848e+00 3.560110905120814628e+00
3.490024543545494080e+10 3.999686606598801819e-01 -1.614059792550838424e+00 3.558590430663044479e+00
3.496726084743579865e+10 3.999685911650839865e-01 -1.610286334650789408e+00 3.559797304642943416e+00
3.674019340505896759e+10 3.999668912632130535e-01 -1.610476151055256100e+00 3.558860948829753568e+00
3.680214490387611389e+10 3.999668265887483809e-01 -1.606578283401747687e+00 3.560113319935505505e+00
3.831688382340390778e+10 3.999653832036092482e-01 -1.607470214589443724e+00 3.559075666857983045e+00
3.998036170893412781e+10 3.999637818970544489e-01 -1.600412049679200699e+00 3.560564533950465460e+00
4.012604955295751190e+10 3.999636240475160087e-01 -1.603817278032083404e+00 3.559357312822788444e+00
4.194481295617629242e+10 3.999618480332984838e-01 -1.593481899194276963e+00 3.561898488947225161e+00
4.357124464187606812e+10 3.999602348240037797e-01 -1.593465465108132362e+00 3.561096395017867344e+00
4.382332654077503967e+10 3.999599566907281467e-01 -1.596112931181127514e+00 3.560012469230088072e+00
4.550433741364038086e+10 3.999582700774318988e-01 -1.588252860538881706e+00 3.561732118846926198e+00
4.728573809741587067e+10 3.999564520489025110e-01 -1.588728376144046939e+00 3.560592843112252659e+00
4.882153334095722198e+10 3.999548658354732944e-01 -1.578416474189879848e+00 3.563217609987252565e+00
5.024543843909877014e+10 3.999533734069155022e-01 -1.582197354575912485e+00 3.561146721865322551e+00
5.179760407995236206e+10 3.999517298947243282e-01 -1.574316854417389777e+00 3.562837826040683886e+00
5.359789548124940491e+10 3.999497957395865555e-01 -1.571794673643524209e+00 3.562639377834879717e+00
5.400939493422239685e+10 3.999493459353113956e-01 -1.573600639808529822e+00 3.561789424067066889e+00
5.414725260530274963e+10 3.999491947888587084e-01 -1.573377264020181965e+00 3.561805184371460431e+00
5.448344915310656738e+10 3.999488247283203846e-01 -1.572851921038591172e+00 3.561842028195870480e+00
5.634627871421138000e+10 3.999467865237080200e-01 -1.568526909604736064e+00 3.562184826172845042e+00
5.660811170390629578e+10 3.999464957238282325e-01 -1.568107246371530872e+00 3.562214378189869635e+00
5.677471005030881500e+10 3.999463098642958570e-01 -1.567834956698345161e+00 3.562233456047636082e+00
5.840312752381224823e+10 3.999444989170511944e-01 -1.563957082117898301e+00 3.562538649112661382e+00
5.876042133668129730e+10 3.999440968755936243e-01 -1.563379582710319182e+00 3.562578527731686151e+00
6.044856230775536346e+10 3.999421921631650112e-01 -1.559240234034656947e+00 3.562901652838267985e+00
6.065626043718959045e+10 3.999419563124828048e-01 -1.558890837832688669e+00 3.562925978840807417e+00
6.102596056075226593e+10 3.999415344540825368e-01 -1.558276470926651669e+00 3.562968309283295554e+00
6.286706102314019775e+10 3.999394236780683398e-01 -1.553636869527702746e+00 3.563327775388133389e+00
6.331896675988864899e+10 3.999389020611487933e-01 -1.552837190658085120e+00 3.563382334088930126e+00
6.489705969247659302e+10 3.999370598810272348e-01 -1.548613116171223769e+00 3.563709702673837576e+00
6.534768298054331970e+10 3.999365340833662130e-01 -1.547583276640445371e+00 3.563779040021682221e+00
6.702201845831623840e+10 3.999345467506215113e-01 -1.543204635265112978e+00 3.564115622495720892e+00
6.741253796086534119e+10 3.999340840789576967e-01 -1.542533204058730512e+00 3.564163488160491777e+00
6.911046652849179077e+10 3.999320352316799720e-01 -1.537934675536095197e+00 3.564514457022462945e+00
6.957324544618887329e+10 3.999314801143007414e-01 -1.537111404648527468e+00 3.564571865144753993e+00
7.124345386974174500e+10 3.999294289780059852e-01 -1.532434885773526378e+00 3.564927532812244948e+00
7.164366178621588135e+10 3.999289425169468837e-01 -1.531701542620989898e+00 3.564978546496420986e+00
7.340025482614395142e+10 3.999267497125963411e-01 -1.526796636231046111e+00 3.565348913890024285e+00
7.361028799709150696e+10 3.999264906162345312e-01 -1.526394061560163218e+00 3.565376783008125994e+00
7.543120331002256775e+10 3.999241795934844745e-01 -1.521209285972057401e+00 3.565767029907441543e+00
7.581734965754296875e+10 3.999236965991813109e-01 -1.520461859483257960e+00 3.565818944389369083e+00
7.768048906037930298e+10 3.999212878216483746e-01 -1.515004599062720114e+00 3.566228512867743117e+00
7.787185661692854309e+10 3.999210443673935078e-01 -1.514615765586927676e+00 3.566255676094367555e+00
7.980168313352157593e+10 3.999185051367532551e-01 -1.508872357923442431e+00 3.566685134652117117e+00
8.015146562873616028e+10 3.999180531966366470e-01 -1.508156711980729536e+00 3.566734670054123590e+00
8.185292512828080750e+10 3.999157612337983503e-01 -1.502716485754856723e+00 3.567143709377334382e+00
8.224643189261131287e+10 3.999152457108525738e-01 -1.501894086245084248e+00 3.567200562431965150e+00
8.407347311821827698e+10 3.999127426676843955e-01 -1.496080666388034164e+00 3.567634692742648550e+00
8.438990932989218140e+10 3.999123197063757518e-01 -1.495393100143153076e+00 3.567682419457264942e+00
8.619224559489308167e+10 3.999098008007512250e-01 -1.489503096586167530e+00 3.568121854584161312e+00
8.652060590731312561e+10 3.999093536428244278e-01 -1.488769942203691521e+00 3.568172749722909209e+00
8.829781141107231140e+10 3.999068191723882393e-01 -1.482800271925751812e+00 3.568617794569834079e+00
8.995828907483003235e+10 3.999044016193139539e-01 -1.476971543244465668e+00 3.569053143718114107e+00
9.039113182355694580e+10 3.999037946532987275e-01 -1.475964852466898014e+00 3.569122819372867905e+00
9.202670987500848389e+10 3.999013636288948348e-01 -1.470077806541461918e+00 3.569561803354730056e+00
9.371946908349523926e+10 3.998988080983861826e-01 -1.463948353027932470e+00 3.570016970465770711e+00
9.408632522647770691e+10 3.998982750947767117e-01 -1.463040722958095952e+00 3.570080056482701103e+00
9.579715887272183228e+10 3.998956388073242607e-01 -1.456728348410815332e+00 3.570546881372496983e+00
9.718869661323147583e+10 3.998934316134339362e-01 -1.451111804624816592e+00 3.570963578439751096e+00
9.766457486464358521e+10 3.998927169947904536e-01 -1.449483412546238359e+00 3.571070866621327777e+00
9.920297393150613403e+10 3.998902392031135622e-01 -1.443400925892450726e+00 3.571523098252991524e+00
1.006661900842559814e+11 3.998878346649623050e-01 -1.437399859720809747e+00 3.571965464033350468e+00
1.021559979256283417e+11 3.998853462223502797e-01 -1.431224623849372657e+00 3.572417584283786418e+00
1.027077594608207550e+11 3.998844678202445602e-01 -1.429671362821785863e+00 3.572525210690383091e+00
1.039961815099981232e+11 3.998822489914158895e-01 -1.423928290551552678e+00 3.572945006629688613e+00
1.054912780773656158e+11 3.998796526799736073e-01 -1.417482862371406194e+00 3.573411959766731982e+00
1.070112573908997803e+11 3.998769661946476317e-01 -1.410836610254757817e+00 3.573890952112667385e+00
1.073277136208754578e+11 3.998764307538794638e-01 -1.409851184101481802e+00 3.573958712318868081e+00
1.086917408745214539e+11 3.998739497849802538e-01 -1.403550379336763410e+00 3.574411296528722914e+00
1.100488676365566711e+11 3.998714364537464538e-01 -1.397154442946532793e+00 3.574868464734764828e+00
1.115588559024664917e+11 3.998686032566997062e-01 -1.389358507814451915e+00 3.575408064665122509e+00
1.127966319542957153e+11 3.998662033060079724e-01 -1.382597176334323219e+00 3.575881740720034507e+00
1.139085917197553101e+11 3.998639907299525453e-01 -1.376477630252533668e+00 3.576315447443989548e+00
1.151393938732709045e+11 3.998615107281004444e-01 -1.370103959665261995e+00 3.576769299363136589e+00
1.165112518838885803e+11 3.998587108606596052e-01 -1.362301233919250176e+00 3.577302047786242056e+00
1.176393547183226624e+11 3.998563315696275766e-01 -1.355485699179352910e+00 3.577771218529971264e+00
1.179545981397224121e+11 3.998556939243363972e-01 -1.353722695935608344e+00 3.577887800008766828e+00
1.190523037979653015e+11 3.998533148609155208e-01 -1.346887202093217217e+00 3.578357405606385822e+00
1.201239274633216858e+11 3.998509422308246797e-01 -1.340056965092628616e+00 3.578823526756624407e+00
1.211696950366487579e+11 3.998485767848427574e-01 -1.334144300654881654e+00 3.579229631805174172e+00
1.222282268327930756e+11 3.998461355297292519e-01 -1.327547206369729338e+00 3.579668925104542154e+00
1.233006216732569275e+11 3.998436089812877903e-01 -1.320089431570727889e+00 3.580161466876415233e+00
1.245839588913835144e+11 3.998405306687412009e-01 -1.312033227971583393e+00 3.580696872938481157e+00
1.255775901356571655e+11 3.998380724843820788e-01 -1.306210369455128362e+00 3.581077979516840148e+00
1.266046893740554047e+11 3.998354827395498301e-01 -1.299240960292930236e+00 3.581525515570472606e+00
1.276261384226392059e+11 3.998328513483955793e-01 -1.292492068785904724e+00 3.581957938598892000e+00
1.286168295979356079e+11 3.998302453447684091e-01 -1.286090379772407699e+00 3.582360748743897094e+00
1.298379369762737427e+11 3.998269677994485960e-01 -1.278481047479550936e+00 3.582840260862366399e+00
1.308355161571063843e+11 3.998242233083008079e-01 -1.271727908944351171e+00 3.583249478874090066e+00
1.318186393988595276e+11 3.998214603542180612e-01 -1.265095484210938981e+00 3.583651726479155641e+00
1.327741857324947205e+11 3.998187176317008484e-01 -1.258608475202609212e+00 3.584041987007837271e+00
1.337142022252562408e+11 3.998159632448281542e-01 -1.252048187427446724e+00 3.584431186630064659e+00
1.348712276142840576e+11 3.998124912543589704e-01 -1.243723079367216489e+00 3.584921337755732296e+00
1.357676270346512299e+11 3.998097370639878689e-01 -1.237070972235619237e+00 3.585306424936631764e+00
1.366384347460014954e+11 3.998070041622894255e-01 -1.230445495575886339e+00 3.585686129178628612e+00
1.380874298560609436e+11 3.998023267093263611e-01 -1.219054979610779910e+00 3.586326141886894803e+00
1.388905629965626221e+11 3.997996572969647056e-01 -1.212519480149554685e+00 3.586691322355931355e+00
1.398673427521031799e+11 3.997963289675037224e-01 -1.204333998058386257e+00 3.587147169765563692e+00
1.406209593639497070e+11 3.997937028962364470e-01 -1.197860990477822130e+00 3.587501833622893876e+00
1.413539976423498840e+11 3.997910950402703278e-01 -1.191419500829456801e+00 3.587851809644437839e+00
1.422414860995269165e+11 3.997878475621049477e-01 -1.183364794154440514e+00 3.588287649375105914e+00
1.429300552724758301e+11 3.997852813511079684e-01 -1.177001444257995688e+00 3.588627136493793390e+00
1.436003732947697144e+11 3.997827315800761006e-01 -1.170672524319097185e+00 3.588962324470937659e+00
1.448858018593299866e+11 3.997776915597963665e-01 -1.158146332838069892e+00 3.589618035155180742e+00
1.455085094444281616e+11 3.997751749876358174e-01 -1.151884901725827248e+00 3.589942062761738217e+00
1.461068476206170044e+11 3.997727073176386980e-01 -1.145739620303861228e+00 3.590257638179736865e+00
1.468119378840071411e+11 3.997697043034081910e-01 -1.138242361190084040e+00 3.590642695850569499e+00
1.476719085451030884e+11 3.997659977104026097e-01 -1.129007624118992803e+00 3.591105720175507443e+00
1.485176332070730286e+11 3.997622046548272579e-01 -1.119524665989779955e+00 3.591578423243867224e+00
1.489858325892107849e+11 3.997600257076948660e-01 -1.114056683971565098e+00 3.591850211680268856e+00
1.498416875366791382e+11 3.997560146726056307e-01 -1.103969575446444473e+00 3.592336920824722668e+00
1.503834032523692627e+11 3.997533893547797201e-01 -1.097321972583272132e+00 3.592653906239855033e+00
1.509315670303481750e+11 3.997506542310788058e-01 -1.090366670194072185e+00 3.592982002556114551e+00
1.515918004375967407e+11 3.997473038078229179e-01 -1.081817560005670753e+00 3.593376960570365153e+00
1.521939964964883423e+11 3.997441647383929153e-01 -1.073761586517101296e+00 3.593742308784970696e+00
1.527919087519015503e+11 3.997409460084166977e-01 -1.065453144614594283e+00 3.594113729137886626e+00
1.533446345523913269e+11 3.997378910349070336e-01 -1.057517237727152892e+00 3.594463443948086478e+00
1.538239772621197510e+11 3.997351938395304338e-01 -1.050487908005970361e+00 3.594767825039751230e+00
