# #MIST v1.1 [Fe/H] = 0, v_init = 0, reprocessed track 
# #star_age 	 star_mass 	 logL 	 logT
1.967595467936569946e+02 3.399991684500124478e+01 4.426645470211774125e+00 3.626228206590817127e+00
1.968516088628121281e+02 3.399991680875540823e+01 4.426639395241436681e+00 3.626230587218307377e+00
2.154571366009287487e+02 3.399990948407441493e+01 4.425415012060831543e+00 3.626711562194909977e+00
2.155536935544722610e+02 3.399990944631729661e+01 4.425410317504199220e+00 3.626713986934201994e+00
2.350778808960027959e+02 3.399990181258826283e+01 4.424467869371500051e+00 3.627204052445599292e+00
2.351793585309802666e+02 3.399990177313348028e+01 4.424464637891641239e+00 3.627206544228488649e+00
2.557064335684009677e+02 3.399989379328406613e+01 4.423825005486190953e+00 3.627710091863975972e+00
2.558126766653736297e+02 3.399989375216515697e+01 4.423823961760652956e+00 3.627712618228847941e+00
2.773177486221681534e+02 3.399988543010272224e+01 4.423630993066812955e+00 3.628223225774240390e+00
2.999424686363433352e+02 3.399987669875593355e+01 4.423895440567456205e+00 3.628741050429973747e+00
3.000601479322122032e+02 3.399987665338490217e+01 4.423899320655528378e+00 3.628743654520505402e+00
3.238904888126974129e+02 3.399986746503880397e+01 4.424716015029565241e+00 3.629270177879560855e+00
3.240135429371998725e+02 3.399986741754060660e+01 4.424722887534306537e+00 3.629272827158426473e+00
3.489310609019432263e+02 3.399985779722695867e+01 4.426159356284634860e+00 3.629807560598196314e+00
3.747879119609042959e+02 3.399984777615669174e+01 4.428352286216854949e+00 3.630335849397245518e+00
3.749198066763760266e+02 3.399984772472384975e+01 4.428366823593476553e+00 3.630338443047681718e+00
4.016093079659685827e+02 3.399983730869128351e+01 4.431371182321195867e+00 3.630861421081314155e+00
4.288488967169131456e+02 3.399982656871721076e+01 4.435234990173439584e+00 3.631371625219808053e+00
4.561120107421514263e+02 3.399981567052970632e+01 4.439941108654854141e+00 3.631858853440262713e+00
4.562446423400521098e+02 3.399981561668725760e+01 4.439967836018126057e+00 3.631861123709066330e+00
4.829325452262295926e+02 3.399980476156979137e+01 4.445425975889917503e+00 3.632316643975007420e+00
5.085415719528754721e+02 3.399979413002898099e+01 4.451477093418256814e+00 3.632739702762075584e+00
5.328368125473377859e+02 3.399978380919635867e+01 4.458034206286794365e+00 3.633119853096509644e+00
5.557856084100810676e+02 3.399977381115886743e+01 4.464946582403940489e+00 3.633461595351622275e+00
5.774692432656482879e+02 3.399976410732602972e+01 4.472147524286759435e+00 3.633769974945586956e+00
6.174017504814657968e+02 3.399974546325353231e+01 4.487139058930647906e+00 3.634294624552003139e+00
6.359610213655747657e+02 3.399973640086609805e+01 4.494865339002165783e+00 3.634520455156439844e+00
6.705415327630406637e+02 3.399971872160276121e+01 4.510645421562993640e+00 3.634901726581164283e+00
7.024593422704631394e+02 3.399970133698354147e+01 4.526826867147202726e+00 3.635220892076429067e+00
7.322133678938926096e+02 3.399968403923542581e+01 4.543347100429491192e+00 3.635472691043968307e+00
7.602165012226012095e+02 3.399966663806300460e+01 4.560014184209352450e+00 3.635669149545380119e+00
7.869123197763116195e+02 3.399964889187137373e+01 4.576909384956386440e+00 3.635830764621506894e+00
8.125680887891188604e+02 3.399963062666478208e+01 4.594231342157516274e+00 3.635992316338259478e+00
8.371704723237435246e+02 3.399961180705959407e+01 4.615246088746893349e+00 3.636466667392790786e+00
8.591830297629269353e+02 3.399959342895435555e+01 4.639524916587279613e+00 3.637448695189048564e+00
8.785163846926345741e+02 3.399957568470196634e+01 4.662618409259981611e+00 3.638662648546635570e+00
9.060670502753413302e+02 3.399954748704876550e+01 4.694359817995212403e+00 3.640686270881832609e+00
9.250468156347960758e+02 3.399952603448852528e+01 4.714470512297157967e+00 3.642185128238937253e+00
9.553903171817332804e+02 3.399948833036141593e+01 4.744031104430972867e+00 3.644711190828386460e+00
9.768645397590953507e+02 3.399945910718193431e+01 4.763572112429780958e+00 3.646600698011245090e+00
9.990565644960338432e+02 3.399942665662963748e+01 4.782933220899344917e+00 3.648658355132194053e+00
1.033300651425318847e+03 3.399937196617317881e+01 4.811630227305089491e+00 3.652066674489814702e+00
1.056482761026605203e+03 3.399933164332752256e+01 4.830471366807999267e+00 3.654522475467640863e+00
1.079516533108750309e+03 3.399928881781185197e+01 4.848842858760889385e+00 3.657060643131899713e+00
1.113336617317238051e+03 3.399922070130739371e+01 4.875304999311403265e+00 3.660929335207749880e+00
1.146235856168491409e+03 3.399914812115197549e+01 4.900549043669863991e+00 3.664827255122155236e+00
1.167602928544992210e+03 3.399909745435735431e+01 4.916708302729739799e+00 3.667419721496033791e+00
1.198778785173549977e+03 3.399901827373714980e+01 4.939959535125982626e+00 3.671277847174718278e+00
1.228844523145214680e+03 3.399893570091693107e+01 4.962005746769857950e+00 3.675086654033333122e+00
1.257726322434169560e+03 3.399885033394383527e+01 4.982812954948327544e+00 3.678839494421146661e+00
1.285400751687318007e+03 3.399876272436686975e+01 5.002381871463889240e+00 3.682534991633531263e+00
1.311845289565852909e+03 3.399867349157317875e+01 5.020712903384238146e+00 3.686173984071330789e+00
1.345281921541981546e+03 3.399855270017066999e+01 5.043320907787430585e+00 3.690961031025429051e+00
1.376390121311452049e+03 3.399843213290287025e+01 5.063713064912128026e+00 3.695643639770524125e+00
1.405184166897383193e+03 3.399831341648769722e+01 5.081970055052773994e+00 3.700223020768089732e+00
1.431813813656480534e+03 3.399819755819221712e+01 5.098257965498348199e+00 3.704712861457114315e+00
1.462111667053408610e+03 3.399805880572333905e+01 5.116012611713629532e+00 3.710183965286300012e+00
1.489395530514978873e+03 3.399792781777141215e+01 5.131207033422446884e+00 3.715510429557846273e+00
1.518900476994301471e+03 3.399778022108274911e+01 5.146680125806430972e+00 3.721783852601592280e+00
1.545442712356585616e+03 3.399764276589473866e+01 5.159636476321484366e+00 3.727961055879899011e+00
1.569692415007173622e+03 3.399751393776296027e+01 5.170573317313655437e+00 3.734111659990454690e+00
1.595639981511375026e+03 3.399737345050358783e+01 5.181212777389783142e+00 3.741289835094510074e+00
1.619513492461942178e+03 3.399724260804082832e+01 5.189919827069086722e+00 3.748489778028013752e+00
1.638733307711236193e+03 3.399713677332056960e+01 5.196177656397965805e+00 3.754769970141542235e+00
1.660207651588089220e+03 3.399701862563502175e+01 5.202365062447832145e+00 3.762365804494492316e+00
1.680576550846252985e+03 3.399690731124336196e+01 5.207168915218264971e+00 3.770085117391348994e+00
1.700115233881053882e+03 3.399680186839219687e+01 5.210763002147515977e+00 3.777928771471689817e+00
1.716398838894241180e+03 3.399671542396249180e+01 5.212885395852391746e+00 3.784749517137135477e+00
1.735265402565048362e+03 3.399661736859075489e+01 5.214333259242533991e+00 3.792932122505583870e+00
1.751476324255992495e+03 3.399653525219505923e+01 5.214797482279189822e+00 3.800171740263939668e+00
1.768099546224516871e+03 3.399645336167338172e+01 5.214451482038357177e+00 3.807725566472015988e+00
1.785306197198825430e+03 3.399637132240049198e+01 5.213210963553427391e+00 3.815636828146480308e+00
1.803402487162351918e+03 3.399628824765959934e+01 5.211032176778072511e+00 3.823974487175596515e+00
1.819141860599977463e+03 3.399621878089429572e+01 5.208480472316086463e+00 3.831180979050336610e+00
1.835775366127457346e+03 3.399614823834996002e+01 5.205202122478873150e+00 3.838697258034994952e+00
1.853291756777927958e+03 3.399607714294042893e+01 5.201208211890667954e+00 3.846451049818227830e+00
1.871911072890656214e+03 3.399600510017197763e+01 5.196479766844917414e+00 3.854464825929550642e+00
1.887643798659741378e+03 3.399594697977026669e+01 5.192093415904284193e+00 3.860977895299126050e+00
1.908533915352707481e+03 3.399587352932028494e+01 5.186187354342671085e+00 3.869313095764256083e+00
1.926298728593482338e+03 3.399581419728900755e+01 5.181110380347764277e+00 3.876157620766857548e+00
1.949872054908961218e+03 3.399573959876340723e+01 5.174330314170386913e+00 3.884850286860906721e+00
1.969905366905792107e+03 3.399567963309733898e+01 5.168637667451034368e+00 3.891882855660256268e+00
1.991023591978673267e+03 3.399561953506237444e+01 5.162810895397612398e+00 3.898945753451190210e+00
2.013376582064966442e+03 3.399555911244350881e+01 5.156757182032914777e+00 3.906030060928443959e+00
2.037015559816195264e+03 3.399549846260430996e+01 5.150598816395718593e+00 3.913115781433608831e+00
2.068502832083569047e+03 3.399542231894202615e+01 5.142815507782216855e+00 3.921957613353370231e+00
2.095355028443786068e+03 3.399536111752860279e+01 5.136550361030248091e+00 3.929011696273689402e+00
2.123723227877062982e+03 3.399529977517314450e+01 5.130369369230537657e+00 3.936054016630642582e+00
2.153685513291059124e+03 3.399523829364946437e+01 5.124082686687724930e+00 3.943038224295506211e+00
2.185352929622631564e+03 3.399517663850647864e+01 5.117788155227361635e+00 3.949987041644870800e+00
2.218778737370684212e+03 3.399511488068052500e+01 5.111503157562088617e+00 3.956891396756982093e+00
2.254048901762084824e+03 3.399505302706469223e+01 5.105229687483573642e+00 3.963747302162940578e+00
2.300860716514097476e+03 3.399497559169283534e+01 5.097422589307154972e+00 3.972242338918261506e+00
2.340662362956628385e+03 3.399491345738502446e+01 5.091214258781885604e+00 3.978983746079507444e+00
2.382703467678581546e+03 3.399485110003094945e+01 5.085064767105063055e+00 3.985677198159483403e+00
2.427139438198343214e+03 3.399478844794547427e+01 5.079051500211138048e+00 3.992339136182154746e+00
2.474044666915085145e+03 3.399472552837062267e+01 5.073227453855357894e+00 3.998964425217691243e+00
2.523704576955215998e+03 3.399466423004389526e+01 5.067553618858781306e+00 4.005541213070061168e+00
2.576510309795993635e+03 3.399460999483603985e+01 5.062124010710061128e+00 4.012097819311408742e+00
2.632591802835451745e+03 3.399456337727654898e+01 5.057189155783389900e+00 4.018682536980732856e+00
2.692177386961977390e+03 3.399452452748971609e+01 5.052778292124648019e+00 4.025276556440251952e+00
2.755727608361389684e+03 3.399449352572592886e+01 5.049060179640230572e+00 4.031922625865545839e+00
2.823517708611715079e+03 3.399447072409068937e+01 5.046119328419909067e+00 4.038611216879093746e+00
2.896069981820919566e+03 3.399445537119780170e+01 5.044394373038118218e+00 4.045483188462474011e+00
2.953411353887344376e+03 3.399444427960871451e+01 5.043859282806703703e+00 4.050703690676548341e+00
3.034422165379047328e+03 3.399442838916175447e+01 5.044271262399965039e+00 4.057803291749031871e+00
3.098841757384222092e+03 3.399441551041745413e+01 5.045528703942190774e+00 4.063272437702554640e+00
3.188969724885030246e+03 3.399439701469697894e+01 5.048632911299389292e+00 4.070799584240960556e+00
3.259930055560000710e+03 3.399438198518572563e+01 5.051837076696642725e+00 4.076560705312440192e+00
3.333403258303510029e+03 3.399436591252556639e+01 5.055888614454591590e+00 4.082476974228049116e+00
3.409135507358361792e+03 3.399434873111236755e+01 5.060602519001589528e+00 4.088481240924409121e+00
3.487240967721177185e+03 3.399433029172233489e+01 5.065949091611537725e+00 4.094588205682947901e+00
3.567187948149296517e+03 3.399431057939324319e+01 5.071873677025418914e+00 4.100792436524487883e+00
3.648872347448819710e+03 3.399428948667956263e+01 5.078178924227957580e+00 4.107019171821638892e+00
3.732493654318806875e+03 3.399426682361445984e+01 5.084995637303794780e+00 4.113358826011018543e+00
3.817380481196183155e+03 3.399424261708760753e+01 5.092120798929546055e+00 4.119725145508353670e+00
3.903602645088123609e+03 3.399421670487724612e+01 5.099533439076330055e+00 4.126127331867556869e+00
3.991119113363303313e+03 3.399418894527659063e+01 5.107195730047408233e+00 4.132565340229631623e+00
4.079764665747593426e+03 3.399415923088108826e+01 5.115057999033249203e+00 4.139029548547167536e+00
4.169400092999230765e+03 3.399412744687978716e+01 5.123073239575552051e+00 4.145512483875117837e+00
4.259886105105183560e+03 3.399409348043935353e+01 5.131195835624981605e+00 4.152007011179099649e+00
4.351089790800786432e+03 3.399405721987119477e+01 5.139381051940733691e+00 4.158506542595583610e+00
4.442888818368557622e+03 3.399401855442511078e+01 5.147585715150960084e+00 4.165005399121682217e+00
4.535174029672219149e+03 3.399397737412461140e+01 5.155768282111736767e+00 4.171498806794469161e+00
4.628042984306865947e+03 3.399393348528315073e+01 5.163859409470140882e+00 4.177966014393634353e+00
4.721125720918897059e+03 3.399388691177202304e+01 5.171878420521274222e+00 4.184445787089569713e+00
4.814147622081831287e+03 3.399383766437301801e+01 5.179739448977985106e+00 4.190889211863201957e+00
4.907208502274454986e+03 3.399378558080697132e+01 5.187431690837279064e+00 4.197306082387335380e+00
5.000264606918328354e+03 3.399373057714288393e+01 5.194928085918011362e+00 4.203695593149567422e+00
5.093249178229582867e+03 3.399367259594032475e+01 5.202201561050430634e+00 4.210054695752565301e+00
5.186109235194609937e+03 3.399361158723869636e+01 5.209199679833256269e+00 4.216361086641362554e+00
5.279131413019949832e+03 3.399354729592174351e+01 5.215965300104838498e+00 4.222668240694519071e+00
5.371596219221466527e+03 3.399348014896354897e+01 5.222437229064020414e+00 4.228976889841954190e+00
5.463394666035037517e+03 3.399341021149724185e+01 5.228603361528591620e+00 4.235272777597786309e+00
5.584959581778499341e+03 3.399331246463262346e+01 5.236357872084691500e+00 4.243622698447437003e+00
5.675774949194010333e+03 3.399323556183644257e+01 5.241839276410809489e+00 4.249851563996885240e+00
5.766368281304385164e+03 3.399315549762719968e+01 5.247040088926254064e+00 4.256046825772565434e+00
5.856831796840209790e+03 3.399307218247219708e+01 5.251968082694498108e+00 4.262207321024238382e+00
5.977345155204425282e+03 3.399295593691882544e+01 5.258127319820171230e+00 4.270363017168044451e+00
6.067829983849850578e+03 3.399286469956665258e+01 5.262454080573238713e+00 4.276441590961736594e+00
6.188655176125541402e+03 3.399273757841274346e+01 5.267846675364815212e+00 4.284490415411982056e+00
6.279576730281673917e+03 3.399263794030277097e+01 5.271625169671050770e+00 4.290490814934535990e+00
6.401245684994919429e+03 3.399249929091962485e+01 5.276323669612819955e+00 4.298438437021765424e+00
6.492995237982193430e+03 3.399239074104880842e+01 5.279608780019459324e+00 4.304365589667241032e+00
6.616036409525145245e+03 3.399223983036160490e+01 5.283686278419348348e+00 4.312218946565367084e+00
6.709030394052242627e+03 3.399212175800492020e+01 5.286532471493842422e+00 4.318078556445167138e+00
6.833994527827002457e+03 3.399195772446523733e+01 5.290058643575103581e+00 4.325845314679688691e+00
6.960287653937823052e+03 3.399178578626834479e+01 5.293298301669665307e+00 4.333566249118124603e+00
7.056030769706681895e+03 3.399165138129325214e+01 5.295552486389388136e+00 4.339331119473035514e+00
7.185065422965692960e+03 3.399146480370478685e+01 5.298335367774472893e+00 4.346978284104493717e+00
7.315686475864516069e+03 3.399126969508756702e+01 5.300876310078684206e+00 4.354573613480562599e+00
7.414936120461608880e+03 3.399111733663145429e+01 5.302635209042931841e+00 4.360245534435811976e+00
7.549104898975858305e+03 3.399090585532529474e+01 5.304795153188154977e+00 4.367776815514955224e+00
7.685638996313720781e+03 3.399068428149595178e+01 5.306756249660583791e+00 4.375280809357987799e+00
7.824753860555487336e+03 3.399045208806378326e+01 5.308529324551832573e+00 4.382761257509422137e+00
7.930828553920409831e+03 3.399027078739278807e+01 5.309740899463118780e+00 4.388353871251425176e+00
8.074703568249451564e+03 3.399001915068736679e+01 5.311205418868235384e+00 4.395786679469200209e+00
8.221631912307335369e+03 3.398975555329967335e+01 5.312504723258124173e+00 4.403198984208459343e+00
8.371814682266476666e+03 3.398953229676672549e+01 5.313679912116970883e+00 4.410596922250284990e+00
8.523504615140045644e+03 3.398950835706317974e+01 5.314708503897359826e+00 4.417888574580304706e+00
8.638451613876048214e+03 3.398949152899152892e+01 5.315357524877569517e+00 4.423291721024757983e+00
8.794390391718570754e+03 3.398946694759324316e+01 5.316094120727518302e+00 4.430459329059845075e+00
8.953715391826974155e+03 3.398943971710061618e+01 5.316690993038869273e+00 4.437593087975124639e+00
9.116605632446311574e+03 3.398940964120905761e+01 5.317152958505167781e+00 4.444695395825307926e+00
9.283239987832219413e+03 3.398937652017841060e+01 5.317483896633138585e+00 4.451765384900096656e+00
9.453876459474435251e+03 3.398934013567921397e+01 5.317687372684061664e+00 4.458806883805146448e+00
9.628727816587244888e+03 3.398930027540227172e+01 5.317766985831255511e+00 4.465820043966987285e+00
9.808031258209197404e+03 3.398925672104470408e+01 5.317725921733023497e+00 4.472806166615772128e+00
9.992100129023421687e+03 3.398920923507114367e+01 5.317568046913062396e+00 4.479766675056224834e+00
1.018126602868889677e+04 3.398915757358049916e+01 5.317296933419463301e+00 4.486705008892230673e+00
1.037588270281526457e+04 3.398910148567657075e+01 5.316915900841816089e+00 4.493622256897695344e+00
1.057635648928011142e+04 3.398904070596423566e+01 5.316427993475054237e+00 4.500519832008690102e+00
1.078318323632795727e+04 3.398897494232018346e+01 5.315834539395109637e+00 4.507399972678211242e+00
1.099695170210345168e+04 3.398890387267478985e+01 5.315134753137546575e+00 4.514265008098409915e+00
1.121840118465575688e+04 3.398882712457034216e+01 5.314322986371206703e+00 4.521115798122737672e+00
1.144847091082548650e+04 3.398874425685113465e+01 5.313385641473097998e+00 4.527952520016877536e+00
1.168800627887374321e+04 3.398865487182099088e+01 5.312296036465722793e+00 4.534761603939200469e+00
1.193917470781970405e+04 3.398855809385739235e+01 5.310997122193194642e+00 4.541545732927001922e+00
1.220492590238630146e+04 3.398845275249823317e+01 5.309335125906711639e+00 4.548265966191543441e+00
1.249146262723425571e+04 3.398833649776153010e+01 5.307061092819358450e+00 4.554895669051721718e+00
1.280481340779900347e+04 3.398820710912531240e+01 5.304181082715269113e+00 4.561509452505435824e+00
1.315484956594415780e+04 3.398806098495445838e+01 5.300051898224765523e+00 4.567886515671985670e+00
1.356611026145623327e+04 3.398788932408263719e+01 5.293800341798476694e+00 4.573929221849868831e+00
1.393933296770452216e+04 3.398773551951128269e+01 5.286933299505339079e+00 4.578168663606281719e+00
1.457701298959964333e+04 3.398748102818836969e+01 5.273427978811287886e+00 4.583358861604335921e+00
1.497555277718012258e+04 3.398732868014749187e+01 5.264394591370951559e+00 4.585704700372438936e+00
1.568147847715311218e+04 3.398707267368181562e+01 5.248549709352293924e+00 4.588856710185590160e+00
1.621705264911063750e+04 3.398688977368411201e+01 5.237765798910269055e+00 4.590792171962608137e+00
1.709319512630259851e+04 3.398660730155086895e+01 5.224907920993181243e+00 4.594136696968425859e+00
1.769796884997648158e+04 3.398642000471008373e+01 5.220237843868892114e+00 4.597145906338934829e+00
1.855573846094631881e+04 3.398615709726531975e+01 5.219442849893765946e+00 4.603133576151415163e+00
1.906284003736411250e+04 3.398599957094019430e+01 5.221612399063252141e+00 4.607716646904886915e+00
1.951635427675952087e+04 3.398585570863762229e+01 5.224488689961570564e+00 4.612264584471314599e+00
2.012810937648264007e+04 3.398565627163880265e+01 5.228437787161479555e+00 4.618467316014586821e+00
2.070820776969250073e+04 3.398546226999425102e+01 5.230561692150107689e+00 4.623488506034387768e+00
2.150855414945797747e+04 3.398519136188937040e+01 5.229596469967587424e+00 4.628201249681989538e+00
2.238921933237813937e+04 3.398489631361537278e+01 5.224156917834171132e+00 4.630691456237016723e+00
2.338455612202878547e+04 3.398457510718640151e+01 5.212722207624008952e+00 4.629634957546265639e+00
2.447665831154239277e+04 3.398424154954301457e+01 5.206200657640587259e+00 4.629952821070993707e+00
2.585915561138057819e+04 3.398382875007085602e+01 5.203045763888216158e+00 4.630989948965840597e+00
2.699250762755024334e+04 3.398349481838837249e+01 5.200698811367502117e+00 4.631010947005441913e+00
2.813562523476605929e+04 3.398316178266233578e+01 5.198880184318030118e+00 4.630761501975876548e+00
2.899086255643665936e+04 3.398291427661402508e+01 5.198259953955133739e+00 4.630700417691818060e+00
2.984634327225030574e+04 3.398266733279501750e+01 5.197956973643944600e+00 4.630667298062765447e+00
3.098363767899458253e+04 3.398233948852458042e+01 5.197741976265814579e+00 4.630608316120452983e+00
3.183298051723643948e+04 3.398209485317949685e+01 5.197639989189168475e+00 4.630549272471400357e+00
3.295980851723602973e+04 3.398177043972313527e+01 5.197581430173426220e+00 4.630479232960616365e+00
3.408132413290427212e+04 3.398144770110337021e+01 5.197520483498545119e+00 4.630378887125337073e+00
3.520434055338454345e+04 3.398112457977261158e+01 5.197525444908135839e+00 4.630295760243555492e+00
3.632754595215369045e+04 3.398080140763747181e+01 5.197583765810454892e+00 4.630233961374101703e+00
3.745456266311428044e+04 3.398047704654535295e+01 5.197607861778324789e+00 4.630160110702162157e+00
3.886004776112067339e+04 3.398007252419795066e+01 5.197615060887142313e+00 4.630056073524913884e+00
3.998710798260478623e+04 3.397974811482573898e+01 5.197634482454103200e+00 4.629978019238760290e+00
4.139758242513288860e+04 3.397934208996639427e+01 5.197662759211289618e+00 4.629880431692424025e+00
4.280828618824268779e+04 3.397893597745348870e+01 5.197696997890053794e+00 4.629780367474954694e+00
4.421725556721511384e+04 3.397853028401799946e+01 5.197751257812825543e+00 4.629692568588304802e+00
4.562831808354658278e+04 3.397812391144998401e+01 5.197797661577146400e+00 4.629603066475114659e+00
4.704142910596911679e+04 3.397771688518758992e+01 5.197819627919797014e+00 4.629500388358861684e+00
4.873986641797130869e+04 3.397722757157528406e+01 5.197854930888760272e+00 4.629381959900387145e+00
5.043756657565014029e+04 3.397673843502084878e+01 5.197931746326943880e+00 4.629278695598723736e+00
5.213912129869999626e+04 3.397624804286982680e+01 5.197980977837695526e+00 4.629164258446488489e+00
5.384175663349231763e+04 3.397575722195039560e+01 5.198017273135492111e+00 4.629044371249515955e+00
5.554862415839078312e+04 3.397526510780127040e+01 5.198079303923760719e+00 4.628933961365920169e+00
5.727018857778701931e+04 3.397476852879411524e+01 5.198193260925049408e+00 4.628867820989071902e+00
5.928015915981874423e+04 3.397418863826913338e+01 5.198192710376904557e+00 4.628725585050253777e+00
6.129733259908266336e+04 3.397360658354599394e+01 5.198305451901712004e+00 4.628633623151361398e+00
6.331345264849516388e+04 3.397302461135895157e+01 5.198332931569304094e+00 4.628509383079919104e+00
6.533233909363429120e+04 3.397244174578260356e+01 5.198400367767602503e+00 4.628403264326275135e+00
6.735509514743281761e+04 3.397185759447148712e+01 5.198499152423805114e+00 4.628315222571512955e+00
6.967274003312797868e+04 3.397118814974084700e+01 5.198509399659328345e+00 4.628156132554652302e+00
7.199668452110349608e+04 3.397051666927067970e+01 5.198644141657833728e+00 4.628063476347344718e+00
7.432759107434713223e+04 3.396984286708699585e+01 5.198692104365633782e+00 4.627946231649358921e+00
7.695201431351469364e+04 3.396908408552471315e+01 5.198773420455193417e+00 4.627815153847929075e+00
7.929914948714763159e+04 3.396840522119558159e+01 5.198863803420040952e+00 4.627711984620254348e+00
8.195261306751365191e+04 3.396763746565214603e+01 5.198922942793810620e+00 4.627580889712188394e+00
8.461023712932362105e+04 3.396686826796645420e+01 5.198995917086957519e+00 4.627456603373719446e+00
8.756385503665955912e+04 3.396601312133205397e+01 5.199138800372278268e+00 4.627342497303205349e+00
9.051594032264227280e+04 3.396515802681397389e+01 5.199182014278727060e+00 4.627187781689978685e+00
9.346608566721441457e+04 3.396430308284816846e+01 5.199293208978588154e+00 4.627076751698755430e+00
9.641656200034686481e+04 3.396344779109472256e+01 5.199403929144372327e+00 4.626953876804343224e+00
9.967959473957255250e+04 3.396250138361722293e+01 5.199511100994745227e+00 4.626824969089200046e+00
1.029460066310844559e+05 3.396155368595327673e+01 5.199651267346185435e+00 4.626698118371505686e+00
1.062127652162379527e+05 3.396060533938515391e+01 5.199763780153312531e+00 4.626570073024947050e+00
1.097869448551857204e+05 3.395956725171789259e+01 5.199864950893715587e+00 4.626414853770192792e+00
1.133708257174327300e+05 3.395852563585523143e+01 5.200015722983257760e+00 4.626313725251303133e+00
1.172516827637348324e+05 3.395739705645353013e+01 5.200117299370525359e+00 4.626182964357401062e+00
1.211279837772264145e+05 3.395626939855246462e+01 5.200230571141940317e+00 4.626022727516509114e+00
1.249955403432555904e+05 3.395514348807655836e+01 5.200374590667975916e+00 4.625897081116000287e+00
1.291682277079932828e+05 3.395392809593552386e+01 5.200510721182448393e+00 4.625739944058155473e+00
1.333484773650667630e+05 3.395270961248554187e+01 5.200709398325345845e+00 4.625630341858219197e+00
1.378192479164298857e+05 3.395140546447571239e+01 5.200836170702983097e+00 4.625490432396763829e+00
1.422898079076232680e+05 3.395010063433087311e+01 5.200987624682068322e+00 4.625335087158832792e+00
1.470882718621803215e+05 3.394869888791303936e+01 5.201198967845909849e+00 4.625223783044124737e+00
1.518992036696324358e+05 3.394729248937350974e+01 5.201357995872585960e+00 4.625083466457510006e+00
1.570188348378615046e+05 3.394579473076260712e+01 5.201518108777524851e+00 4.624921293932144906e+00
1.621530074395995471e+05 3.394429142933439891e+01 5.201709797628485177e+00 4.624778839828517896e+00
1.676101971397211310e+05 3.394269204107623494e+01 5.201878901743271832e+00 4.624633770106747477e+00
1.731111376726475428e+05 3.394107844950084996e+01 5.202085149081466575e+00 4.624495605295560807e+00
1.786541409856295213e+05 3.393945114174840683e+01 5.202310349658041844e+00 4.624353498763053238e+00
1.845423482987260213e+05 3.393772061659096551e+01 5.202482455575795584e+00 4.624205398728075345e+00
1.907395382968792110e+05 3.393589751969910395e+01 5.202707251735427363e+00 4.624060376247535409e+00
1.969094655866713729e+05 3.393408057244312204e+01 5.202949267047872972e+00 4.623920107584963191e+00
2.034024843225177319e+05 3.393216643999745941e+01 5.203200542184136523e+00 4.623772501815221148e+00
2.101506489931495162e+05 3.393017468171879614e+01 5.203430723049789819e+00 4.623625680880348199e+00
2.171886935891060275e+05 3.392809495338568837e+01 5.203697481447647988e+00 4.623475917803512303e+00
2.242156113540629740e+05 3.392601599421606551e+01 5.203958971834337532e+00 4.623322630922684695e+00
2.315780226533209789e+05 3.392383500885079428e+01 5.204209829047155011e+00 4.623152445048694048e+00
2.392320622605066746e+05 3.392156448959950410e+01 5.204533609564419905e+00 4.623033749592684316e+00
2.472335205027433403e+05 3.391918782544322397e+01 5.204800855508525004e+00 4.622844733176403764e+00
2.553131761242346838e+05 3.391678430675877109e+01 5.205096672767879795e+00 4.622698005470427418e+00
2.636841633807323524e+05 3.391429047684633957e+01 5.205413650157728611e+00 4.622555834072435310e+00
2.726112545489156037e+05 3.391162681973219861e+01 5.205733657214030252e+00 4.622393209350705412e+00
2.815838205698528327e+05 3.390894541988024713e+01 5.206096652317406814e+00 4.622226743453143882e+00
2.906200506277348613e+05 3.390624029283074492e+01 5.206425054563377230e+00 4.622086345787279171e+00
3.002914850577263860e+05 3.390334017889306750e+01 5.206792625207038228e+00 4.621925157405285312e+00
3.102732494920603931e+05 3.390034161023116610e+01 5.207169312558971086e+00 4.621760207335350756e+00
3.205201862555470434e+05 3.389725756961361469e+01 5.207567202867961598e+00 4.621598313080589548e+00
3.308351950716238935e+05 3.389414703853204003e+01 5.207953799968673358e+00 4.621446194908192417e+00
3.417936232725905720e+05 3.389083598775000183e+01 5.208370044039085656e+00 4.621278191846808880e+00
3.530283405461388757e+05 3.388743426765577738e+01 5.208811249986146308e+00 4.621123122400653926e+00
3.646695117716087261e+05 3.388390192506126652e+01 5.209258934652739370e+00 4.620957907374767970e+00
3.767376026979279704e+05 3.388023176932966862e+01 5.209736993566692398e+00 4.620791481248959442e+00
3.891359695523170521e+05 3.387645228518066887e+01 5.210190822786761267e+00 4.620616461639063033e+00
4.020015965366694145e+05 3.387252089706912983e+01 5.210722782699391153e+00 4.620470461153772135e+00
4.153110505373829510e+05 3.386844361597705699e+01 5.211216839160398351e+00 4.620297144092221586e+00
4.289687687788762851e+05 3.386424899150067347e+01 5.211761216550508280e+00 4.620117406308614783e+00
4.429822432369504822e+05 3.385993338574301958e+01 5.212339666905351443e+00 4.619953664273369398e+00
4.574897322196936002e+05 3.385545308209869120e+01 5.212876161059807778e+00 4.619768094386599522e+00
4.725248688529491192e+05 3.385079657526023311e+01 5.213446887528435880e+00 4.619586249284727053e+00
4.880005126681886031e+05 3.384598936616907139e+01 5.214076266394231496e+00 4.619417318876006817e+00
5.042898837144848658e+05 3.384091322175369498e+01 5.214702420574422348e+00 4.619251582833705960e+00
5.207977096210710006e+05 3.383575266532623971e+01 5.215373607888904139e+00 4.619049695607680306e+00
5.378208601422014181e+05 3.383041311091411529e+01 5.216033974579200816e+00 4.618868462983083845e+00
5.556171413927653339e+05 3.382481164150587460e+01 5.216778385449200250e+00 4.618692656474644664e+00
5.737627885823016986e+05 3.381907953815178303e+01 5.217482895685696676e+00 4.618490841924689505e+00
5.925830846794957761e+05 3.381311228382172374e+01 5.218228568135894641e+00 4.618295618073101849e+00
6.119818357681124471e+05 3.380693799028966851e+01 5.219026702774635318e+00 4.618103182624203384e+00
6.323133417207114398e+05 3.380044052261720822e+01 5.219843836049777863e+00 4.617897460815886035e+00
6.528804809698583558e+05 3.379384039201806900e+01 5.220688043740932649e+00 4.617695091406230468e+00
6.741835148613644997e+05 3.378697475930940186e+01 5.221530501793147039e+00 4.617500516081435080e+00
6.965773233814259293e+05 3.377972548549085730e+01 5.222444858179038363e+00 4.617279615348858002e+00
7.193221182050596690e+05 3.377232836282850315e+01 5.223356839956919018e+00 4.617066330253452477e+00
7.430414195008496754e+05 3.376457731821936648e+01 5.224348604351108705e+00 4.616853477550014517e+00
7.672972111314390786e+05 3.375661158564193443e+01 5.225327254909824859e+00 4.616619255154807533e+00
7.925396308477225248e+05 3.374827929272019844e+01 5.226362024345751145e+00 4.616388724029034663e+00
8.185413099587064935e+05 3.373965044338387287e+01 5.227436191228441942e+00 4.616150352552707226e+00
8.452595212754184613e+05 3.373073491854375305e+01 5.228553147590663919e+00 4.615908163373761752e+00
8.731686971836064477e+05 3.372136833295234482e+01 5.229718984542124360e+00 4.615668501600879381e+00
9.018411724791335873e+05 3.371168819776315217e+01 5.230913316720537942e+00 4.615407357488156670e+00
9.313063422415892128e+05 3.370167902902340984e+01 5.232148740077651183e+00 4.615144858699418151e+00
9.618805460035952274e+05 3.369122688028404156e+01 5.233435324600939076e+00 4.614865189654547173e+00
9.933242654491534922e+05 3.368040618227985306e+01 5.234758720315243252e+00 4.614588419579056300e+00
1.025863587115153787e+06 3.366913196072165704e+01 5.236150618691673309e+00 4.614303456983043894e+00
1.059440257118559908e+06 3.365741568597375277e+01 5.237560929707957946e+00 4.613993584240380308e+00
1.094273941211367259e+06 3.364517105098772731e+01 5.239051196419575618e+00 4.613674682757686440e+00
1.130013363383822143e+06 3.363251204433830566e+01 5.240579008815938522e+00 4.613349886612861717e+00
1.167225344032983761e+06 3.361922716917216292e+01 5.242192831861388846e+00 4.613017724779814976e+00
1.205376010553562548e+06 3.360549513606384409e+01 5.243845458801422055e+00 4.612657441541505143e+00
1.244808345156957163e+06 3.359118086497954181e+01 5.245547247668583601e+00 4.612287983375265021e+00
1.285712754802128999e+06 3.357620086069572096e+01 5.247348386328679837e+00 4.611896577016350030e+00
1.327937602018032689e+06 3.356059491318969634e+01 5.249200437842812761e+00 4.611486601832776699e+00
1.371224836920415517e+06 3.354444463969458212e+01 5.251108184889123009e+00 4.611067641116842530e+00
1.416023067998396000e+06 3.352756695674678866e+01 5.253100190078898279e+00 4.610619343760947508e+00
1.462451491555468412e+06 3.350989760106342885e+01 5.255162308659305559e+00 4.610146334340256224e+00
1.510246071324038319e+06 3.349151681527381896e+01 5.257294355868958213e+00 4.609650602669251640e+00
1.559455179394899635e+06 3.347238671068679139e+01 5.259496997599919510e+00 4.609129792254927693e+00
1.610360101161373314e+06 3.345237548266631933e+01 5.261789760372271196e+00 4.608578406367584535e+00
1.662897367503081914e+06 3.343148251319120590e+01 5.264166853540286795e+00 4.607994585794756404e+00
1.717156727619619574e+06 3.340964539652237164e+01 5.266622634129543457e+00 4.607377268240646195e+00
1.773028734069482423e+06 3.338688064634673225e+01 5.269162352927607706e+00 4.606722385337647552e+00
1.830315285855000140e+06 3.336324143827106070e+01 5.271794419575369872e+00 4.606031213330884277e+00
1.889766333634129958e+06 3.333838522747841893e+01 5.274531178259914910e+00 4.605292904529481923e+00
1.951018209466551431e+06 3.331242581294439731e+01 5.277375671207044761e+00 4.604506296834763646e+00
2.013702131523776799e+06 3.328548596592265341e+01 5.280299741419289816e+00 4.603673568486834178e+00
2.078834768899543444e+06 3.325708665759063365e+01 5.283359952221630351e+00 4.602776110988735070e+00
2.145329772627047263e+06 3.322765908254560685e+01 5.286508122482937999e+00 4.601825788085595725e+00
2.214050969085664488e+06 3.319677815449983882e+01 5.289784719155486314e+00 4.600805296630166907e+00
2.284534844941711053e+06 3.316460207452005449e+01 5.293180587675641924e+00 4.599710897947614896e+00
2.357304966043074150e+06 3.313083845545692441e+01 5.296709371648451459e+00 4.598535582246144671e+00
2.431978022662906442e+06 3.309560993161660036e+01 5.300346313288312849e+00 4.597282668666698768e+00
2.508399980146517511e+06 3.305893601229952594e+01 5.304128812725308784e+00 4.595935274825343697e+00
2.586331820956257638e+06 3.302087891659213881e+01 5.308032157243549598e+00 4.594490495022570897e+00
2.666582801622422412e+06 3.298098338281342023e+01 5.312095583895010797e+00 4.592927372825191590e+00
2.748567680290690158e+06 3.293947485288959598e+01 5.316294802120869356e+00 4.591241913072220626e+00
2.831492735532375518e+06 3.289670695226248398e+01 5.320603593226482353e+00 4.589441397648043264e+00
2.916499235466204118e+06 3.285203703559119504e+01 5.325084780312960397e+00 4.587490705138856484e+00
3.003140208965818863e+06 3.280563513434080392e+01 5.329723807623877541e+00 4.585380435319733827e+00
3.090346403613556176e+06 3.275803212665041997e+01 5.334468783775670353e+00 4.583120161371155632e+00
3.178042768656248692e+06 3.270924714686031365e+01 5.339323463740867304e+00 4.580700777750780439e+00
3.267123074396988377e+06 3.265875283710306576e+01 5.344317799243738953e+00 4.578091226705905292e+00
3.356355597884889692e+06 3.260723308551181532e+01 5.349371700468845248e+00 4.575324296922657297e+00
3.444943517625033855e+06 3.255517193196261871e+01 5.354436080100341222e+00 4.572404537855609519e+00
3.533779674139757641e+06 3.250207293326315749e+01 5.359584235614258674e+00 4.569289843716042299e+00
3.595813247803681064e+06 3.246448025523396552e+01 5.363220736974130709e+00 4.566992888366372405e+00
3.657689195209772326e+06 3.242657631414271435e+01 5.366889089962063153e+00 4.564596779797168935e+00
3.718194180520106107e+06 3.238913383497069987e+01 5.370513295273765308e+00 4.562139012590923137e+00
3.778921255564822350e+06 3.235119486564029501e+01 5.374196825828787993e+00 4.559552473432114894e+00
3.838658159948307555e+06 3.231354300003219038e+01 5.377866019202402370e+00 4.556883350586461212e+00
3.896979736561852507e+06 3.227648755344245757e+01 5.381499425388946989e+00 4.554146231161331215e+00
3.953770365902680438e+06 3.224014695785633933e+01 5.385084406353856323e+00 4.551349888671432531e+00
4.009571017719342373e+06 3.220421769689669134e+01 5.388660342368397416e+00 4.548462221547434403e+00
4.064719025735351257e+06 3.216852002629545382e+01 5.392245649534754826e+00 4.545467307563782811e+00
4.117483256497132592e+06 3.213421952213848698e+01 5.395725979144642359e+00 4.542446989707836558e+00
4.169493283845727332e+06 3.210030040269331408e+01 5.399210250734476801e+00 4.539323831113710739e+00
4.219902003787059337e+06 3.206735474372604244e+01 5.402637943593667558e+00 4.536151597906877164e+00
4.267803042336829938e+06 3.203601621110826159e+01 5.405947744025462853e+00 4.532978512198987175e+00
4.315086236742859706e+06 3.200508509840997817e+01 5.409262868028165805e+00 4.529704666778731514e+00
4.360960811527349055e+06 3.197511272560484130e+01 5.412533860673351072e+00 4.526365518828669110e+00
4.405139897379639558e+06 3.194631721975043348e+01 5.415732115917515799e+00 4.522991829128931052e+00
4.447001690677160397e+06 3.191912884546403362e+01 5.418808832755837024e+00 4.519651090852366160e+00
4.488033199146118015e+06 3.189260412613849738e+01 5.421866974552028928e+00 4.516223658328160084e+00
4.528522254930390045e+06 3.186658419493028660e+01 5.424912104704281646e+00 4.512700935166250815e+00
4.566916663647176698e+06 3.184208517708529840e+01 5.427804344217849852e+00 4.509244169673274349e+00
4.603286409567581490e+06 3.181906404956706425e+01 5.430623905281430019e+00 4.505805186408009533e+00
4.640447066238190047e+06 3.179575769918485761e+01 5.433527641578459466e+00 4.502173133446206954e+00
4.674908546481065452e+06 3.177436888718082031e+01 5.436247561876302647e+00 4.498667738753876932e+00
4.708670497290756553e+06 3.175365005769929638e+01 5.438944689332944726e+00 4.495111583176891301e+00
4.741973201545381919e+06 3.173346768698567999e+01 5.441576398746923005e+00 4.491497117920923543e+00
4.774753752226152457e+06 3.171387599713617078e+01 5.444253106302488376e+00 4.487803013786558104e+00
4.804554303461783566e+06 3.169632116127068855e+01 5.446728274725468388e+00 4.484324593697245120e+00
4.835532223898482509e+06 3.167835290356134692e+01 5.449319000896669429e+00 4.480592651338608512e+00
4.865478262477959506e+06 3.166127312137601990e+01 5.451816278976810537e+00 4.476941270841046538e+00
4.893268194364120252e+06 3.164569424985489121e+01 5.454123910482458371e+00 4.473428754149915143e+00
4.919838531170483679e+06 3.163106022758397629e+01 5.456397521357026825e+00 4.469977584262369241e+00
4.947742799631006084e+06 3.161598289683664831e+01 5.458843986013941496e+00 4.466183835359592180e+00
4.973646373028258793e+06 3.160227052835538331e+01 5.461143785984348575e+00 4.462569271769595503e+00
5.000881048286443576e+06 3.158815949957710245e+01 5.463579719722103434e+00 4.458702671982533339e+00
5.025496168126208708e+06 3.157568628154013624e+01 5.465806723962066016e+00 4.455149212274465143e+00
5.051370796246425249e+06 3.156287282314768561e+01 5.468157569478359292e+00 4.451336965377114652e+00
5.073799854734856635e+06 3.155201617080690113e+01 5.470190887073568931e+00 4.448006216046876737e+00
5.102244927408928052e+06 3.153859223788356303e+01 5.472830038740968739e+00 4.443723791229048814e+00
5.122121457387748174e+06 3.152944013321730665e+01 5.474732170154629429e+00 4.440709085309793025e+00
5.148005513376526535e+06 3.151780396836991827e+01 5.477273373810604085e+00 4.436798995977000004e+00
5.169887997339120135e+06 3.150820843426727436e+01 5.479485420053692657e+00 4.433549854124208878e+00
5.198680356946414337e+06 3.149589916062914341e+01 5.482475730216942011e+00 4.429510258231218245e+00
5.223411495740231127e+06 3.148557140744622274e+01 5.485069266095820240e+00 4.426600125597304647e+00
5.257343196740439162e+06 3.147163605031239086e+01 5.488964285345697469e+00 4.423950846201479159e+00
5.285695794202696532e+06 3.145995457930082040e+01 5.492908512105982410e+00 4.424722174123212781e+00
5.296750037361883558e+06 3.145526578151540775e+01 5.494892200713318076e+00 4.426816118485115581e+00
5.304941628905490041e+06 3.145166647167651064e+01 5.496781302819104376e+00 4.429870669702745900e+00
5.310792667019020766e+06 3.144897949911917934e+01 5.498618053946428219e+00 4.433452029577608755e+00
5.314905568111663684e+06 3.144699738684481005e+01 5.500450748356058739e+00 4.437283450888982017e+00
5.317780527226118371e+06 3.144554132885951958e+01 5.502314061084021546e+00 4.441125957095835908e+00
5.318879724060104229e+06 3.144496310541249784e+01 5.503263730709511137e+00 4.443008834004958274e+00
5.320560742100181058e+06 3.144404762508016304e+01 5.505173684436170944e+00 4.446598617158352695e+00
5.321743526657868177e+06 3.144337373955857373e+01 5.507080971463105712e+00 4.449910505346523770e+00
5.322582950836868957e+06 3.144287513840569659e+01 5.508953601545201195e+00 4.452912704431597035e+00
5.323420610288189724e+06 3.144235440640128587e+01 5.511629632853073169e+00 4.456844227155873028e+00
5.323797315608158708e+06 3.144211008236874960e+01 5.513275466861395913e+00 4.459102878611416187e+00
5.324192181586055085e+06 3.144184493926897517e+01 5.515525834841406905e+00 4.462008564504007957e+00
5.324527754541072994e+06 3.144161017284720572e+01 5.518057276966872315e+00 4.465129972555933691e+00
5.324784060078183189e+06 3.144142320924239442e+01 5.520585282497718183e+00 4.468103690463159694e+00
5.324973505333602428e+06 3.144127960735562510e+01 5.522867822968644091e+00 4.470725658834820315e+00
5.325131659417377785e+06 3.144115551112431461e+01 5.525004086871194708e+00 4.473183804194903246e+00
5.325278843314200640e+06 3.144103619351974999e+01 5.527072296456273293e+00 4.475605603751509065e+00
5.325425215528045781e+06 3.144091392611586144e+01 5.528952927625334191e+00 4.477959894377496752e+00
5.325629552363253199e+06 3.144073800611267799e+01 5.530990663794286277e+00 4.480859014382585492e+00
5.325800368396420963e+06 3.144058695053848140e+01 5.532130675114975915e+00 4.482802477080553238e+00
5.326020146414633840e+06 3.144038845666129234e+01 5.532910867873885863e+00 4.484613757841365178e+00
5.326316971399105154e+06 3.144011583944547183e+01 5.532907294408197174e+00 4.485817005528469181e+00
5.326743885971066542e+06 3.143972204545628202e+01 5.530225289156186719e+00 4.484415853474513547e+00
5.326993954683676362e+06 3.143949670151888398e+01 5.527394614907415793e+00 4.481245008863131041e+00
5.327210665567369200e+06 3.143930865667720198e+01 5.525680084936997361e+00 4.476766955195669695e+00
5.327212635666311719e+06 3.143930697485301096e+01 5.525668493396960201e+00 4.476719487787589102e+00
5.327521704788435251e+06 3.143905408276890512e+01 5.529485681465841296e+00 4.470004882692951043e+00
5.327640268596949987e+06 3.143895978233184962e+01 5.532393793775738366e+00 4.467566090144257984e+00
5.327750357215583324e+06 3.143887283709790026e+01 5.535249968561002376e+00 4.465374280829440323e+00
5.327956500977830961e+06 3.143871140036135969e+01 5.540075889844816359e+00 4.461252363069747595e+00
5.328159563027834520e+06 3.143855467325008135e+01 5.543804196307107190e+00 4.457509628221719034e+00
5.328377115668958053e+06 3.143838962386196556e+01 5.546443671744381021e+00 4.453748577241346318e+00
5.328490904632291757e+06 3.143830473695533101e+01 5.547265791709976135e+00 4.451773408126651788e+00
5.328719294934827834e+06 3.143813829373644353e+01 5.547989680104679522e+00 4.447555859801642697e+00
5.328938535115781240e+06 3.143798460793604832e+01 5.548115091882785066e+00 4.443479270720073870e+00
5.329046094099062495e+06 3.143791147910827988e+01 5.547900483910886749e+00 4.441284279047007288e+00
5.329254737080342136e+06 3.143777449204475261e+01 5.547325100965965206e+00 4.436935561965365871e+00
5.329453969434000552e+06 3.143764993556393605e+01 5.546484513928488624e+00 4.432301100377964431e+00
5.329549213768955320e+06 3.143759275326573999e+01 5.545985793623422921e+00 4.429818480167577732e+00
5.329726809951969422e+06 3.143749066226340005e+01 5.543161182436301182e+00 4.423029125645133952e+00
5.329727658123322763e+06 3.143749018445806342e+01 5.543134630464688684e+00 4.422983279308767557e+00
5.329856139119996689e+06 3.143742272143499150e+01 5.544359773429349936e+00 4.416809863411818249e+00
5.329909377455691807e+06 3.143739608533669028e+01 5.545914713360615700e+00 4.413007897085565290e+00
5.329958248168553226e+06 3.143737249466074246e+01 5.548728733043165384e+00 4.409981241880776892e+00
5.330003390398537740e+06 3.143732671643635967e+01 5.551990430747297367e+00 4.407284796090825019e+00
5.330092925396606326e+06 3.143676760959901983e+01 5.558773923462390520e+00 4.402420572570154178e+00
5.330138254513503984e+06 3.143644707786003423e+01 5.562021580092086914e+00 4.400232639518411482e+00
5.330234157254043967e+06 3.143575760589583012e+01 5.567828322185406797e+00 4.396413309207504838e+00
5.330345806674775667e+06 3.143493929565764944e+01 5.572618493366866765e+00 4.393066994280052207e+00
5.330562626295836642e+06 3.143332208716451959e+01 5.577129398710136243e+00 4.388901414283240321e+00
5.330753747214539908e+06 3.143188660240783960e+01 5.577738325648782691e+00 4.386659832271348591e+00
5.331102619876554236e+06 3.142928965430175481e+01 5.574911883901751075e+00 4.382666833644268678e+00
5.331340825232756324e+06 3.142755759299560125e+01 5.571836052071550860e+00 4.378964866764945008e+00
5.331451759596928023e+06 3.142676600859800473e+01 5.570591389314040853e+00 4.377019424526247704e+00
5.331657045801309869e+06 3.142532457688752245e+01 5.568776390756055683e+00 4.372688546530237197e+00
5.331753506224102341e+06 3.142465725285002875e+01 5.567901225665432108e+00 4.370284885624044158e+00
5.331754094886316918e+06 3.142465322235572600e+01 5.567898082149027594e+00 4.370268711768920511e+00
5.331843502642953768e+06 3.142404112250253689e+01 5.567422438001388585e+00 4.367813467712194253e+00
5.331927701062972657e+06 3.142346952944045313e+01 5.567112168025315277e+00 4.365591776555458381e+00
5.332009762684910558e+06 3.142291634281314217e+01 5.566932073603434006e+00 4.363120706430301254e+00
5.332089574061567895e+06 3.142238206487615315e+01 5.566798261975078432e+00 4.360775254956196001e+00
5.332166576056811959e+06 3.142186989964879729e+01 5.566798144101639423e+00 4.358333196662031561e+00
5.332241318305486813e+06 3.142137573607925560e+01 5.566849001395343777e+00 4.355960722823131626e+00
5.332314752712454647e+06 3.142089291341211421e+01 5.566950467534478975e+00 4.353578523818656620e+00
5.332387158328268677e+06 3.142041938596213413e+01 5.567058539152507812e+00 4.351196141406324713e+00
5.332458434488075785e+06 3.141995570869179133e+01 5.567172177357017304e+00 4.348703034434079129e+00
5.332528428185995668e+06 3.141950289143015951e+01 5.567278502987102584e+00 4.346304232267624634e+00
5.332597352803259157e+06 3.141905937022174911e+01 5.567381109996309974e+00 4.343867504478772901e+00
5.332665514216892421e+06 3.141862314960719971e+01 5.567472635255595215e+00 4.341461367532144955e+00
5.332733087936392054e+06 3.141819303833212373e+01 5.567552415690430578e+00 4.338964574972150601e+00
5.332800054215271026e+06 3.141776922693092544e+01 5.567624003725894610e+00 4.336551110335315151e+00
5.332866406347134151e+06 3.141735163274640996e+01 5.567686459434732171e+00 4.334040217204204737e+00
5.332932198315379210e+06 3.141693997931160354e+01 5.567743754773826659e+00 4.331579559360757337e+00
5.332997132071294822e+06 3.141653601434556009e+01 5.567792146439934697e+00 4.329083779389080178e+00
5.333058143387978896e+06 3.141615867076092883e+01 5.567833649500249393e+00 4.326752944940294832e+00
5.333113827399392612e+06 3.141581617326161080e+01 5.567866628897143677e+00 4.324515283123168352e+00
5.333165675886210985e+06 3.141549896393171792e+01 5.567896426901224771e+00 4.322573964021521498e+00
5.333214315342034213e+06 3.141520275888422375e+01 5.567917424602600640e+00 4.320507252882627824e+00
5.333260299573628232e+06 3.141492411379539718e+01 5.567941034371465925e+00 4.318847672535683913e+00
5.333345598144985735e+06 3.141441049040572864e+01 5.567973619894585724e+00 4.315266754570557417e+00
5.333385778401022777e+06 3.141417006262861733e+01 5.567979050083317283e+00 4.313435900747259133e+00
5.333424518056978472e+06 3.141393928976368244e+01 5.567991297462148381e+00 4.311900114735204070e+00
5.333498121144178323e+06 3.141350334264936350e+01 5.568013134988781587e+00 4.308766247521172765e+00
5.333533501849784516e+06 3.141329494861166438e+01 5.568022260477364149e+00 4.307223695061535018e+00
5.333601503598828800e+06 3.141289663933012477e+01 5.568044892564847359e+00 4.304220437871112637e+00
5.333634522665666416e+06 3.141270428582748053e+01 5.568057192729416904e+00 4.302734067838455800e+00
5.333698524969176389e+06 3.141233341003846391e+01 5.568087330303703730e+00 4.299835987185025132e+00
5.333760492690666579e+06 3.141197679660522724e+01 5.568124940471885331e+00 4.297038341288892838e+00
5.333790937622781843e+06 3.141180247208625076e+01 5.568147850505472007e+00 4.295647312010084207e+00
5.333850568283705041e+06 3.141146271026307346e+01 5.568201787438681549e+00 4.292921288874332220e+00
5.333909032552884892e+06 3.141113172553571431e+01 5.568266264576910984e+00 4.290268529131290975e+00
5.333966584969264455e+06 3.141080793964248841e+01 5.568338838725687800e+00 4.287538710221000748e+00
5.333995183671719395e+06 3.141064779281164832e+01 5.568379011178347326e+00 4.286169096171043691e+00
5.334051789383339696e+06 3.141033230122678432e+01 5.568468529697089942e+00 4.283443403726476362e+00
5.334107974618635140e+06 3.141002109240620754e+01 5.568571667082068188e+00 4.280764885534801500e+00
5.334163913007945754e+06 3.140971314042240436e+01 5.568692073548055177e+00 4.278036668989724234e+00
5.334193358164221048e+06 3.140955178902591882e+01 5.568768635031557501e+00 4.276583089232240731e+00
5.334227895525982603e+06 3.140936313335031826e+01 5.568842668894577130e+00 4.274881686282881788e+00
5.334301022799954750e+06 3.140896596700497412e+01 5.569025901447364646e+00 4.271232700000248350e+00
5.334336907505422831e+06 3.140877224115738642e+01 5.569127701581562562e+00 4.269453290634660725e+00
5.334372488448150456e+06 3.140858089495225158e+01 5.569234756588128832e+00 4.267758151508465936e+00
5.334442772693774663e+06 3.140820503111012485e+01 5.569456927748170472e+00 4.264231845146633226e+00
5.334477780606119893e+06 3.140801885724580345e+01 5.569572946381192935e+00 4.262441411161645100e+00
5.334547331955358386e+06 3.140765108547956430e+01 5.569825886182139918e+00 4.258976497913742776e+00
5.334583593972953968e+06 3.140746038238306781e+01 5.569957489296496256e+00 4.257037097702555783e+00
5.334623977143011987e+06 3.140724886770182422e+01 5.570118165667054200e+00 4.255007604167366786e+00
5.334666382038174197e+06 3.140702766681189928e+01 5.570287721953569360e+00 4.252816096383098099e+00
5.334708107032222673e+06 3.140681100165342343e+01 5.570462803130054930e+00 4.250733363282908073e+00
5.334751153660332784e+06 3.140658843489641328e+01 5.570645607874864069e+00 4.248511123140169765e+00
5.334797545920195058e+06 3.140634965309058657e+01 5.570848816016252592e+00 4.246068017674860862e+00
5.334845528053436428e+06 3.140610389200708141e+01 5.571066136542862424e+00 4.243549572376284829e+00
5.334894002907253802e+06 3.140585688799466979e+01 5.571293192014218576e+00 4.241072786680080142e+00
5.334945798834634013e+06 3.140559426845743474e+01 5.571539946841738811e+00 4.238404016072493619e+00
5.335001123580546118e+06 3.140531523274536596e+01 5.571807939311320013e+00 4.235452248953187393e+00
5.335001496600898914e+06 3.140531335829276571e+01 5.571809825972921182e+00 4.235433353174862248e+00
5.335058669938183390e+06 3.140502669610066278e+01 5.572098064576316290e+00 4.232459349393607795e+00
5.335116939565941691e+06 3.140473623990529717e+01 5.572397876930400784e+00 4.229418374133487646e+00
5.335176097064187750e+06 3.140444310653851545e+01 5.572711393817036729e+00 4.226372630023380594e+00
5.335236027863521129e+06 3.140414788736484297e+01 5.573036051012794090e+00 4.223263165057973723e+00
5.335236424782631919e+06 3.140414593937062904e+01 5.573038293257171816e+00 4.223243975278411888e+00
5.335297025235558860e+06 3.140384921476606195e+01 5.573376554489716028e+00 4.220143191751930090e+00
5.335358184055000544e+06 3.140355151958222635e+01 5.573724171804899541e+00 4.216938097446627509e+00
5.335419777031838894e+06 3.140325353719199342e+01 5.574086910517964455e+00 4.213794527504651555e+00
5.335420183711924590e+06 3.140325157577689197e+01 5.574089284149335910e+00 4.213772816575083624e+00
5.335482357535308227e+06 3.140295256458787421e+01 5.574462570142259210e+00 4.210579199080648038e+00
5.335545338313505054e+06 3.140265147010539692e+01 5.574851533285918315e+00 4.207391778261996507e+00
5.335609073094421066e+06 3.140234855136286996e+01 5.575253619023223806e+00 4.204179266017227690e+00
5.335609494757499546e+06 3.140234655383539319e+01 5.575256357118232309e+00 4.204159014026828345e+00
5.335673998029619455e+06 3.140204178343962838e+01 5.575673194221690387e+00 4.200961060404322822e+00
5.335739357192125171e+06 3.140173473883237065e+01 5.576099302071721553e+00 4.197602398460261952e+00
5.335739790041353554e+06 3.140173271163322966e+01 5.576102164848549592e+00 4.197580085482808698e+00
5.335805726143402979e+06 3.140142484676732693e+01 5.576545094526199620e+00 4.194276588323118560e+00
5.335872198674763553e+06 3.140111629700268736e+01 5.576998542973978346e+00 4.191016811779464390e+00
5.335939528270266019e+06 3.140080554972372084e+01 5.577461255901528858e+00 4.187689505567221637e+00
5.335939974185838364e+06 3.140080349741942456e+01 5.577464341286377802e+00 4.187667463556557834e+00
5.336008157855214551e+06 3.140049064842679627e+01 5.577939707068018116e+00 4.184336367462372586e+00
5.336077258889280260e+06 3.140017541727487682e+01 5.578427271758742201e+00 4.181054540829489241e+00
5.336147479574786499e+06 3.139985686475824167e+01 5.578921630194233927e+00 4.177686506741647321e+00
5.336147945117280819e+06 3.139985475810967230e+01 5.578924888953293859e+00 4.177663707384831504e+00
5.336219132715476677e+06 3.139953368746640194e+01 5.579429981841460773e+00 4.174302330040198683e+00
5.336291177426028997e+06 3.139921059718291119e+01 5.579940121920802909e+00 4.170922427706138080e+00
5.336291654064434581e+06 3.139920846472610805e+01 5.579943463300276463e+00 4.170899658324678683e+00
5.336364783828185871e+06 3.139888239309534157e+01 5.580463223974452269e+00 4.167583944511248362e+00
5.336439219192799181e+06 3.139855232337033186e+01 5.580986982051568290e+00 4.164241612016459371e+00
5.336439712712601759e+06 3.139855013965794939e+01 5.580990404518675341e+00 4.164218976453520682e+00
5.336515473350692540e+06 3.139821606729162085e+01 5.581519463349383869e+00 4.160854260546237526e+00
5.336592493170347065e+06 3.139787833242812809e+01 5.582058861242089165e+00 4.157674595268399997e+00
5.336671357214180753e+06 3.139753426465370723e+01 5.582582582034649299e+00 4.154039776057251387e+00
5.336671881825204939e+06 3.139753198015556990e+01 5.582585948087835703e+00 4.154013528014679046e+00
5.336752050606519915e+06 3.139718441924903658e+01 5.583132293155388837e+00 4.150625921214189162e+00
5.336833405290301889e+06 3.139683366998409042e+01 5.583676224902863972e+00 4.147436685667598155e+00
5.336833944157467224e+06 3.139683135061006070e+01 5.583679709347125097e+00 4.147415020428796950e+00
5.336917805533233099e+06 3.139647164668603097e+01 5.584210785273367783e+00 4.143857253308697253e+00
5.337003477490828373e+06 3.139610638286613664e+01 5.584755584408234164e+00 4.140422360061458917e+00
5.337004043670196086e+06 3.139610397437471079e+01 5.584759215400818988e+00 4.140400751500577847e+00
5.337091046238752082e+06 3.139573514904598994e+01 5.585293916611078657e+00 4.136970626953536012e+00
5.337180005131346174e+06 3.139536018436732689e+01 5.585838220308111168e+00 4.133844707017610531e+00
5.337271875489294529e+06 3.139497484643818837e+01 5.586350439895183762e+00 4.130088988617790946e+00
5.337272486901950091e+06 3.139497228554873232e+01 5.586353676080209496e+00 4.130061630164499675e+00
5.337366489114318974e+06 3.139458062965030649e+01 5.586894127732939808e+00 4.126689596625805478e+00
5.337462295721262693e+06 3.139418365711750170e+01 5.587403376176865777e+00 4.123067584212760650e+00
5.337462929890684783e+06 3.139418103306230279e+01 5.587406568616783531e+00 4.123041950111545617e+00
5.337561236828669906e+06 3.139377629321055707e+01 5.587934970772308496e+00 4.119840019941071851e+00
5.337662477991199121e+06 3.139336162062805613e+01 5.588437358767207819e+00 4.116446083401168465e+00
5.337663149759506807e+06 3.139335887252817869e+01 5.588440545583723384e+00 4.116422457423089654e+00
5.337768089443817735e+06 3.139293155895226306e+01 5.588949436812079341e+00 4.113113883425253192e+00
5.337876414569184184e+06 3.139249289042653501e+01 5.589421470224735344e+00 4.109122296148973064e+00
5.337877132834685966e+06 3.139248998576567118e+01 5.589424463413356747e+00 4.109094113757431721e+00
5.337987496912869625e+06 3.139204638262019387e+01 5.589929053615417587e+00 4.105792019653257796e+00
5.338100644093457609e+06 3.139159410938967198e+01 5.590402523524189426e+00 4.102532352017102646e+00
5.338219249190297909e+06 3.139112268390261207e+01 5.590858415067824438e+00 4.098861878074576914e+00
5.338220039365344681e+06 3.139111954748672062e+01 5.590861411188125629e+00 4.098837069770443264e+00
5.338342276967148297e+06 3.139063693786650688e+01 5.591314308824882673e+00 4.095127646735441829e+00
5.338343085355824791e+06 3.139063375124202793e+01 5.591317283469551924e+00 4.095103363552618170e+00
5.338467988683409989e+06 3.139014398536341588e+01 5.591770135748088677e+00 4.091813866052437909e+00
5.338597780523728579e+06 3.138963799068369909e+01 5.592203058414746408e+00 4.088545098119067411e+00
5.338734088650111109e+06 3.138910968529957302e+01 5.592605454619334893e+00 4.084636512885907678e+00
5.338734994452965446e+06 3.138910617862265084e+01 5.592608059555774780e+00 4.084609760820098856e+00
5.338875658453766257e+06 3.138856511680159045e+01 5.593025082547928406e+00 4.081043510090945681e+00
5.338876588500253856e+06 3.138856154470248327e+01 5.593027858806752128e+00 4.081020823580208123e+00
5.339021641830494627e+06 3.138800731319399162e+01 5.593421453484365813e+00 4.077524301616367808e+00
5.339173302217032760e+06 3.138743165052489914e+01 5.593799250514049248e+00 4.073924368829898945e+00
5.339174307871278375e+06 3.138742783748185161e+01 5.593801722901400097e+00 4.073900558800833238e+00
5.339332203167800792e+06 3.138683266532898131e+01 5.594164663212667143e+00 4.070213112247072829e+00
5.339496050414015539e+06 3.138621949536667088e+01 5.594510907339214967e+00 4.066445229669943373e+00
5.339497134230443276e+06 3.138621544367121174e+01 5.594513168505570455e+00 4.066420361644556891e+00
5.339667156832837500e+06 3.138558394498088688e+01 5.594842436654646534e+00 4.062569888325888279e+00
5.339843243762312457e+06 3.138493499208459880e+01 5.595153610567253466e+00 4.058633889231369807e+00
5.339844407429824583e+06 3.138493070775845339e+01 5.595155642033216026e+00 4.058607920518341849e+00
5.340025976503369398e+06 3.138426697153282063e+01 5.595447215256485585e+00 4.054588144802482752e+00
5.340027175182909705e+06 3.138426259378390171e+01 5.595449118292575186e+00 4.054561634810831094e+00
5.340213865160121582e+06 3.138358587570688485e+01 5.595720845989945680e+00 4.050462663100771188e+00
5.340405803516430780e+06 3.138289615085720996e+01 5.595972941745289475e+00 4.046261286717332872e+00
5.340407069668743759e+06 3.138289160478227657e+01 5.595974587614541917e+00 4.046233578204532222e+00
5.340604742453534156e+06 3.138218770641812227e+01 5.596209413876294114e+00 4.041945550651986352e+00
5.340606046142775565e+06 3.138218306757358533e+01 5.596210949343642049e+00 4.041917292976546783e+00
5.340809883757482283e+06 3.138146400725050356e+01 5.596429940245043255e+00 4.037570659237866622e+00
5.340811227708070539e+06 3.138145926942757313e+01 5.596431373583770963e+00 4.037542036547733026e+00
5.341021066231707111e+06 3.138060402745646016e+01 5.596627038498040108e+00 4.033205371324747546e+00
5.341022449049666524e+06 3.138059834492803546e+01 5.596628316574023820e+00 4.033176846422567685e+00
5.341238283443395980e+06 3.137957742044698506e+01 5.596806136841417256e+00 4.028908660198680991e+00
5.341460414515120909e+06 3.137837599208578965e+01 5.596968285826956269e+00 4.024752883578907259e+00
5.341461877532475628e+06 3.137836804120096801e+01 5.596969348574264203e+00 4.024725572452860334e+00
5.341690918778195046e+06 3.137696888480006052e+01 5.597117230730422222e+00 4.020709736149677305e+00
5.341692426813169383e+06 3.137695964592937869e+01 5.597118201211280564e+00 4.020683340259143534e+00
5.341929439503414556e+06 3.137534351707217795e+01 5.597252308714510960e+00 4.016796393846695956e+00
5.341930999480883591e+06 3.137533286606473837e+01 5.597253189824788144e+00 4.016770832815820036e+00
5.341940392404251732e+06 3.137526206820083630e+01 5.597257821229661978e+00 4.016626937958221788e+00
5.342194698065031320e+06 3.137333130909938816e+01 5.597381965296955642e+00 4.012751074023892528e+00
5.342458703558382578e+06 3.137113038250463859e+01 5.597493405004708933e+00 4.009005632923996032e+00
5.342468775083221495e+06 3.137103999032184376e+01 5.597497115792210209e+00 4.008871122534831244e+00
5.342742286365819164e+06 3.136854773085330095e+01 5.597595146229099150e+00 4.005265410611142940e+00
5.343024837576101534e+06 3.136576166185464132e+01 5.597681251084129173e+00 4.001802450765016061e+00
5.343317150784109719e+06 3.136267163821521820e+01 5.597756736645003173e+00 3.998470793494546704e+00
5.343328237090748735e+06 3.136254964289566516e+01 5.597759304208343778e+00 3.998350904229960534e+00
5.343630435892239213e+06 3.135921022321390694e+01 5.597828283382170866e+00 3.995160956285647380e+00
5.343941472782114521e+06 3.135572970947765725e+01 5.597894480157133756e+00 3.992120044074208174e+00
5.344261466864340007e+06 3.135210582158526194e+01 5.597955049192325561e+00 3.989232822387128508e+00
5.344591643881980330e+06 3.134832385851639813e+01 5.598010846160375920e+00 3.986493208812624811e+00
5.344933760071270168e+06 3.134436267751473792e+01 5.598062720539367376e+00 3.983888406114985514e+00
5.345288415185129270e+06 3.134021409431842287e+01 5.598110807110931120e+00 3.981413504376416057e+00
5.345654857281811535e+06 3.133588580814199887e+01 5.598155417081581930e+00 3.979070663017572507e+00
5.346411223546536639e+06 3.132683257818048617e+01 5.598240025326280289e+00 3.975013579024925470e+00
5.346818211562799290e+06 3.132190282361442968e+01 5.598277634477132558e+00 3.972980280146226395e+00
5.347238071301973425e+06 3.131677648398590108e+01 5.598317379092081936e+00 3.971060157932670975e+00
5.348102902910577133e+06 3.130609940730946761e+01 5.598398962569169690e+00 3.967597019728981156e+00
5.349038610129009932e+06 3.129439193652392959e+01 5.598491150128772631e+00 3.964476733210777759e+00
5.349542367928796448e+06 3.128803091481511700e+01 5.598542647607992251e+00 3.963020809268180233e+00
5.350593004562439397e+06 3.127465037017751115e+01 5.598651676766451146e+00 3.960413665631063562e+00
5.352344261629147455e+06 3.125206507209471241e+01 5.598820474242931944e+00 3.957096172865261163e+00
5.353672661362485029e+06 3.123474907815425539e+01 5.598920234083225367e+00 3.955062790088057056e+00
5.355121134716544300e+06 3.121569740396357062e+01 5.598964073008779074e+00 3.951645442967644861e+00
5.355871526797522791e+06 3.120572261737502018e+01 5.598992337511674577e+00 3.950043554425794134e+00
5.359666619423614815e+06 3.115440382215691528e+01 5.599021181350541276e+00 3.943439461581125016e+00
5.364769549997875467e+06 3.108365046728890491e+01 5.598941808167641199e+00 3.937191877347016256e+00
5.371165643675722182e+06 3.099279126579626364e+01 5.598769682342791043e+00 3.930538052139078253e+00
5.378678508374713361e+06 3.088323532134066696e+01 5.598542343767990204e+00 3.923268308847533525e+00
5.385085546503637917e+06 3.078746367073092216e+01 5.598333221026299711e+00 3.917309004550906248e+00
5.393187463079039939e+06 3.066333013649617456e+01 5.598057679300305622e+00 3.910008648660057151e+00
5.400412364113815129e+06 3.054980022661316141e+01 5.597790810435923525e+00 3.903554348975397659e+00
5.407212512299548835e+06 3.044034647754670786e+01 5.597529519437071777e+00 3.897123822325730291e+00
5.414444043076884001e+06 3.032104770503160651e+01 5.597238998201961913e+00 3.890157137633742046e+00
5.421075005387852900e+06 3.020876450903951138e+01 5.596953146662501766e+00 3.883207764639930559e+00
5.426816775397789665e+06 3.010916463563659207e+01 5.596654301829182110e+00 3.876925974440769807e+00
5.432298989106705412e+06 3.001177390912864951e+01 5.596346018993996196e+00 3.870290729524042739e+00
5.438058380803104490e+06 2.990682812138179258e+01 5.596031436469520060e+00 3.863147375313445320e+00
5.443207645710245706e+06 2.981068264951542801e+01 5.595733354924778524e+00 3.856793220181265802e+00
5.449229608699921519e+06 2.969540936371731021e+01 5.595400241078702486e+00 3.849719051518911694e+00
5.455148661755859852e+06 2.957919493429487900e+01 5.595081792223131956e+00 3.843119811787836682e+00
5.461478421480170451e+06 2.945184446913805942e+01 5.594734140637250164e+00 3.836448934159426116e+00
5.468205252929634415e+06 2.931321274847234193e+01 5.594354787283209340e+00 3.829918276288551304e+00
5.476828477531488985e+06 2.913098676754247407e+01 5.593925753988928662e+00 3.823022075072372239e+00
5.492368169024592265e+06 2.879420125254546292e+01 5.593245158033766096e+00 3.816390039076582141e+00
5.525294737082883716e+06 2.807014473542278665e+01 5.591707724550669667e+00 3.812092379826949262e+00
5.547578895395737141e+06 2.757329333651119185e+01 5.590465239391861019e+00 3.805563623766661685e+00
5.562156150167323649e+06 2.724088102089811869e+01 5.589621910003282679e+00 3.799007602914623138e+00
5.578321255281875841e+06 2.686388132498781545e+01 5.588723908540814911e+00 3.792363795615589339e+00
5.616827700754882768e+06 2.595205272376918515e+01 5.587124466857590122e+00 3.789432912508917006e+00
5.646539886697648093e+06 2.525275720941730739e+01 5.586199495412968119e+00 3.793732147084076356e+00
5.662178646355317906e+06 2.489434615158206299e+01 5.585800200459223319e+00 3.800432482623421038e+00
5.673571668530671857e+06 2.464024778867823073e+01 5.585560503832617485e+00 3.806941974746654189e+00
5.683633280327050947e+06 2.442162527535373329e+01 5.585370462148819826e+00 3.813688723392830049e+00
5.692821449464131147e+06 2.422721225455701699e+01 5.585197565192553171e+00 3.820379361031529974e+00
5.700629996624829248e+06 2.406619777642087499e+01 5.585063421926799165e+00 3.826709615259255237e+00
5.708550179850149900e+06 2.390705466053380945e+01 5.584936105293643926e+00 3.833551144348819939e+00
5.715997435980107635e+06 2.376128194148805761e+01 5.584793773496439684e+00 3.839942352775121748e+00
5.724016599837662652e+06 2.360844680506071569e+01 5.584646403563169770e+00 3.846992695721302091e+00
5.732130856222806498e+06 2.345798982447809067e+01 5.584478026998764832e+00 3.853779855985536962e+00
5.740399397771591321e+06 2.330870292204581773e+01 5.584290374014685199e+00 3.860340440348203117e+00
5.749939154790311120e+06 2.314096380606936521e+01 5.584034671672730710e+00 3.866927313642502639e+00
5.761856022828930989e+06 2.293704842842827674e+01 5.583667594240942833e+00 3.873564922608350614e+00
5.782920890825357288e+06 2.258675585619939596e+01 5.582793868628295186e+00 3.879605658553736180e+00
5.809074620354437269e+06 2.215683915303598184e+01 5.581102981117954442e+00 3.875289423763991437e+00
5.818987781734373420e+06 2.199084239142938912e+01 5.580147689766604913e+00 3.868821360819771016e+00
5.825491425636237487e+06 2.187951263480717046e+01 5.579322275067662318e+00 3.861987513197028932e+00
5.830246598413284868e+06 2.179621396534232858e+01 5.578611177769367657e+00 3.855314253678154390e+00
5.834336488921137527e+06 2.172291536451105642e+01 5.577920353062757464e+00 3.848713513900146488e+00
5.837476648474840447e+06 2.166538865020792670e+01 5.577289325604967374e+00 3.842414520993366445e+00
5.840711675723798573e+06 2.160472358224522793e+01 5.576576241171613546e+00 3.835153164702786999e+00
5.843111258478585631e+06 2.155864723149132800e+01 5.575965787619564296e+00 3.828848839047620967e+00
5.845342990876179188e+06 2.151485035617396591e+01 5.575341690022042940e+00 3.822486153718229751e+00
5.847695332620475441e+06 2.146758830566912479e+01 5.574565608875611922e+00 3.815108082042641513e+00
5.849377319750976749e+06 2.143300416547896958e+01 5.573899405092584303e+00 3.809103552816096361e+00
5.851121821666548029e+06 2.139634090552397794e+01 5.573082291639877894e+00 3.802085304781925856e+00
5.852497288565766066e+06 2.136677086133952130e+01 5.572333328667632202e+00 3.795818774018826058e+00
5.853925843189160340e+06 2.133536630811799029e+01 5.571488132553320760e+00 3.789013281590261073e+00
5.856353952801575884e+06 2.128078391284003956e+01 5.570152508824071091e+00 3.781851291077128252e+00
5.857659864302705973e+06 2.125082406760753173e+01 5.569064455582410034e+00 3.775588365366804311e+00
5.858445634521823376e+06 2.123243821055172020e+01 5.567875140793927535e+00 3.768556048788855417e+00
5.858815219242947176e+06 2.122360173116734217e+01 5.566905354821280127e+00 3.762228239432842791e+00
5.859616759250376374e+06 2.120393112002724934e+01 5.566260653308784612e+00 3.755241057048624320e+00
5.860682757497631945e+06 2.117720906595059915e+01 5.565058359365038676e+00 3.748426203616950669e+00
5.861584095334136859e+06 2.115415203284577217e+01 5.563859003610052589e+00 3.742205293791968757e+00
5.862627792929772288e+06 2.112690753055468207e+01 5.562444889653634483e+00 3.735233941438522720e+00
5.863612329036488198e+06 2.110067298264598890e+01 5.560963081490255533e+00 3.728549962859353251e+00
5.864637546530485153e+06 2.107281036955171771e+01 5.559351512160018771e+00 3.721749544277304977e+00
5.865608423525690101e+06 2.104591377901120808e+01 5.557685991507016254e+00 3.715235761650660162e+00
5.866601982998330146e+06 2.101787586226945237e+01 5.555813992140078206e+00 3.708493972056112753e+00
5.867543898636574857e+06 2.099082501544234702e+01 5.553924224382368990e+00 3.702142665213444594e+00
5.868485871889520437e+06 2.096330560181919012e+01 5.551837245387714503e+00 3.695436253133913329e+00
5.869365292862646282e+06 2.093717546649997985e+01 5.549728398722650446e+00 3.688983432179977484e+00
5.870247854795149527e+06 2.091050974718686817e+01 5.547627044278502950e+00 3.682314871721546368e+00
5.871129154633551836e+06 2.088341092724669323e+01 5.545631991281321227e+00 3.675636733877686524e+00
5.872010152889646590e+06 2.085583245699891464e+01 5.543944378975308673e+00 3.669062705064201957e+00
5.872966045749842189e+06 2.082531835991061797e+01 5.542665472139258753e+00 3.662428516314086391e+00
5.874068026291633025e+06 2.078934829041885735e+01 5.542144910196953767e+00 3.655655923426054610e+00
5.875333770704785362e+06 2.074699168891594425e+01 5.542376396634415947e+00 3.649339717028150076e+00
5.876709297377851792e+06 2.069983823863725902e+01 5.542802450354125554e+00 3.644057747564516170e+00
5.877687937058785930e+06 2.066572457353605330e+01 5.542474819055266622e+00 3.640589313076436628e+00
5.877893668971964158e+06 2.065850486702693090e+01 5.542479142281470317e+00 3.640383294980336526e+00
5.878065324998111464e+06 2.065248200356410280e+01 5.542420121653487186e+00 3.640835104217386764e+00
5.878232883836225607e+06 2.064661740820326941e+01 5.542111196329648770e+00 3.640747707794555144e+00
5.878374887824167497e+06 2.064165166677809538e+01 5.542232953170889154e+00 3.641719743165464429e+00
5.878484536436792463e+06 2.063783172841075242e+01 5.542359646113149907e+00 3.643092338272857056e+00
5.878589393859589472e+06 2.063419793807359781e+01 5.542533685262273302e+00 3.644906623595233874e+00
5.878655955275249667e+06 2.063190393129441347e+01 5.542681692992204923e+00 3.646300285875862635e+00
5.878750219612259418e+06 2.062867512001607651e+01 5.542954211216763127e+00 3.648627539070429027e+00
5.878809885811737739e+06 2.062664501260077188e+01 5.543209360425357168e+00 3.650312091052345220e+00
5.878867150447454304e+06 2.062470737823491973e+01 5.543450728631047042e+00 3.652084122724179149e+00
5.878922084048656747e+06 2.062285954412524802e+01 5.543772095365244290e+00 3.653938514996994957e+00
5.878974980434829369e+06 2.062109068734040918e+01 5.544100184379496810e+00 3.655874827194340426e+00
5.879026053921348415e+06 2.061939309327052072e+01 5.544530913305644404e+00 3.657877490342955173e+00
5.879075576462730765e+06 2.061775693417455102e+01 5.545022007221215077e+00 3.659975599982492778e+00
5.879123578876484185e+06 2.061618068590034980e+01 5.545549799489635667e+00 3.662125703249516029e+00
5.879147241632935591e+06 2.061540727319765054e+01 5.545818921714221084e+00 3.663222608122058244e+00
5.879193537153995596e+06 2.061390103962337150e+01 5.546478199279378352e+00 3.665483776576535568e+00
5.879238829775030725e+06 2.061243631765206885e+01 5.547203224745113737e+00 3.667803159786277245e+00
5.879261303935495205e+06 2.061171281644092446e+01 5.547610503568999540e+00 3.668980443810404779e+00
5.879305749629972503e+06 2.061028820606278700e+01 5.548447340124416982e+00 3.671337746703838167e+00
5.879350202140484005e+06 2.060887111799034699e+01 5.549608532906882274e+00 3.673629464692699909e+00
5.879372957724938169e+06 2.060814777538987386e+01 5.549362053160344921e+00 3.674793785579411498e+00
5.879415206743637100e+06 2.060682421004608500e+01 5.546467123368665320e+00 3.676401702636895141e+00
5.879480684927051887e+06 2.060478013055127278e+01 5.550750134118623613e+00 3.678196991984532538e+00
5.879593792094306089e+06 2.060122634044252266e+01 5.553222078077252988e+00 3.679937723200679134e+00
5.879743445770144463e+06 2.059650214894301712e+01 5.556045342873825454e+00 3.680928396735859920e+00
5.879884487844465300e+06 2.059200862519078967e+01 5.559270943630696848e+00 3.681599538044398212e+00
5.880038418645728379e+06 2.058704755210395376e+01 5.562924773818823887e+00 3.682193949572770464e+00
5.880205344625582919e+06 2.058159538763104024e+01 5.566953826711070974e+00 3.682845189878138470e+00
5.880364476876980625e+06 2.057632755900452537e+01 5.570708452608606365e+00 3.683529073647124008e+00
5.880519534486675635e+06 2.057113178553748511e+01 5.574174612918064042e+00 3.684203522856382307e+00
5.880678509199162945e+06 2.056574345210531263e+01 5.577598361493495638e+00 3.684944300382426707e+00
5.880814037232212722e+06 2.056110325268282324e+01 5.580721720029024446e+00 3.685751435128409081e+00
5.880970419156292453e+06 2.055569858254976268e+01 5.583985899226106220e+00 3.686965971384347895e+00
5.881098448905608617e+06 2.055124031479163804e+01 5.586522715277260964e+00 3.687966928793483312e+00
5.881249800278371200e+06 2.054593409584556341e+01 5.589402113701003927e+00 3.689032480179898155e+00
5.881378888060161844e+06 2.054137631585576429e+01 5.591969425747447708e+00 3.690158061827935043e+00
5.881535746286060661e+06 2.053580392625939410e+01 5.594852415784323796e+00 3.691699828868530098e+00
5.881659759659012780e+06 2.053137695025132814e+01 5.597043380945291524e+00 3.693018965838195999e+00
5.881775339765287004e+06 2.052723737752101840e+01 5.598816250050484555e+00 3.694151729907006576e+00
5.881897896564639173e+06 2.052283435215307605e+01 5.600978097657628219e+00 3.695622802305821075e+00
5.882017577863801271e+06 2.051852392199543829e+01 5.602890497713424622e+00 3.697324274436445180e+00
5.882135669810495339e+06 2.051426738385481841e+01 5.604718030251775396e+00 3.699247491407713806e+00
5.882217641417525709e+06 2.051131354629435322e+01 5.605764169679847697e+00 3.700610507899720680e+00
5.882372758789816871e+06 2.050573295056752698e+01 5.607281247565568449e+00 3.702690842536392690e+00
5.882475937879944220e+06 2.050202563183626125e+01 5.608417409898077466e+00 3.704166657812915098e+00
5.882597163451743312e+06 2.049767571667369026e+01 5.609439591110697343e+00 3.705768255223869545e+00
5.882733024506160989e+06 2.049281043595551921e+01 5.610594693745970751e+00 3.707524400911084594e+00
5.882805939808627591e+06 2.049020351846792209e+01 5.611081200566248484e+00 3.708435409235456781e+00
5.882994585192058235e+06 2.048347652247738182e+01 5.611884176986990269e+00 3.710292328291380670e+00
5.883118877511430532e+06 2.047905701325088756e+01 5.612259438230795539e+00 3.711263769067090657e+00
5.883265754906015471e+06 2.047384602925603758e+01 5.612482056585333723e+00 3.712222994577198509e+00
5.883434806805765256e+06 2.046786514202450036e+01 5.612421223503048395e+00 3.713134898351380109e+00
5.883622458909538575e+06 2.046125110365576205e+01 5.611972273142937340e+00 3.713970335604052764e+00
5.883819791179467924e+06 2.045433057345402261e+01 5.611146762226082885e+00 3.714665692068486180e+00
5.883821746286831796e+06 2.045426218276368147e+01 5.611137169900339394e+00 3.714671703875766617e+00
5.884018787539612502e+06 2.044739349485683277e+01 5.610187258412175026e+00 3.715245668240617860e+00
5.884020700897883624e+06 2.044732698421049122e+01 5.610178166187091975e+00 3.715250991627236488e+00
5.884209369715910405e+06 2.044079007348889832e+01 5.609421757295013578e+00 3.715776362069305172e+00
5.884211173011034727e+06 2.044072775225281546e+01 5.609415563342242450e+00 3.715781386896719773e+00
5.884212976306160912e+06 2.044066543101673261e+01 5.609409369389471323e+00 3.715786411724134375e+00
5.884384962630843744e+06 2.043473716246595018e+01 5.608958687379335117e+00 3.716215512870173043e+00
5.884386573187612928e+06 2.043468175248034413e+01 5.608955414413217433e+00 3.716219192032260921e+00
5.884388183744382113e+06 2.043462634249473808e+01 5.608952141447099748e+00 3.716222871194348798e+00
5.884533006987115368e+06 2.042965195075509399e+01 5.608760831907210864e+00 3.716493907126927176e+00
5.884534318258535117e+06 2.042960696272013266e+01 5.608759751756540624e+00 3.716495982618240213e+00
5.884535629529954866e+06 2.042956197468517487e+01 5.608758671605870383e+00 3.716498058109552360e+00
5.884536940801374614e+06 2.042951698665021354e+01 5.608757591455200142e+00 3.716500133600865396e+00
5.884616403849410824e+06 2.042679226699601358e+01 5.608592375339735092e+00 3.716613059180029932e+00
5.884616928357978351e+06 2.042677429432209024e+01 5.608590497497077720e+00 3.716613703156346649e+00
5.884617452866546810e+06 2.042675632164817046e+01 5.608588619654420349e+00 3.716614347132662921e+00
5.884666365186553448e+06 2.042508146784892631e+01 5.608464194646577639e+00 3.716676733582972680e+00
5.884666825979094952e+06 2.042506569460473642e+01 5.608463248955908753e+00 3.716677331737983980e+00
5.884667286771636456e+06 2.042504992136054653e+01 5.608462303265240756e+00 3.716677929892995280e+00
5.884667747564177029e+06 2.042503414811636020e+01 5.608461357574572759e+00 3.716678528048006580e+00
5.884693736263504252e+06 2.042414483540127890e+01 5.608366247855903097e+00 3.716749800645464674e+00
5.884693920580521226e+06 2.042413853002804203e+01 5.608365319937991700e+00 3.716750533810822432e+00
5.884694104897537269e+06 2.042413222465480160e+01 5.608364392020080302e+00 3.716751266976179302e+00
5.884711140011761338e+06 2.042354975583700138e+01 5.608367882324496456e+00 3.716852598802163232e+00
5.884711301984203048e+06 2.042354421855556623e+01 5.608368196658880755e+00 3.716853668030299485e+00
5.884711463956642896e+06 2.042353868127413108e+01 5.608368510993265943e+00 3.716854737258435293e+00
5.884725328797599301e+06 2.042306479437905864e+01 5.608469035033384564e+00 3.716985756296244947e+00
5.884725458375552669e+06 2.042306036582703044e+01 5.608470184269389591e+00 3.716987093302038581e+00
5.884725587953505106e+06 2.042305593727500224e+01 5.608471333505394618e+00 3.716988430307832214e+00
5.884725717531458475e+06 2.042305150872297048e+01 5.608472482741399645e+00 3.716989767313626292e+00
5.884732248260282911e+06 2.042282831706346258e+01 5.608735469854996047e+00 3.717128646129958636e+00
5.884732300091464072e+06 2.042282654572826317e+01 5.608738314033339556e+00 3.717130012254652005e+00
5.884736674643152393e+06 2.042267696549983214e+01 5.609101850404148770e+00 3.717254150733655838e+00
5.884736716108096763e+06 2.042267554752783454e+01 5.609105529016353842e+00 3.717255344060170330e+00
5.884736757573042065e+06 2.042267412955583694e+01 5.609109207628558025e+00 3.717256537386684823e+00
5.884736799037986435e+06 2.042267271158384290e+01 5.609112886240763096e+00 3.717257730713199759e+00
5.884740265507382341e+06 2.042255405966859172e+01 5.609404287449176074e+00 3.717385345162768306e+00
5.884740298679337837e+06 2.042255292410124667e+01 5.609407055004462350e+00 3.717386602566947307e+00
5.884740331851294264e+06 2.042255178853390873e+01 5.609409822559749514e+00 3.717387859971125419e+00
5.884740365023249760e+06 2.042255065296657079e+01 5.609412590115035790e+00 3.717389117375303975e+00
5.884740398195206188e+06 2.042254951739922930e+01 5.609415357670322066e+00 3.717390374779482531e+00
5.884741851126875728e+06 2.042249975096876824e+01 5.609523152271202129e+00 3.717446588459774492e+00
5.884741864395658486e+06 2.042249929644718165e+01 5.609524120898258026e+00 3.717447103167603295e+00
5.884741877664441243e+06 2.042249884192560216e+01 5.609525089525314812e+00 3.717447617875431654e+00
5.884741890933223069e+06 2.042249838740401557e+01 5.609526058152370709e+00 3.717448132583260900e+00
5.884741904202005826e+06 2.042249793288242898e+01 5.609527026779426606e+00 3.717448647291089703e+00
