# #MIST v1.1 [Fe/H] = 0, v_init = 0, reprocessed track 
# #star_age 	 star_mass 	 logL 	 logT
2.687669343294735995e+02 1.099933331121551987e+02 6.183535992602012143e+00 4.374025970306404609e+00
2.690343641646272772e+02 1.099933251946766433e+02 6.183575054065472365e+00 4.374059996416672647e+00
2.693017939997810117e+02 1.099933172771980736e+02 6.183614115528931698e+00 4.374094022526940684e+00
2.695692238349347463e+02 1.099933093597195182e+02 6.183653176992391920e+00 4.374128048637207833e+00
2.698366536700884240e+02 1.099933014422409627e+02 6.183692238455852141e+00 4.374162074747474982e+00
2.701040835052421016e+02 1.099932935247624073e+02 6.183731299919312363e+00 4.374196100857743907e+00
2.703715133403957793e+02 1.099932856072838518e+02 6.183770361382772585e+00 4.374230126968011945e+00
2.706389431755495139e+02 1.099932776898052964e+02 6.183809422846231918e+00 4.374264153078279094e+00
2.709063730107032484e+02 1.099932697723267410e+02 6.183848484309691251e+00 4.374298179188546243e+00
3.245846966194420702e+02 1.099916770083146957e+02 6.191654193322659872e+00 4.381130922037269393e+00
3.248140705554502574e+02 1.099916698204646508e+02 6.191683842941014149e+00 4.381160444655830766e+00
3.250434444914584446e+02 1.099916626326146201e+02 6.191713492559370202e+00 4.381189967274391250e+00
3.252728184274666319e+02 1.099916554447645751e+02 6.191743142177725368e+00 4.381219489892951735e+00
3.255021923634748191e+02 1.099916482569145444e+02 6.191772791796081421e+00 4.381249012511513108e+00
3.257315662994830632e+02 1.099916410690644994e+02 6.191802441414436586e+00 4.381278535130073593e+00
3.717919370019747021e+02 1.099901931185542594e+02 6.197714480665291958e+00 4.387210442358817630e+00
3.720030999799053006e+02 1.099901861970507326e+02 6.197738984706520959e+00 4.387237854196010645e+00
3.722142629578358992e+02 1.099901792755472343e+02 6.197763488747749072e+00 4.387265266033201883e+00
3.724254259357664978e+02 1.099901723540437075e+02 6.197787992788977185e+00 4.387292677870394009e+00
3.726365889136971532e+02 1.099901654325402092e+02 6.197812496830206186e+00 4.387320089707586135e+00
4.151000157695823418e+02 1.099887683572124786e+02 6.202693973784923820e+00 4.392834593012009847e+00
4.153016040132081912e+02 1.099887614891280379e+02 6.202715060857482143e+00 4.392860870458784817e+00
4.155031922568339837e+02 1.099887546210436113e+02 6.202736147930040467e+00 4.392887147905559786e+00
4.157047805004597194e+02 1.099887477529591706e+02 6.202757235002597014e+00 4.392913425352334755e+00
4.159063687440855119e+02 1.099887408848747441e+02 6.202778322075155337e+00 4.392939702799109725e+00
4.564960060055501572e+02 1.099873521141453239e+02 6.206973754927886056e+00 4.398230979432273813e+00
4.566923467311381728e+02 1.099873451893539453e+02 6.206992275768286937e+00 4.398256586174434268e+00
4.568886874567260747e+02 1.099873382645625668e+02 6.207010796608686931e+00 4.398282192916595612e+00
4.570850281823140904e+02 1.099873313397711883e+02 6.207029317449088701e+00 4.398307799658756068e+00
4.966647116167245031e+02 1.099859290299561252e+02 6.210710904883837813e+00 4.403469712226901756e+00
4.968582543031966452e+02 1.099859219844075824e+02 6.210727369781955609e+00 4.403494951750154485e+00
4.970517969896687305e+02 1.099859149388590680e+02 6.210743834680072517e+00 4.403520191273406326e+00
4.972453396761408726e+02 1.099859078933105394e+02 6.210760299578190313e+00 4.403545430796659055e+00
5.362946079928171912e+02 1.099845603460005350e+02 6.214036510743839337e+00 4.408638366672149367e+00
5.364867460019954706e+02 1.099845555929821046e+02 6.214051469634258140e+00 4.408663441109902159e+00
5.366788840111738637e+02 1.099845508399636458e+02 6.214066428524676056e+00 4.408688515547654951e+00
5.754645284649553787e+02 1.099837428669268462e+02 6.217040615530859959e+00 4.413747470969143549e+00
5.756559377685713343e+02 1.099837423399275593e+02 6.217054254730769003e+00 4.413772376490102012e+00
5.758473470721874037e+02 1.099837418129282725e+02 6.217067893930678046e+00 4.413797282011061363e+00
6.145020262845454226e+02 1.099836338629259700e+02 6.219758844941424059e+00 4.418823491853530072e+00
6.146931791748775140e+02 1.099836332975639550e+02 6.219770838824130621e+00 4.418848276723431390e+00
6.148843320652096054e+02 1.099836327322019400e+02 6.219782832706837183e+00 4.418873061593331819e+00
6.551029001910821989e+02 1.099835117626396226e+02 6.222229788730279765e+00 4.424079901607249177e+00
6.553322836594808223e+02 1.099835110361720041e+02 6.222242358606239421e+00 4.424109455436529004e+00
6.555616671278793319e+02 1.099835103097043998e+02 6.222254928482200853e+00 4.424139009265809719e+00
6.557910505962777279e+02 1.099835095832367813e+02 6.222267498358161397e+00 4.424168563095090434e+00
7.042368391220438752e+02 1.099833528924320660e+02 6.224816689310002538e+00 4.430394965595129797e+00
7.045120992841220868e+02 1.099833519497829855e+02 6.224829478229610302e+00 4.430430096141483531e+00
7.047873594462002984e+02 1.099833510071339191e+02 6.224842267149218067e+00 4.430465226687837266e+00
7.050626196082785100e+02 1.099833500644848385e+02 6.224855056068825832e+00 4.430500357234191000e+00
7.584566839664557847e+02 1.099831635537390468e+02 6.227268179439162665e+00 4.437301159178370646e+00
7.586877743609016989e+02 1.099831626891773055e+02 6.227277563590962295e+00 4.437330378356338478e+00
7.589188647553473857e+02 1.099831618246155784e+02 6.227286947742761036e+00 4.437359597534306310e+00
8.046262094151718429e+02 1.099829877476165620e+02 6.229086683269237312e+00 4.443126871847016268e+00
8.048389429224812375e+02 1.099829868937052595e+02 6.229094258682604135e+00 4.443153543862026211e+00
8.050516764297908594e+02 1.099829860397939285e+02 6.229101834095971846e+00 4.443180215877035266e+00
8.475914595633091722e+02 1.099828123514992058e+02 6.230563336211861980e+00 4.448498395219168344e+00
8.477964719037793202e+02 1.099828114761913156e+02 6.230569684279081422e+00 4.448523824954002670e+00
8.890472130125376680e+02 1.099826324379509686e+02 6.231797235208104802e+00 4.453623768843849362e+00
8.892494365311765705e+02 1.099826315242629704e+02 6.231802639160680890e+00 4.453648563017535089e+00
8.894516600498154730e+02 1.099826306105749723e+02 6.231808043113257867e+00 4.453673357191220816e+00
9.327679377422707603e+02 1.099824312488816958e+02 6.232895526676955456e+00 4.458955198826479283e+00
9.330106059646373069e+02 1.099824300926245826e+02 6.232900863172863737e+00 4.458984475271489778e+00
9.332532741870040809e+02 1.099824289363674268e+02 6.232906199668772018e+00 4.459013751716499385e+00
9.853784083513704672e+02 1.099821750746488647e+02 6.233969150076774213e+00 4.465262318312634982e+00
9.856696102182105506e+02 1.099821736012389550e+02 6.233974251857596016e+00 4.465296824831145983e+00
9.859608120850506339e+02 1.099821721278290454e+02 6.233979353638417820e+00 4.465331331349656985e+00
1.041765106672796264e+03 1.099818839573758851e+02 6.234907704973622344e+00 4.471914321776893075e+00
1.042011256561816026e+03 1.099818826251353556e+02 6.234911281256072968e+00 4.471943047305672714e+00
1.042257406450836243e+03 1.099818812928948262e+02 6.234914857538523592e+00 4.471971772834452352e+00
1.090722817843395433e+03 1.099816142272234600e+02 6.235575354113706226e+00 4.477601249147969753e+00
1.090951012501137029e+03 1.099816129242245779e+02 6.235578045932157920e+00 4.477627502098178169e+00
1.136552638332219885e+03 1.099813481692693529e+02 6.236076745055670223e+00 4.482847743208422386e+00
1.136773976114506922e+03 1.099813468447540856e+02 6.236078811204624373e+00 4.482872845397077199e+00
1.181351882172635896e+03 1.099810758120625991e+02 6.236460123713249537e+00 4.487901952509029790e+00
1.181571431766222304e+03 1.099810744405121170e+02 6.236461702705715204e+00 4.487926493413950446e+00
1.181790981359808484e+03 1.099810730689616491e+02 6.236463281698179983e+00 4.487951034318870214e+00
1.229521063005488941e+03 1.099807696743589247e+02 6.236761865212367084e+00 4.493245440651282507e+00
1.229784522517792539e+03 1.099807679607122424e+02 6.236763179620886888e+00 4.493274360043716165e+00
1.287166004297530208e+03 1.099803871769416332e+02 6.236999858383028617e+00 4.499514203849217076e+00
1.287482155712294571e+03 1.099803850249766981e+02 6.237000807832576044e+00 4.499548162818030050e+00
1.287798307127059161e+03 1.099803828730117630e+02 6.237001757282122583e+00 4.499582121786843025e+00
1.347805388963369978e+03 1.099799666258017794e+02 6.237152552927540228e+00 4.505985928718921230e+00
1.348074522037328279e+03 1.099799646988332711e+02 6.237153002460464002e+00 4.506014327873487879e+00
1.400897207237414477e+03 1.099795803140709012e+02 6.237213607914750213e+00 4.511550586963450904e+00
1.401147980838283274e+03 1.099795784449937628e+02 6.237213697921527356e+00 4.511576600759296340e+00
1.401398754439152526e+03 1.099795765759166386e+02 6.237213787928304498e+00 4.511602614555141777e+00
1.451481553512155642e+03 1.099791976541761755e+02 6.237207441656432039e+00 4.516760765754622042e+00
1.451725735523340063e+03 1.099791957693730637e+02 6.237207249736303361e+00 4.516785668796888586e+00
1.500946418402747440e+03 1.099788104225820007e+02 6.237147638718960607e+00 4.521768268285518033e+00
1.501189430937753741e+03 1.099788084859074075e+02 6.237147212606119595e+00 4.521792634080039619e+00
1.554700791146112351e+03 1.099783756332155917e+02 6.237027352410794201e+00 4.527102633040435364e+00
1.554992406188119958e+03 1.099783732389099669e+02 6.237026555029803632e+00 4.527131263763165769e+00
1.619322684454953560e+03 1.099778360424649151e+02 6.236823168494899150e+00 4.533373842636427398e+00
1.619672622505362597e+03 1.099778330723882078e+02 6.236821916107725627e+00 4.533407410701972395e+00
1.620022560555771179e+03 1.099778301023115148e+02 6.236820663720553881e+00 4.533440978767517393e+00
1.685868710608011497e+03 1.099772621779465993e+02 6.236566903040227317e+00 4.539709318151105677e+00
1.686168218073729349e+03 1.099772595415274878e+02 6.236565642543977717e+00 4.539737548613978824e+00
1.744749476368698424e+03 1.099767368552419669e+02 6.236298716005483023e+00 4.545216107133987826e+00
1.745029399652987649e+03 1.099767343195409666e+02 6.236297329934784806e+00 4.545242051933795047e+00
1.800876179619283221e+03 1.099762222471831592e+02 6.236005604440234329e+00 4.550380392510074756e+00
1.801149125668971237e+03 1.099762197128746095e+02 6.236004100977400988e+00 4.550405312220034304e+00
1.856154986682265644e+03 1.099757031923300445e+02 6.235687325850275187e+00 4.555387978184096909e+00
1.856426665663093900e+03 1.099757006130193702e+02 6.235685694194943451e+00 4.555412396762216432e+00
1.916956742591633883e+03 1.099751193011165356e+02 6.235305963626183612e+00 4.560803042102209659e+00
1.917282757368628154e+03 1.099751161420832943e+02 6.235303849892085637e+00 4.560831865416481889e+00
1.990049255593673934e+03 1.099744019610528483e+02 6.234812503745697398e+00 4.567162309422078792e+00
1.990440473326066694e+03 1.099743980845071860e+02 6.234809782729915817e+00 4.567195926458262001e+00
1.990831691058459455e+03 1.099743942079615238e+02 6.234807061714134235e+00 4.567229543494445210e+00
2.063637946461338743e+03 1.099736641267965780e+02 6.234285381352911770e+00 4.573421520346991898e+00
2.063972102482351147e+03 1.099736607363156793e+02 6.234282916895173443e+00 4.573449645048711432e+00
2.129083886533871919e+03 1.099729937409024672e+02 6.233787701799673897e+00 4.578870781515387733e+00
2.129396531454046453e+03 1.099729905115182191e+02 6.233785260813714757e+00 4.578896563394757813e+00
2.191747535528418666e+03 1.099723411645847477e+02 6.233286642601953531e+00 4.583981725644656002e+00
2.192053071866283972e+03 1.099723379616490320e+02 6.233284152597869721e+00 4.584006420998512965e+00
2.260798747886070032e+03 1.099716116371969292e+02 6.232712040866576153e+00 4.589481524083531383e+00
2.261165391491509126e+03 1.099716077444226130e+02 6.232708949724176328e+00 4.589510451103526734e+00
2.343806860157427764e+03 1.099707230719119337e+02 6.231998830349985141e+00 4.595914416251620338e+00
2.344246832483954677e+03 1.099707183386923219e+02 6.231995006655368208e+00 4.595948135640069765e+00
2.425410639307185193e+03 1.099698389072421634e+02 6.231275947592552100e+00 4.602084277160017223e+00
2.425785816649383378e+03 1.099698348183831627e+02 6.231272572026085754e+00 4.602112322809418288e+00
2.426160993991580654e+03 1.099698307295241477e+02 6.231269196459619408e+00 4.602140368458819353e+00
2.499015642892665710e+03 1.099690325830583220e+02 6.230602525629214128e+00 4.607509765879383323e+00
2.569058291495060530e+03 1.099682594185314173e+02 6.229945327180745451e+00 4.612544694104121490e+00
2.569402207706508761e+03 1.099682556124478197e+02 6.229942072163073163e+00 4.612569172802736261e+00
2.647471187705309148e+03 1.099673888752739543e+02 6.229195722011465541e+00 4.618015127302410150e+00
2.647883887159046935e+03 1.099673842859240551e+02 6.229191756301138305e+00 4.618043616060060863e+00
2.741731742939102787e+03 1.099663379400866887e+02 6.228279196948658836e+00 4.624357110692821848e+00
2.742226982283588768e+03 1.099663324113890894e+02 6.228274353396864527e+00 4.624389999179506106e+00
2.742722221628074749e+03 1.099663268826915044e+02 6.228269509845069329e+00 4.624422887666190363e+00
2.833833476102269287e+03 1.099653083977857762e+02 6.227362956690963181e+00 4.630342829608169453e+00
2.834260045499740045e+03 1.099653036253343856e+02 6.227358665787694036e+00 4.630370152461251720e+00
2.917364056760539825e+03 1.099643739399529210e+02 6.226507744955858570e+00 4.635570190233560872e+00
2.917767421559311060e+03 1.099643694277272914e+02 6.226503574064926383e+00 4.635595095067322369e+00
2.998721706009701393e+03 1.099634648576852953e+02 6.225649838064780894e+00 4.640465593212693918e+00
2.999121149876372328e+03 1.099634603969487472e+02 6.225645583472118716e+00 4.640489301939929589e+00
3.090673684117393350e+03 1.099624402387646001e+02 6.224643625991914675e+00 4.645727330379058273e+00
3.091153016757398291e+03 1.099624349023706884e+02 6.224638323386293415e+00 4.645754339588187065e+00
3.201207790902624765e+03 1.099612143978804397e+02 6.223370383506901860e+00 4.651651142720798937e+00
3.201782990070631058e+03 1.099612080284943545e+02 6.223363654716180804e+00 4.651681347168251435e+00
3.309249055551623314e+03 1.099600248028492047e+02 6.222049287306752774e+00 4.657059266617146420e+00
3.309761939244941459e+03 1.099600191719655697e+02 6.222042878861147486e+00 4.657084304072196090e+00
3.411817179076736920e+03 1.099589060048239162e+02 6.220703165367848619e+00 4.661792448552074752e+00
3.412319166529079666e+03 1.099589005448653012e+02 6.220696438559700781e+00 4.661815025292757042e+00
3.528177870529807478e+03 1.099576502281476138e+02 6.219040950556301794e+00 4.666610580766840322e+00
3.528780255472618592e+03 1.099576437445426365e+02 6.219032163520671119e+00 4.666634789825969243e+00
3.668051654250616593e+03 1.099561605178404307e+02 6.216844942047951683e+00 4.671629500978541571e+00
3.668774516181990293e+03 1.099561528456156054e+02 6.216833331448791355e+00 4.671654425662387311e+00
3.836189339488137193e+03 1.099544006003679470e+02 6.213940655702302251e+00 4.676621509621957884e+00
3.837056773805785724e+03 1.099543915601983031e+02 6.213925346895599944e+00 4.676645976858660347e+00
3.837924208123433800e+03 1.099543825200286449e+02 6.213910038088899412e+00 4.676670444095362811e+00
4.039342456681399653e+03 1.099523208162120795e+02 6.210139023823087356e+00 4.681389619330906804e+00
4.040383377862577618e+03 1.099523102158467367e+02 6.210119220742796209e+00 4.681412608378348494e+00
4.282501644604607463e+03 1.099498989164172116e+02 6.205361555118011019e+00 4.685768798868159557e+00
4.283750750022020839e+03 1.099498865511784800e+02 6.205336801427224103e+00 4.685789908196037246e+00
4.284999855439435123e+03 1.099498741859397342e+02 6.205312047736436298e+00 4.685811017523914046e+00
4.576291238780318054e+03 1.099470671318024699e+02 6.199619834003860852e+00 4.689845005339726924e+00
4.577790165281215195e+03 1.099470527840258427e+02 6.199590644619525470e+00 4.689864639690582315e+00
4.579289091782111427e+03 1.099470384362492155e+02 6.199561455235190088e+00 4.689884274041438594e+00
4.580788018283007659e+03 1.099470240884725740e+02 6.199532265850853818e+00 4.689903908392293097e+00
4.931536819492785071e+03 1.099437703100143722e+02 6.193390865267977219e+00 4.693845411332148387e+00
4.933335531293861095e+03 1.099437537401903739e+02 6.193360143727722367e+00 4.693864891708423137e+00
4.935134243094936210e+03 1.099437371703663757e+02 6.193329422187467515e+00 4.693884372084697887e+00
5.357112031627315446e+03 1.099399788086700482e+02 6.187830853410424936e+00 4.698271065702892990e+00
5.359270485788605583e+03 1.099399597157954531e+02 6.187804470412221036e+00 4.698293316984754497e+00
5.361428939949896630e+03 1.099399406229208438e+02 6.187778087414018025e+00 4.698315568266616893e+00
5.363587394111187677e+03 1.099399215300462345e+02 6.187751704415815013e+00 4.698337819548478400e+00
5.871687503679075235e+03 1.099355714414967906e+02 6.184280620306426890e+00 4.704387314995044811e+00
5.874277648672624309e+03 1.099355493945630258e+02 6.184265364742520532e+00 4.704418876076370104e+00
5.876867793666173384e+03 1.099355273476292467e+02 6.184250109178614174e+00 4.704450437157696285e+00
5.879457938659721549e+03 1.099355053006954961e+02 6.184234853614708705e+00 4.704481998239021578e+00
5.882048083653271533e+03 1.099354832537617312e+02 6.184219598050803235e+00 4.704513559320346872e+00
6.494358360128285312e+03 1.099304225294095545e+02 6.183480596884516345e+00 4.713743241805198991e+00
6.497466534120544566e+03 1.099303969519889677e+02 6.183478961220277625e+00 4.713791397910112480e+00
6.500574708112802909e+03 1.099303713745684092e+02 6.183477325556038906e+00 4.713839554015025968e+00
6.503682882105062163e+03 1.099303457971478224e+02 6.183475689891798410e+00 4.713887710119939456e+00
6.506791056097320507e+03 1.099303202197272356e+02 6.183474054227559691e+00 4.713935866224851168e+00
7.024612843207662081e+03 1.099261783144574309e+02 6.184197750997994625e+00 4.722744704799469062e+00
7.027099382401468574e+03 1.099261585264926993e+02 6.184202070706334986e+00 4.722787670539308813e+00
7.029585921595275067e+03 1.099261387385279818e+02 6.184206390414676235e+00 4.722830636279149452e+00
7.032072460789082470e+03 1.099261189505632501e+02 6.184210710123018373e+00 4.722873602018990091e+00
7.444340659122310171e+03 1.099229172087745496e+02 6.184543232505746779e+00 4.729121111864276195e+00
7.446329890477355548e+03 1.099229018154346136e+02 6.184544568464351855e+00 4.729150643517916031e+00
7.448319121832401834e+03 1.099228864220946775e+02 6.184545904422956930e+00 4.729180175171554978e+00
7.807581826341993292e+03 1.099201634082843242e+02 6.184100518920192968e+00 4.733136017874705281e+00
7.809339742320898949e+03 1.099201501151664502e+02 6.184097967655206141e+00 4.733154628053713786e+00
8.229833244475297761e+03 1.099170259011942079e+02 6.182818774523396677e+00 4.735841703660857327e+00
8.231942743649986369e+03 1.099170102478389026e+02 6.182812116604623043e+00 4.735854549428292870e+00
8.234052242824673158e+03 1.099169945944836115e+02 6.182805458685848521e+00 4.735867395195729301e+00
8.739910144914765624e+03 1.099133056420458701e+02 6.180952311790164799e+00 4.737225165393212478e+00
8.742441543924391226e+03 1.099132872004647936e+02 6.180942964732218492e+00 4.737231465791206020e+00
9.350483586036350971e+03 1.099089216618367573e+02 6.179214000545931285e+00 4.737749101103178262e+00
9.353521264847900966e+03 1.099088998676941600e+02 6.179205486689653526e+00 4.737751448385555619e+00
9.356558943659450961e+03 1.099088780735515485e+02 6.179196972833376655e+00 4.737753795667932089e+00
1.008803200148073302e+04 1.099036844106954049e+02 6.178061243011820025e+00 4.737980772642851335e+00
1.009167721605459155e+04 1.099036585379649296e+02 6.178055739821247450e+00 4.737981845832108796e+00
1.009532243062845191e+04 1.099036326652344258e+02 6.178050236630673098e+00 4.737982919021366257e+00
1.009896764520231409e+04 1.099036067925039362e+02 6.178044733440098746e+00 4.737983992210624606e+00
1.097965148624693938e+04 1.098973957592822615e+02 6.177456693313686742e+00 4.738090642702972310e+00
1.098402574373557036e+04 1.098973649131090156e+02 6.177453834589626602e+00 4.738091159661230733e+00
1.098840000122420497e+04 1.098973340669357981e+02 6.177450975865564686e+00 4.738091676619490045e+00
1.099277425871283594e+04 1.098973032207625664e+02 6.177448117141503658e+00 4.738092193577749356e+00
1.099976148325759095e+04 1.098972541086855443e+02 6.177446247583546324e+00 4.738091843566828665e+00
1.100674870780234778e+04 1.098972049966085223e+02 6.177444378025588101e+00 4.738091493555907974e+00
1.207299917333205485e+04 1.098897106722410797e+02 6.177163290179664479e+00 4.738035759801692670e+00
1.208138384278576268e+04 1.098896517972773239e+02 6.177162448942918438e+00 4.738034565759355665e+00
1.208976851223946869e+04 1.098895929223135681e+02 6.177161607706172397e+00 4.738033371717018660e+00
1.337429987254734078e+04 1.098805731199678490e+02 6.177037035992110958e+00 4.737848599234164126e+00
1.338436147589179018e+04 1.098805024436948230e+02 6.177036744133920898e+00 4.737846858850556231e+00
1.339442307923623957e+04 1.098804317674218112e+02 6.177036452275730838e+00 4.737845118466949224e+00
1.494189767361235317e+04 1.098695608752173598e+02 6.176994483893145649e+00 4.737577056831999478e+00
1.495397159762569026e+04 1.098694759657547593e+02 6.176994458041880520e+00 4.737574924967653089e+00
1.496604552163902736e+04 1.098693910562921587e+02 6.176994432190615392e+00 4.737572793103306701e+00
1.497811944565236627e+04 1.098693061468295866e+02 6.176994406339352039e+00 4.737570661238960312e+00
1.684474809811437444e+04 1.098561769830573382e+02 6.176992112021896908e+00 4.737242307605344038e+00
1.685923680693037750e+04 1.098560749254826021e+02 6.176992211945616873e+00 4.737239844183076976e+00
1.687372551574638419e+04 1.098559728679078802e+02 6.176992311869335062e+00 4.737237380760809913e+00
1.912237312399039729e+04 1.098401296502464106e+02 6.177008639818994062e+00 4.736857904364437211e+00
1.913975957456960532e+04 1.098400069385277504e+02 6.177008810964236041e+00 4.736855126178936004e+00
1.915714602514880971e+04 1.098398842268090903e+02 6.177008982109478907e+00 4.736852347993436574e+00
1.917453247572801774e+04 1.098397615150904301e+02 6.177009153254720886e+00 4.736849569807936255e+00
2.188681876608419770e+04 1.098206117598881519e+02 6.177036386639209731e+00 4.736421062560556727e+00
2.190768250677924880e+04 1.098204641694711796e+02 6.177036618749836450e+00 4.736417973222488698e+00
2.192854624747429625e+04 1.098203165790542073e+02 6.177036850860464057e+00 4.736414883884419780e+00
2.194940998816934007e+04 1.098201689886372350e+02 6.177037082971090776e+00 4.736411794546350862e+00
2.522084452915280417e+04 1.097970158376161720e+02 6.177074009079182026e+00 4.735934742434378286e+00
2.524588101798685966e+04 1.097968382718808158e+02 6.177074309743674441e+00 4.735931341732746880e+00
2.527091750682091515e+04 1.097966607061454454e+02 6.177074610408168631e+00 4.735927941031115473e+00
2.529595399565497428e+04 1.097964831404100892e+02 6.177074911072661934e+00 4.735924540329483179e+00
2.924170463590236614e+04 1.097684815387056858e+02 6.177122981695991832e+00 4.735398943974947983e+00
2.927174842250323491e+04 1.097682678440442743e+02 6.177123366989781594e+00 4.735395232926655318e+00
2.930179220910410368e+04 1.097680541493828628e+02 6.177123752283571356e+00 4.735391521878361765e+00
2.933183599570497245e+04 1.097678404547214370e+02 6.177124137577361118e+00 4.735387810830069100e+00
3.409077179328253260e+04 1.097339648101637266e+02 6.177186108690650101e+00 4.734813927811742040e+00
3.412682433720357949e+04 1.097337075512515980e+02 6.177186600436228581e+00 4.734809910398519506e+00
3.416287688112461910e+04 1.097334502923394695e+02 6.177187092181807948e+00 4.734805892985296083e+00
3.419892942504565872e+04 1.097331930334273267e+02 6.177187583927386427e+00 4.734801875572072660e+00
3.423498196896670561e+04 1.097329357745151981e+02 6.177188075672965795e+00 4.734797858158849237e+00
3.998175746998083196e+04 1.096918879411684742e+02 6.177267730632440390e+00 4.734176090137560244e+00
4.002502052268608531e+04 1.096915781287779055e+02 6.177268355070761885e+00 4.734171772151057667e+00
4.006828357539132412e+04 1.096912683163873226e+02 6.177268979509083380e+00 4.734167454164554201e+00
4.011154662809658475e+04 1.096909585039967396e+02 6.177269603947404875e+00 4.734163136178050735e+00
4.704228767147772305e+04 1.096412663811618700e+02 6.177371348581051969e+00 4.733494739829976261e+00
4.709420333472402126e+04 1.096408931385403775e+02 6.177372139604952572e+00 4.733490127638605216e+00
4.714611899797032675e+04 1.096405198959188709e+02 6.177372930628853176e+00 4.733485515447233283e+00
4.719803466121663223e+04 1.096401466532973785e+02 6.177373721652752891e+00 4.733480903255862238e+00
4.724995032446293044e+04 1.096397734106758719e+02 6.177374512676653495e+00 4.733476291064491193e+00
5.561875523976661498e+04 1.095795167904175287e+02 6.177504243828904507e+00 4.732761976425673645e+00
5.568105403566217865e+04 1.095790669447136167e+02 6.177505241277139625e+00 4.732757075939728608e+00
5.574335283155772777e+04 1.095786170990097190e+02 6.177506238725374743e+00 4.732752175453783572e+00
5.580565162745330599e+04 1.095781672533058071e+02 6.177507236173609861e+00 4.732747274967838536e+00
5.586795042334885511e+04 1.095777174076018952e+02 6.177508233621844980e+00 4.732742374481893499e+00
6.597281511760882859e+04 1.095046196054118894e+02 6.177672925244998225e+00 4.731982961043095237e+00
6.604757367268350208e+04 1.095040771860766853e+02 6.177674179153848755e+00 4.731977775467441028e+00
6.612233222775817558e+04 1.095035347667414953e+02 6.177675433062699284e+00 4.731972589891786818e+00
6.619709078283284907e+04 1.095029923474062912e+02 6.177676686971551590e+00 4.731967404316132608e+00
6.627184933790752257e+04 1.095024499280710870e+02 6.177677940880402119e+00 4.731962218740478399e+00
7.847244552609416132e+04 1.094137321791432100e+02 6.177886421484327428e+00 4.731157769134142654e+00
7.856215579218376661e+04 1.094130777953441225e+02 6.177887994794224014e+00 4.731152293520864305e+00
7.865186605827338644e+04 1.094124234115450491e+02 6.177889568104120599e+00 4.731146817907586843e+00
7.874157632436299173e+04 1.094117690277459758e+02 6.177891141414017184e+00 4.731141342294309382e+00
7.883128659045259701e+04 1.094111146439468882e+02 6.177892714723913770e+00 4.731135866681032809e+00
9.356171228236617753e+04 1.093033798372027690e+02 6.178155555019102962e+00 4.730285128697488517e+00
9.366936460167370387e+04 1.093025899047269007e+02 6.178157516807538663e+00 4.730279350711008135e+00
9.377701692098123021e+04 1.093017999722510467e+02 6.178159478595975251e+00 4.730273572724527753e+00
9.388466924028875655e+04 1.093010100397751785e+02 6.178161440384410952e+00 4.730267794738047371e+00
1.116473019260310684e+05 1.091702613394604526e+02 6.178491273907933845e+00 4.729367972795648356e+00
1.117764847092001000e+05 1.091693071152309926e+02 6.178493722491466222e+00 4.729361862993822996e+00
1.119056674923691317e+05 1.091683528910015468e+02 6.178496171074998600e+00 4.729355753191997636e+00
1.120348502755381924e+05 1.091673986667720868e+02 6.178498619658530977e+00 4.729349643390173163e+00
1.121640330587072094e+05 1.091664444425426268e+02 6.178501068242063354e+00 4.729343533588348691e+00
1.336083750647670240e+05 1.090074423957126157e+02 6.178915307524318834e+00 4.728388223434603965e+00
1.337633944045698736e+05 1.090062887434266941e+02 6.178918356887641572e+00 4.728381733343116622e+00
1.339184137443727232e+05 1.090051350911407724e+02 6.178921406250964310e+00 4.728375243251630167e+00
1.340734330841755436e+05 1.090039814388548507e+02 6.178924455614287936e+00 4.728368753160143712e+00
1.342284524239783641e+05 1.090028277865689290e+02 6.178927504977610674e+00 4.728362263068656368e+00
1.343834717637812137e+05 1.090016741342830073e+02 6.178930554340933412e+00 4.728355772977169025e+00
1.603027053788164048e+05 1.088078876185547443e+02 6.179450657529378610e+00 4.727334451585082142e+00
1.604887285865798476e+05 1.088064914482652910e+02 6.179454451629061040e+00 4.727327503237200190e+00
1.606747517943432322e+05 1.088050952779758518e+02 6.179458245728744359e+00 4.727320554889317350e+00
1.608607750021066458e+05 1.088036991076863842e+02 6.179462039828427677e+00 4.727313606541434510e+00
1.610467982098700595e+05 1.088023029373969450e+02 6.179465833928109220e+00 4.727306658193551669e+00
1.923359017556756735e+05 1.085661415204812101e+02 6.180117986846930478e+00 4.726203827787286649e+00
1.925591296049917582e+05 1.085644497510199074e+02 6.180122712425218268e+00 4.726196303124241993e+00
1.927823574543078430e+05 1.085627579815586046e+02 6.180127438003506946e+00 4.726188778461198226e+00
1.930055853036239569e+05 1.085610662120973160e+02 6.180132163581793847e+00 4.726181253798152682e+00
1.932288131529400707e+05 1.085593744426360274e+02 6.180136889160083413e+00 4.726173729135108914e+00
2.309989652572228806e+05 1.082711475780187556e+02 6.180954557410216488e+00 4.724965549245323082e+00
2.312668386764022289e+05 1.082690944375516438e+02 6.180960438573973370e+00 4.724957275383359523e+00
2.315347120955815481e+05 1.082670412970845177e+02 6.180966319737730252e+00 4.724949001521395964e+00
2.318025855147608090e+05 1.082649881566173917e+02 6.180972200901488023e+00 4.724940727659432405e+00
2.320704589339401573e+05 1.082629350161502941e+02 6.180978082065244905e+00 4.724932453797469734e+00
2.776625148782588076e+05 1.079105144791597723e+02 6.182005297426975687e+00 4.723583496434011764e+00
2.779839629812740022e+05 1.079080180069784944e+02 6.182012643189310985e+00 4.723574218941883451e+00
2.783054110842891969e+05 1.079055215347972023e+02 6.182019988951646283e+00 4.723564941449755139e+00
2.786268591873043915e+05 1.079030250626159386e+02 6.182027334713982469e+00 4.723555663957626827e+00
2.789483072903195862e+05 1.079005285904346465e+02 6.182034680476318655e+00 4.723546386465498514e+00
3.339802225265172310e+05 1.074685974637865371e+02 6.183328960113073869e+00 4.722004006470053028e+00
3.343659602501353947e+05 1.074655544566563776e+02 6.183338157164595117e+00 4.721993351882175283e+00
3.347516979737536167e+05 1.074625114495262039e+02 6.183347354216115477e+00 4.721982697294297537e+00
3.351374356973717804e+05 1.074594684423960302e+02 6.183356551267635837e+00 4.721972042706419792e+00
3.355231734209900023e+05 1.074564254352658565e+02 6.183365748319156197e+00 4.721961388118542047e+00
4.019472094280453166e+05 1.069254289964510747e+02 6.185001350754147253e+00 4.720148420020684910e+00
4.024100946963872411e+05 1.069217081739245714e+02 6.185012900781943657e+00 4.720135849880922052e+00
4.028729799647290492e+05 1.069179873513980823e+02 6.185024450809740060e+00 4.720123279741159195e+00
4.033358652330709156e+05 1.069142665288715932e+02 6.185036000837537351e+00 4.720110709601395449e+00
4.037987505014127819e+05 1.069105457063450899e+02 6.185047550865333754e+00 4.720098139461632591e+00
4.042616357697546482e+05 1.069068248838186150e+02 6.185059100893131045e+00 4.720085569321868846e+00
4.845259413002313231e+05 1.062506156402797046e+02 6.187142867669970236e+00 4.717883298069863507e+00
4.850814036222414579e+05 1.062460476755147880e+02 6.187157484637502591e+00 4.717868002602923383e+00
4.856368659442517674e+05 1.062414797107498572e+02 6.187172101605035834e+00 4.717852707135982371e+00
4.861923282662619022e+05 1.062369117459849406e+02 6.187186718572567301e+00 4.717837411669041359e+00
4.867477905882721534e+05 1.062323437812200098e+02 6.187201335540100544e+00 4.717822116202100347e+00
5.836204195468543330e+05 1.054182082866647931e+02 6.189869020710078829e+00 4.715057018110865528e+00
5.842869743332666112e+05 1.054125706357366141e+02 6.189887618982121253e+00 4.715037792401814976e+00
5.849535291196788894e+05 1.054069329848084067e+02 6.189906217254162790e+00 4.715018566692765312e+00
5.856200839060911676e+05 1.054012953338802134e+02 6.189924815526204327e+00 4.714999340983715648e+00
5.862866386925034458e+05 1.053956576829520202e+02 6.189943413798246752e+00 4.714980115274665096e+00
7.032003482292143162e+05 1.043786180018853997e+02 6.193380116401232982e+00 4.711383412141254112e+00
7.040002139729091432e+05 1.043716118318120607e+02 6.193403926342100796e+00 4.711358422369317012e+00
7.048000797166037373e+05 1.043646056617387359e+02 6.193427736282968610e+00 4.711333432597379911e+00
7.055999454602984479e+05 1.043575994916653968e+02 6.193451546223835535e+00 4.711308442825441922e+00
7.063998112039932748e+05 1.043505933215920720e+02 6.193475356164704237e+00 4.711283453053504822e+00
8.474961283917410765e+05 1.030683991131270716e+02 6.197918869968296995e+00 4.706435719633449644e+00
8.484559672841747524e+05 1.030596121532396552e+02 6.197949437309096865e+00 4.706402129139499735e+00
8.494158061766083119e+05 1.030508251933522388e+02 6.197980004649895847e+00 4.706368538645548938e+00
8.503756450690419879e+05 1.030420382334648082e+02 6.198010571990695716e+00 4.706334948151599029e+00
8.513354839614755474e+05 1.030332512735774060e+02 6.198041139331495586e+00 4.706301357657648232e+00
8.522953228539093398e+05 1.030244643136899754e+02 6.198071706672295456e+00 4.706267767163698323e+00
1.016859601139197126e+06 1.014430512262193957e+02 6.203688777920715047e+00 4.699709879892836284e+00
1.017965289770969655e+06 1.014323439914524130e+02 6.203726929913443655e+00 4.699664944616149143e+00
1.019070978402741952e+06 1.014216367566854302e+02 6.203765081906171375e+00 4.699620009339461113e+00
1.020176667034514598e+06 1.014109295219184617e+02 6.203803233898899983e+00 4.699575074062772195e+00
1.021282355666287127e+06 1.014002222871514931e+02 6.203841385891628590e+00 4.699530138786085054e+00
1.169854551462064497e+06 9.987258526199558162e+01 6.209198482754644033e+00 4.692607577796759522e+00
1.170813680122155696e+06 9.986262887429195700e+01 6.209233311393750121e+00 4.692561947791253907e+00
1.171772808782246429e+06 9.985267248658830397e+01 6.209268140032856209e+00 4.692516317785748292e+00
1.172731937442337396e+06 9.984271609888467935e+01 6.209302968671964074e+00 4.692470687780242677e+00
1.303138458132490050e+06 9.840924465089590001e+01 6.214273494973292955e+00 4.685432471779366281e+00
1.303985316459415480e+06 9.839987147109712851e+01 6.214305962832524344e+00 4.685386093925948181e+00
1.304832174786340911e+06 9.839049829129831437e+01 6.214338430691754844e+00 4.685339716072528304e+00
1.418768082565722289e+06 9.705865258797408046e+01 6.218924426617122414e+00 4.678355128946376063e+00
1.419509322621838655e+06 9.704994281979023185e+01 6.218954400771512070e+00 4.678309214282910133e+00
1.420250562677954789e+06 9.704123305160639745e+01 6.218984374925902614e+00 4.678263299619445093e+00
1.519757376152300509e+06 9.581222210464135003e+01 6.223220311859964937e+00 4.671485208851692938e+00
1.520406576522715157e+06 9.580417578972308945e+01 6.223248047311325415e+00 4.671440699349617809e+00
1.608234451989887282e+06 9.466508487763844926e+01 6.227199156522470247e+00 4.665003272671714996e+00
1.608808820768330479e+06 9.465761752103391302e+01 6.227225066598688130e+00 4.664961025360242708e+00
1.687757616777947405e+06 9.358777370698466314e+01 6.230923723286630356e+00 4.659101585312901861e+00
1.688275147064460441e+06 9.358074984963074883e+01 6.230948002921371298e+00 4.659063162159909233e+00
1.761580827972145751e+06 9.254711473838921165e+01 6.234497280699408783e+00 4.654007242943606570e+00
1.833381893698416185e+06 9.149764330844102744e+01 6.238113293167689477e+00 4.649678416223748556e+00
1.833854146611755015e+06 9.149073744195405311e+01 6.238137088826751331e+00 4.649649999495258257e+00
1.834701396392913070e+06 9.147793477546960617e+01 6.238182407206448232e+00 4.649604220036158253e+00
1.835548646174070891e+06 9.146513210898515922e+01 6.238227725586145134e+00 4.649558440577059137e+00
1.836395895955228945e+06 9.145232944250071228e+01 6.238273043965841147e+00 4.649512661117959134e+00
1.923181209746826673e+06 9.013875930006273052e+01 6.242929305678795338e+00 4.644826687154535172e+00
1.924119918556355406e+06 9.012403209332218523e+01 6.242983070804466017e+00 4.644776790411620837e+00
1.925058627365884138e+06 9.010930488658163995e+01 6.243036835930137585e+00 4.644726893668707390e+00
2.019776743255598005e+06 8.861945807320982738e+01 6.248476644358770038e+00 4.639685518794999908e+00
2.020568283110524528e+06 8.860649204849272564e+01 6.248524090285902055e+00 4.639642492466877322e+00
2.100542662144918926e+06 8.729231402366971793e+01 6.253336212328398425e+00 4.635287439216233096e+00
2.101249459092275240e+06 8.728027649854385572e+01 6.253380617974969802e+00 4.635248149801213025e+00
2.101956256039632019e+06 8.726823897341797931e+01 6.253425023621541179e+00 4.635208860386192065e+00
2.173360564448518679e+06 8.604717093596724453e+01 6.257935189094138373e+00 4.631221000685947331e+00
2.174009946377417073e+06 8.603569670462367469e+01 6.257977993867569921e+00 4.631183349656915915e+00
2.239646205593111925e+06 8.487052258228349899e+01 6.262331454141002673e+00 4.627361109457819310e+00
2.240252680555443279e+06 8.485941959913311905e+01 6.262373357013248487e+00 4.627324755911796039e+00
2.301556772276186850e+06 8.373122076313104856e+01 6.266639147721977388e+00 4.623625972604042289e+00
2.302128475086202845e+06 8.372038687031414383e+01 6.266680531702951029e+00 4.623590198957182373e+00
2.359904416874840856e+06 8.261918124716906675e+01 6.270888958447506489e+00 4.619954176801608803e+00
2.360446244971913751e+06 8.260856132347316816e+01 6.270929634688775955e+00 4.619919119256088003e+00
2.415179410067389719e+06 8.152903359910209247e+01 6.275067036692604461e+00 4.616336502448625367e+00
2.467214860051287804e+06 8.046827319584865279e+01 6.279147913364178990e+00 4.612692861945862255e+00
2.467705681117249653e+06 8.045800892066029064e+01 6.279187578996632269e+00 4.612655878455384162e+00
2.517252264125914313e+06 7.941481842585396578e+01 6.283225157169195718e+00 4.608781061765527376e+00
2.517720599725813605e+06 7.940471787129197878e+01 6.283264461221748753e+00 4.608739621724567748e+00
2.564968894703414757e+06 7.837860636334809783e+01 6.287270785750370905e+00 4.604424823532403899e+00
2.565416352854830213e+06 7.836867161108128244e+01 6.287309982249654539e+00 4.604379866930873533e+00
2.610534571234400384e+06 7.735982131599456579e+01 6.291308771284083612e+00 4.599788987937563078e+00
2.610962677050082944e+06 7.735005302432512053e+01 6.291347995416979977e+00 4.599743834830949396e+00
2.653503080501538236e+06 7.637255098850604895e+01 6.295292163582537626e+00 4.595247296759597866e+00
2.691510290093718097e+06 7.547656354836549042e+01 6.298969047198954563e+00 4.591266811926043800e+00
2.691842961584403180e+06 7.546858006537735264e+01 6.299002163933960396e+00 4.591233469342832940e+00
2.724066026938228868e+06 7.469056982788185906e+01 6.302243804699183549e+00 4.588081345619014151e+00
2.750975359633356333e+06 7.402690453543772264e+01 6.305056662678335755e+00 4.585729820597390649e+00
2.791279079906643834e+06 7.300575709468282071e+01 6.309527452250002000e+00 4.583318435807240299e+00
2.818317765013834462e+06 7.229801573150403726e+01 6.312812210552853465e+00 4.583398259550225617e+00
2.828304296208024025e+06 7.203057800373909458e+01 6.314130279387420330e+00 4.584150343587868548e+00
2.843098486916698981e+06 7.162648451175508058e+01 6.316281353837231549e+00 4.586658419539029197e+00
2.848593458737335168e+06 7.147338266410521612e+01 6.317181340907886522e+00 4.588305375080356185e+00
2.856794141332493164e+06 7.124090510816002109e+01 6.318720587476578388e+00 4.592112998512869027e+00
2.859865252189182211e+06 7.115232036466073851e+01 6.319399762453620895e+00 4.594219630866781756e+00
2.862401840442292392e+06 7.107837799416513747e+01 6.320031326048392017e+00 4.596397135696259184e+00
2.864500048093890771e+06 7.101660021460088501e+01 6.320624354349052787e+00 4.598619966968811035e+00
2.867667495504485443e+06 7.092207360806253291e+01 6.321723381984945433e+00 4.603249506533902746e+00
2.868867293493844569e+06 7.088578197325672647e+01 6.322248707150679436e+00 4.605601157703575588e+00
2.869865128421272151e+06 7.085535345147864916e+01 6.322763635603056542e+00 4.607950560802660078e+00
2.870696076548408251e+06 7.082981894337326878e+01 6.323269644396917855e+00 4.610290334786734334e+00
2.871388989492745139e+06 7.080837142438868170e+01 6.323767581299050811e+00 4.612612513218241617e+00
2.871967625141924247e+06 7.079033850122391414e+01 6.324258244861765021e+00 4.614904729784884196e+00
2.872853395069830585e+06 7.076248097791085456e+01 6.325214527274285459e+00 4.619347139675570091e+00
2.873194301152944565e+06 7.075166418704219495e+01 6.325684299064969984e+00 4.621512180207232312e+00
2.873481072581515647e+06 7.074251724598700264e+01 6.326145894795772939e+00 4.623622166000597389e+00
2.873722891577777918e+06 7.073476642287859306e+01 6.326598373462803515e+00 4.625675835440584471e+00
2.874099216365518980e+06 7.072262653904772378e+01 6.327468542497101112e+00 4.629605446374279509e+00
2.874247035923280753e+06 7.071782870265442966e+01 6.327888434986421728e+00 4.631494353066011982e+00
2.874480595229522791e+06 7.071020937381638305e+01 6.328684843612395916e+00 4.635063296960806767e+00
2.874574002719959244e+06 7.070714765322144046e+01 6.329063889090683404e+00 4.636757764621654232e+00
2.874724441842008382e+06 7.070219732756197573e+01 6.329775023984897331e+00 4.639934184681028029e+00
2.874839386595976539e+06 7.069839778462626612e+01 6.330428111550180148e+00 4.642851567820818204e+00
2.874928985147890635e+06 7.069542505227859408e+01 6.331024685284240228e+00 4.645521152409056498e+00
2.875000231460550800e+06 7.069305407278973519e+01 6.331567654308995152e+00 4.647958428899013228e+00
2.875057989692060277e+06 7.069112726945387237e+01 6.332060816250843160e+00 4.650180938178576362e+00
2.875126423124160618e+06 7.068883902386116347e+01 6.332715395420841276e+00 4.653150316201488224e+00
2.875179671892620623e+06 7.068705476676318256e+01 6.333282039734995372e+00 4.655745963275023769e+00
2.875222452020904049e+06 7.068561918445800529e+01 6.333773851267926247e+00 4.658025929580992042e+00
2.875268215243108571e+06 7.068408179210435094e+01 6.334332818530924669e+00 4.660658116149465791e+00
2.875313225442650728e+06 7.068256848602028697e+01 6.334908057997123976e+00 4.663427738260260469e+00
2.875355647814587224e+06 7.068114168807265685e+01 6.335462221682310435e+00 4.666171963976687209e+00
2.875392955633683130e+06 7.067988704112858045e+01 6.335955714744975431e+00 4.668659319419985465e+00
2.875441536799137946e+06 7.067825413901658749e+01 6.336586302183135899e+00 4.671937038974538936e+00
2.875482990953897592e+06 7.067686217966057427e+01 6.337108764130087835e+00 4.674712985058856241e+00
2.875510299775974825e+06 7.067594614721035384e+01 6.337446532565783386e+00 4.676514815531624514e+00
2.875543126766230911e+06 7.067484621295477609e+01 6.337847409460969139e+00 4.678644488166792570e+00
2.875582586839054246e+06 7.067352599108318145e+01 6.338323891702921209e+00 4.681145654359191610e+00
2.875630020147861447e+06 7.067194219809459810e+01 6.338891806226141235e+00 4.684062020036474649e+00
2.875687037584132515e+06 7.067004349259536866e+01 6.339570505806395140e+00 4.687433603836710816e+00
2.875755575466502924e+06 7.066776917762665278e+01 6.340382430447590423e+00 4.691291939526484711e+00
2.875756277219564654e+06 7.066774591020892160e+01 6.340390735116777421e+00 4.691330989536772300e+00
2.875838803379632533e+06 7.066501997480904151e+01 6.341362606776051791e+00 4.695691645100934508e+00
2.875917532839120366e+06 7.066243364010072980e+01 6.342279145213812086e+00 4.699598173971183179e+00
2.875918284245132469e+06 7.066240899206313486e+01 6.342287863345486443e+00 4.699634845470628264e+00
2.875992459240308963e+06 7.065998640945335296e+01 6.343137337043559754e+00 4.703062261430726032e+00
2.876077817555364687e+06 7.065721409442249978e+01 6.344091289979949977e+00 4.706671473881705481e+00
2.876078682673422620e+06 7.065718602184780650e+01 6.344100916949114932e+00 4.706707487118546140e+00
2.876181458698712289e+06 7.065386834568644758e+01 6.345200162832933088e+00 4.710542973612027673e+00
2.876275581274272874e+06 7.065084941595895884e+01 6.346151826519490058e+00 4.713573243843598881e+00
2.876364236472524237e+06 7.064802137541065008e+01 6.346987062206284058e+00 4.715951317839128798e+00
2.876365099961604457e+06 7.064799385320922909e+01 6.346995101435076947e+00 4.715973749108518298e+00
2.876468373255600221e+06 7.064471340732762883e+01 6.347874685364637060e+00 4.718072460343294416e+00
2.876592508445774205e+06 7.064078246815896023e+01 6.348792281650649905e+00 4.719648199219213858e+00
2.876848588739987928e+06 7.063267747122145579e+01 6.350238195097957394e+00 4.720242195736408242e+00
2.877015023206147831e+06 7.062738488215944699e+01 6.350850711359352196e+00 4.718865193664630198e+00
2.877215076880613808e+06 7.062096936029048777e+01 6.351295149142988095e+00 4.715772015962766517e+00
2.877408163261267822e+06 7.061469346406373404e+01 6.351474367356080286e+00 4.711415450609556466e+00
2.877410046501769684e+06 7.061463217372701706e+01 6.351475889027454080e+00 4.711371703446156189e+00
2.877637918602486141e+06 7.060710256206924385e+01 6.351542043156511497e+00 4.704388455192662022e+00
2.877640178491088562e+06 7.060702781912922887e+01 6.351542627392610996e+00 4.704318170791506937e+00
2.877642438379690517e+06 7.060695307618922811e+01 6.351543211628709606e+00 4.704247886390352740e+00
2.877782450871378183e+06 7.060222228920866883e+01 6.351540970967267441e+00 4.699098917403855324e+00
2.877924568280181848e+06 7.059734577660809407e+01 6.351529908063862528e+00 4.692537641567788853e+00
2.877925963310820051e+06 7.059729788928700600e+01 6.351529797732826665e+00 4.692472871258803302e+00
2.877927358341458254e+06 7.059725000196591793e+01 6.351529687401789914e+00 4.692408100949815974e+00
2.877928220785539597e+06 7.059721989586533653e+01 6.351530566698766478e+00 4.692362493575832794e+00
2.877929083229620475e+06 7.059718978976475512e+01 6.351531445995743930e+00 4.692316886201848725e+00
2.877929945673701819e+06 7.059715968366417371e+01 6.351532325292720493e+00 4.692271278827865544e+00
2.878060624204569031e+06 7.059259625628686763e+01 6.351666659544080495e+00 4.685329062062016270e+00
2.878061383406281006e+06 7.059256932516407801e+01 6.351667709118773431e+00 4.685280980707942966e+00
2.878062142607992515e+06 7.059254239404127418e+01 6.351668758693467254e+00 4.685232899353870550e+00
2.878062901809704490e+06 7.059251546291847035e+01 6.351669808268160189e+00 4.685184817999797247e+00
2.878177499933121260e+06 7.058844761168002435e+01 6.351830404114210182e+00 4.677871743996168341e+00
2.878178159067736007e+06 7.058842389048557209e+01 6.351831586250488826e+00 4.677823074119029201e+00
2.878178818202351220e+06 7.058840016929111982e+01 6.351832768386768358e+00 4.677774404241889172e+00
2.878179477336966433e+06 7.058837644809666756e+01 6.351833950523047001e+00 4.677725734364750032e+00
2.878278536134037655e+06 7.058480853957775025e+01 6.352011650996462144e+00 4.670326427294392069e+00
2.878279101129950956e+06 7.058478796113645615e+01 6.352012667779328048e+00 4.670277633605153689e+00
2.878279666125864722e+06 7.058476738269516204e+01 6.352013684562193063e+00 4.670228839915916197e+00
2.878280231121777557e+06 7.058474680425385372e+01 6.352014701345058967e+00 4.670180046226678705e+00
2.878364815684387460e+06 7.058166344806615200e+01 6.352179306562081962e+00 4.662820075265542208e+00
2.878365299754287116e+06 7.058164565505548183e+01 6.352180951733789271e+00 4.662774823438990524e+00
2.878365783824186772e+06 7.058162786204479744e+01 6.352182596905496581e+00 4.662729571612439727e+00
2.878438190641862340e+06 7.057896444953321691e+01 6.352436133689220554e+00 4.655895292518779982e+00
2.878438613037704956e+06 7.057894882100211476e+01 6.352437961528513810e+00 4.655852356404971637e+00
2.878439035433548503e+06 7.057893319247101260e+01 6.352439789367807066e+00 4.655809420291161516e+00
2.878502280599232297e+06 7.057659181868567089e+01 6.352726607786560287e+00 4.649338074032575818e+00
2.878502659404054750e+06 7.057657774301553388e+01 6.352728844118861851e+00 4.649297635329692646e+00
2.878503038208876736e+06 7.057656366734541109e+01 6.352731080451162526e+00 4.649257196626810362e+00
2.878503417013699189e+06 7.057654959167528830e+01 6.352733316783464090e+00 4.649216757923927190e+00
2.878560168686805293e+06 7.057443997417441039e+01 6.353079820792520316e+00 4.643110042472918586e+00
2.878560515697016381e+06 7.057442704790267385e+01 6.353082310259408061e+00 4.643071140977235167e+00
2.878560862707227468e+06 7.057441412163095151e+01 6.353084799726297582e+00 4.643032239481551748e+00
2.878612943682699930e+06 7.057247377819956569e+01 6.353468159572742024e+00 4.637147688361173969e+00
2.878613267776475754e+06 7.057246169502683131e+01 6.353470820104435646e+00 4.637109768804232424e+00
2.878613591870251112e+06 7.057244961185409693e+01 6.353473480636129267e+00 4.637071849247289990e+00
2.878662243941496592e+06 7.057063595249995558e+01 6.353880346190306838e+00 4.631332781258755915e+00
2.878662548967064824e+06 7.057062458754286638e+01 6.353883083745023086e+00 4.631295633722645633e+00
2.878662853992632590e+06 7.057061322258577718e+01 6.353885821299739334e+00 4.631258486186536238e+00
2.878708625053645112e+06 7.056890863609004327e+01 6.354296535962072667e+00 4.625621058010925601e+00
2.878708913141346537e+06 7.056889792504671277e+01 6.354299119412374353e+00 4.625584167540902847e+00
2.878752207234192174e+06 7.056728968678594072e+01 6.354673288204798709e+00 4.619938541451670488e+00
2.878752481937090401e+06 7.056727951196762660e+01 6.354675371232034742e+00 4.619900616531761983e+00
2.878752756639988627e+06 7.056726933714932670e+01 6.354677454259270775e+00 4.619862691611853478e+00
2.878793985657172278e+06 7.056574454241287242e+01 6.355016810101862035e+00 4.614171806946779419e+00
2.878794247214486822e+06 7.056573491203573667e+01 6.355019461521667523e+00 4.614135724605898048e+00
2.878794508771801833e+06 7.056572528165860092e+01 6.355022112941473011e+00 4.614099642265015788e+00
2.878833764009350911e+06 7.056428256540857546e+01 6.355428612184942594e+00 4.608651760351563098e+00
2.878834013904472813e+06 7.056427342575410933e+01 6.355431344614819622e+00 4.608616529961857111e+00
2.878834263799594715e+06 7.056426428609964319e+01 6.355434077044696650e+00 4.608581299572151124e+00
2.878871843773458153e+06 7.056289301400818204e+01 6.355852566162124795e+00 4.603250561368636973e+00
2.878872084884131327e+06 7.056288426468820774e+01 6.355855367282787327e+00 4.603215858827447882e+00
2.878872325994804036e+06 7.056287551536824765e+01 6.355858168403449859e+00 4.603181156286257902e+00
2.878908553923448082e+06 7.056156461753815279e+01 6.356292401856132201e+00 4.597953378524898049e+00
2.878908786444454920e+06 7.056155625594888647e+01 6.356295375693365557e+00 4.597919635340839584e+00
2.878943737177485134e+06 7.056030348384027207e+01 6.356747674669469106e+00 4.592821967950424522e+00
2.878943962003197987e+06 7.056029547890707931e+01 6.356750653912911275e+00 4.592788838424924691e+00
2.878944186828910373e+06 7.056028747397390077e+01 6.356753633156353445e+00 4.592755708899423972e+00
2.878977982041578274e+06 7.055908876664908291e+01 6.357207860669049637e+00 4.587760231214905282e+00
2.878978199861816131e+06 7.055908109583663190e+01 6.357210865514520748e+00 4.587727846322581016e+00
2.879010952328690328e+06 7.055793260139871848e+01 6.357671146890161218e+00 4.582855531933862636e+00
2.879011163788048550e+06 7.055792524253365627e+01 6.357674215036778875e+00 4.582824043278047377e+00
2.879011375247407239e+06 7.055791788366857986e+01 6.357677283183394756e+00 4.582792554622232117e+00
2.879043175759666599e+06 7.055681649827590718e+01 6.358141320057350221e+00 4.578048704986314554e+00
2.879043381434105802e+06 7.055680943029383911e+01 6.358144348858004058e+00 4.578017935416058393e+00
2.879074322421754245e+06 7.055575172975078146e+01 6.358605551696274283e+00 4.573396058720696544e+00
2.879074522825256921e+06 7.055574493443643291e+01 6.358608594023794858e+00 4.573366192396072449e+00
2.879074723228760064e+06 7.055573813912208436e+01 6.358611636351315433e+00 4.573336326071448354e+00
2.879104877753205597e+06 7.055472153422796566e+01 6.359072332876721134e+00 4.568853521753236002e+00
2.879105073362833820e+06 7.055471499333373231e+01 6.359075348059590738e+00 4.568824544132121801e+00
2.879134518283107318e+06 7.055373645923232573e+01 6.359529542022902326e+00 4.564478756532855286e+00
2.879134709532990120e+06 7.055373015594146580e+01 6.359532494874972741e+00 4.564450669984620568e+00
2.879163509563169442e+06 7.055278716585584675e+01 6.359978819893775892e+00 4.560248538367254412e+00
2.879163696843169630e+06 7.055278108477271815e+01 6.359981735856201190e+00 4.560221437461876803e+00
2.879191911388024688e+06 7.055187123955357720e+01 6.360420436545746625e+00 4.556169505173670586e+00
2.879192095067807473e+06 7.055186536531925867e+01 6.360423287856756147e+00 4.556143367201567429e+00
2.879219778576955665e+06 7.055098638151044099e+01 6.360853390238615290e+00 4.552243746529543778e+00
2.879219958981490694e+06 7.055098070032900637e+01 6.360856195759464704e+00 4.552218627322547562e+00
2.879247161457072943e+06 7.055013042240216237e+01 6.361277986826646469e+00 4.548472549603378212e+00
2.879247338901963085e+06 7.055012492043223915e+01 6.361280729535307543e+00 4.548448403933466722e+00
2.879274106982052326e+06 7.054930128959374258e+01 6.361693896558382910e+00 4.544851824256385342e+00
2.879274281748741865e+06 7.054929595431579514e+01 6.361696590257919226e+00 4.544828646509492032e+00
2.879300658428625204e+06 7.054849704567634205e+01 6.362102412286976261e+00 4.541376890358359120e+00
2.879300830786892213e+06 7.054849186493183311e+01 6.362105059572403576e+00 4.541354626218857327e+00
2.879326856405227445e+06 7.054771585675831602e+01 6.362503970383748708e+00 4.538039928711024018e+00
2.879352570413891226e+06 7.054696092153849918e+01 6.362896834056562589e+00 4.534853771151885482e+00
2.879352738685071934e+06 7.054695601687751605e+01 6.362899401857384341e+00 4.534833190386020618e+00
2.879378174273695797e+06 7.054622071089684709e+01 6.363287657735050118e+00 4.531769093901941048e+00
2.879403366322655231e+06 7.054550343285403358e+01 6.363673749845110805e+00 4.528821229590461073e+00
2.879403531389840879e+06 7.054549876476164627e+01 6.363676287476624616e+00 4.528802170621676559e+00
2.879428509714131709e+06 7.054479823404830086e+01 6.364064170847898438e+00 4.525971439614940195e+00
2.879453305377571844e+06 7.054411300040965216e+01 6.364456908150950554e+00 4.523256430634307712e+00
2.879453468031167984e+06 7.054410853346058730e+01 6.364459507646823333e+00 4.523238887700201438e+00
2.879478108537266962e+06 7.054343739238927924e+01 6.364859882072490649e+00 4.520638123156130561e+00
2.879502622349377256e+06 7.054277900523088363e+01 6.365276511060146802e+00 4.518156942823537747e+00
2.879527035863688681e+06 7.054213212200639305e+01 6.365735101357055115e+00 4.515824421297965685e+00
2.879551374659605790e+06 7.054149533149944773e+01 6.366390344997338246e+00 4.513789626686137701e+00
2.879575663247425109e+06 7.054086615975356267e+01 6.367144385040674592e+00 4.512151142362117895e+00
2.879599925196966156e+06 7.054024208162493892e+01 6.367753598696609174e+00 4.510618141044808738e+00
2.879627212334060576e+06 7.053954544930398640e+01 6.368300434740255866e+00 4.508884311081024165e+00
2.879659995196310803e+06 7.053871607402444965e+01 6.368907499775672498e+00 4.506843703743209417e+00
2.879693659413476009e+06 7.053787322812385696e+01 6.369516716594097794e+00 4.504784831206655404e+00
2.879726611897566356e+06 7.053705759406216202e+01 6.370101743681605200e+00 4.502802047612201264e+00
2.879759351897152141e+06 7.053625613282891038e+01 6.370670898913056490e+00 4.500858655729112812e+00
2.879791873765557073e+06 7.053546879318875540e+01 6.371227301297643919e+00 4.498950545828030556e+00
2.879824270565720275e+06 7.053350990197620263e+01 6.371687683684731596e+00 4.497119710002263737e+00
2.879856607883162331e+06 7.053095634094866284e+01 6.372141737771563896e+00 4.495321491413985626e+00
2.879893314743374474e+06 7.052805238777975205e+01 6.372690599813061851e+00 4.493279613745873036e+00
2.879937414016454015e+06 7.052455629383811697e+01 6.373363673254193174e+00 4.490833524689611167e+00
2.879982258929807693e+06 7.052099255679857492e+01 6.374069796652554132e+00 4.488366593833100993e+00
2.879982548943147063e+06 7.052096949051525598e+01 6.374074419237010680e+00 4.488350694879711611e+00
2.880026777743740939e+06 7.051744486433449310e+01 6.374780074821047471e+00 4.485935126174685372e+00
2.880070916110113263e+06 7.051391760973363887e+01 6.375485485294087873e+00 4.483537403168833535e+00
2.880121313964950386e+06 7.050987840019354280e+01 6.376284352029531810e+00 4.480811984322917496e+00
2.880121661936330143e+06 7.050985049226660806e+01 6.376289851888163440e+00 4.480793185052882599e+00
2.880182278550686780e+06 7.050497691810915057e+01 6.377248945400046054e+00 4.477536786996081375e+00
2.880243338113105856e+06 7.050005018609508056e+01 6.378243579399727636e+00 4.474302620028179689e+00
2.880243734157179017e+06 7.050001819660928959e+01 6.378250099702304610e+00 4.474281741053435901e+00
2.880304237447555643e+06 7.049511621844453657e+01 6.379251778431989983e+00 4.471117732003052403e+00
2.880304636163481977e+06 7.049508388179799567e+01 6.379258391653321425e+00 4.471096937195945920e+00
2.880374491193769500e+06 7.048939998881331803e+01 6.380409398729653070e+00 4.467477852027195162e+00
2.880374969652880915e+06 7.048936102524686476e+01 6.380417268825414823e+00 4.467453106577945476e+00
2.880458987072870601e+06 7.048249305519787811e+01 6.381812117328563794e+00 4.463165419183329874e+00
2.880459561223804485e+06 7.048244607885219182e+01 6.381821670423878601e+00 4.463136212894175614e+00
2.880543228306783363e+06 7.047556960530583581e+01 6.383259676253246973e+00 4.458961929087992715e+00
2.880543772425559349e+06 7.047552482838513299e+01 6.383269112143074686e+00 4.458934931733382179e+00
2.880626861067889724e+06 7.046865362539647037e+01 6.384713989433622672e+00 4.454851387124229234e+00
2.880627408322636038e+06 7.046860831477870590e+01 6.384723512389325784e+00 4.454824554140861537e+00
2.880710306875857990e+06 7.046171030765059129e+01 6.386171292729104998e+00 4.450803620126878357e+00
2.880710851838924922e+06 7.046166490999065957e+01 6.386180818032169526e+00 4.450777252300429865e+00
2.880807419294419698e+06 7.045357750088882653e+01 6.387839664339258761e+00 4.446120564714807877e+00
2.880808073250100482e+06 7.045352268287339825e+01 6.387850864247412552e+00 4.446089047856887966e+00
2.880808727205781266e+06 7.045346786485796997e+01 6.387862064155566344e+00 4.446057530998968055e+00
2.880925000525783747e+06 7.044366048790392654e+01 6.389860818023889166e+00 4.440562431520069353e+00
2.880925785272600595e+06 7.044359423548067412e+01 6.389874315357072732e+00 4.440525453134435807e+00
2.881037499772885814e+06 7.043409216103825088e+01 6.391859715332699921e+00 4.435510168503181028e+00
2.881038226756222080e+06 7.043403024673631307e+01 6.391872707363072337e+00 4.435477811720486940e+00
2.881038953739559278e+06 7.043396833243436106e+01 6.391885699393444753e+00 4.435445454937792853e+00
2.881148192038062494e+06 7.042458863438750427e+01 6.393841514641708912e+00 4.430804717233044698e+00
2.881148909594766796e+06 7.042452695348741543e+01 6.393854365079780777e+00 4.430774431295609439e+00
2.881257499954729807e+06 7.041511450164195196e+01 6.395793568743361135e+00 4.426459871331576146e+00
2.881258213994822931e+06 7.041505254901368005e+01 6.395806315777584850e+00 4.426431709677420834e+00
2.881258928034916520e+06 7.041499059638542235e+01 6.395819062811809452e+00 4.426403548023266410e+00
2.881366922315574717e+06 7.040553979618078984e+01 6.397740482048936528e+00 4.422459792010131174e+00
2.881367632472117431e+06 7.040547759894312208e+01 6.397753113040247186e+00 4.422434053488482952e+00
2.881475143954642583e+06 7.039597821976612124e+01 6.399650021860948002e+00 4.418888960727485937e+00
2.881582243150256574e+06 7.038642309115986961e+01 6.401520399679014872e+00 4.415770338337258849e+00
2.881582947574838065e+06 7.038636020428353390e+01 6.401532693335651558e+00 4.415750005400149725e+00
2.881689695498465095e+06 7.037674058060764537e+01 6.403392933981088220e+00 4.413092354057868150e+00
2.881796148623209912e+06 7.036704801121416608e+01 6.405258587097171663e+00 4.410963099804527054e+00
2.881902357407175470e+06 7.035727105711173124e+01 6.407094958749232738e+00 4.409161664096614253e+00
2.882008377036842052e+06 7.034740765825212350e+01 6.408798946727984003e+00 4.407128743717561470e+00
2.882009074494202156e+06 7.034734274887122751e+01 6.408810127823112879e+00 4.407115314650424054e+00
2.882345946139612701e+06 7.031536004013557317e+01 6.413668706921417773e+00 4.405604758069394222e+00
2.882640545580485836e+06 7.028665073263766772e+01 6.416453718963929020e+00 4.403784401953199534e+00
2.882923800628256984e+06 7.025864304187396669e+01 6.418989210340361851e+00 4.402456677383768557e+00
2.882929136997849680e+06 7.025810992250252696e+01 6.419033661020907999e+00 4.402527034322117672e+00
2.883073109650399070e+06 7.024371279702003790e+01 6.420221284796250316e+00 4.404411208816492618e+00
2.883215559082563035e+06 7.022927734709379877e+01 6.421246640139298911e+00 4.406044851975368992e+00
2.883356545386565849e+06 7.021482823334136469e+01 6.422183947299799911e+00 4.407113928812091963e+00
2.883628998715918511e+06 7.018659177251348069e+01 6.423312510968980149e+00 4.408738678172849035e+00
2.883765525677816942e+06 7.017231200581679218e+01 6.423601371058349052e+00 4.410359165041037421e+00
2.883770538479801267e+06 7.017178548610817757e+01 6.423598391460188850e+00 4.410501319421107347e+00
2.883775551281786058e+06 7.017125896639959137e+01 6.423595411862028648e+00 4.410643473801178160e+00
2.883910383607794065e+06 7.015704051638564920e+01 6.423561649188864742e+00 4.413596815905430404e+00
2.884170336793190800e+06 7.012929556034376333e+01 6.423918985846873042e+00 4.415352765009097347e+00
2.884300296021046583e+06 7.011533151791496721e+01 6.424173570586853899e+00 4.416097116772759179e+00
2.884550742679570802e+06 7.008824723537887280e+01 6.424697933777112624e+00 4.417557455852204384e+00
2.884795913663462270e+06 7.006150878838835183e+01 6.425190395782790276e+00 4.419055471968404092e+00
2.884919372036511078e+06 7.004795961641612223e+01 6.425466926422787495e+00 4.419800021964044312e+00
2.885174160743337125e+06 7.001981714498109000e+01 6.426056988543944470e+00 4.421257457135737923e+00
2.885504284228144214e+06 6.998303712208297611e+01 6.426800938068375046e+00 4.422730336492938896e+00
2.885914223404777702e+06 6.993692856914799449e+01 6.427593263466510720e+00 4.424263790817556163e+00
2.886189247154459823e+06 6.990577290661840948e+01 6.428109391220815816e+00 4.425081008653892312e+00
2.886521432703095954e+06 6.986793799135722338e+01 6.428483716818656823e+00 4.426085070236480234e+00
2.886922643820280209e+06 6.982199877047284531e+01 6.428114271641167221e+00 4.427796647504666616e+00
2.887407203311486170e+06 6.976625066543972764e+01 6.427970535264834417e+00 4.429639005551770481e+00
2.887992402081633918e+06 6.969849393433240436e+01 6.428266886457576490e+00 4.431414801531805558e+00
2.888014766365843825e+06 6.969590181209699153e+01 6.428280454499534002e+00 4.431480232608616454e+00
2.888725950603705365e+06 6.961290582885546030e+01 6.428700878150069187e+00 4.433353201496250229e+00
2.889584739117349964e+06 6.951189229124207714e+01 6.429038956057158138e+00 4.435432951623478282e+00
2.889616943686611485e+06 6.950810248179266182e+01 6.429051213441692170e+00 4.435510552709709842e+00
2.895038031172791496e+06 6.885789427231715365e+01 6.429277444562122135e+00 4.445647433797180526e+00
2.902689363984383643e+06 6.792053320525995730e+01 6.428925036857090269e+00 4.455770070351747769e+00
2.910719967093157116e+06 6.692220291702027168e+01 6.428654955810849891e+00 4.464730214334447389e+00
2.922200393866085447e+06 6.547745754808529739e+01 6.428387568683135989e+00 4.477477407028772838e+00
2.932250773860325571e+06 6.419683484461197054e+01 6.427975455902593005e+00 4.490615720100236352e+00
2.936542446017127950e+06 6.364448044540723970e+01 6.427763940731623826e+00 4.497243757528885055e+00
2.943796995315265842e+06 6.270161089508196284e+01 6.427353022714483721e+00 4.511039314886137852e+00
2.946819609962073155e+06 6.230496939265611189e+01 6.427243367282825304e+00 4.518811628630374777e+00
2.950354551945113111e+06 6.183866615688106805e+01 6.427413919541686838e+00 4.531719132875083211e+00
2.952368846553141717e+06 6.157286282929520382e+01 6.427382286975610981e+00 4.543623557776906630e+00
2.953796506353781559e+06 6.138448897818454242e+01 6.427354652781603228e+00 4.557825688909678874e+00
2.954321103445647284e+06 6.131527539008989436e+01 6.427349464490652586e+00 4.565712821472389216e+00
2.954767535090062302e+06 6.125637558857737019e+01 6.427344700129378197e+00 4.574241316351323583e+00
2.955421330253798980e+06 6.117011804191601954e+01 6.427371074150203256e+00 4.591968550268200389e+00
2.955655322070444934e+06 6.113924448876942108e+01 6.427397348946122690e+00 4.600745102832755506e+00
2.955842347980431281e+06 6.111456584478804643e+01 6.427434547677058241e+00 4.609164426846380280e+00
2.956117316621976439e+06 6.107827677529489563e+01 6.427519556330747008e+00 4.624497460028611506e+00
2.956315132784788497e+06 6.105216340541743847e+01 6.427593102910842404e+00 4.637896149829063397e+00
2.956473420179242268e+06 6.103126365254247787e+01 6.427646017824262259e+00 4.649929407452245478e+00
2.956611349847723730e+06 6.101304883550896818e+01 6.427678557779662682e+00 4.661068408163848709e+00
2.956738828596201260e+06 6.099621143542293566e+01 6.427701270496163133e+00 4.671808746080795771e+00
2.956859902510630433e+06 6.098021599466085263e+01 6.427714987208160480e+00 4.682418371388620493e+00
2.956976079921629280e+06 6.096486048439761873e+01 6.427707806200675833e+00 4.692874972901313946e+00
2.957088952570075169e+06 6.094992946341690754e+01 6.427672661316796265e+00 4.703120855820792201e+00
2.957200349210707936e+06 6.093517217725070623e+01 6.427616074963070858e+00 4.713240496601992291e+00
2.957366220342269167e+06 6.091312599332934496e+01 6.427505054492804959e+00 4.728395482192804700e+00
2.957476266707724892e+06 6.089842145890125380e+01 6.427417302994189896e+00 4.738610653773589476e+00
2.957584915256450884e+06 6.088381166386891863e+01 6.427329148872402698e+00 4.748939123723458167e+00
2.957691222663326189e+06 6.086940041178949912e+01 6.427221881762136491e+00 4.759383809116207509e+00
2.957794425305363256e+06 6.085526700474621720e+01 6.427072935994864622e+00 4.769809778445594617e+00
2.957948615131683648e+06 6.083379973333212831e+01 6.426700661937038817e+00 4.785701597035105337e+00
2.958013924722930416e+06 6.082444489177579072e+01 6.426594639859867897e+00 4.793732947440934922e+00
2.958142175845424645e+06 6.080476546586989173e+01 6.426138047059092528e+00 4.805482501498433479e+00
2.958544042754015885e+06 6.073801827125146247e+01 6.425315886523947029e+00 4.816312686778282171e+00
2.959379362286272459e+06 6.059685332557720017e+01 6.424468456221243073e+00 4.829292239990544466e+00
2.960093242897920310e+06 6.047484134088664121e+01 6.423737033788285089e+00 4.838896128016242137e+00
2.961123688676777761e+06 6.029670355687683525e+01 6.422592823722121480e+00 4.848700921076847692e+00
2.962611069683575071e+06 6.003842078362667678e+01 6.420837142330772629e+00 4.859649371914684934e+00
2.964206178567229770e+06 5.976232795743914750e+01 6.418785403437335724e+00 4.871437707307702425e+00
2.965616558458507992e+06 5.951953996930248536e+01 6.416789721947130154e+00 4.882301188600902897e+00
2.967586003906648606e+06 5.918286264151590359e+01 6.413728947225272314e+00 4.898081089859998016e+00
2.968843768412646838e+06 5.896940154717671589e+01 6.411605867033576267e+00 4.908538165518827157e+00
2.970063463497003540e+06 5.876363367090256418e+01 6.409414324132349350e+00 4.918992628262142119e+00
2.971246285424901173e+06 5.856526250527301158e+01 6.407150813620877905e+00 4.929448487237250376e+00
2.972395038825518917e+06 5.837366141489707161e+01 6.404805698543041714e+00 4.939713516022523621e+00
2.973795050758304074e+06 5.814151700274366874e+01 6.401750594249874915e+00 4.951948325064732259e+00
2.975189403874129988e+06 5.791202407832221155e+01 6.398516403152154197e+00 4.963900710736466770e+00
2.976413928442696109e+06 5.771217840695483403e+01 6.395514356871109918e+00 4.974328419322437078e+00
2.977607173010531813e+06 5.751894116002744539e+01 6.392455388199518751e+00 4.984381110524127578e+00
2.979087223634081427e+06 5.728119312398933971e+01 6.388507867893350678e+00 4.996449838030330604e+00
2.980558800988336559e+06 5.704691576890097338e+01 6.384460525844021461e+00 5.007767208253802949e+00
2.982000746672647540e+06 5.681955923073796555e+01 6.380474162448209086e+00 5.017928206906790756e+00
2.983816643889723346e+06 5.653611910859409306e+01 6.375608865107127876e+00 5.029264198490714932e+00
2.985630270488991402e+06 5.625636852318157821e+01 6.371158131106524181e+00 5.039428542998185989e+00
2.989172886236595456e+06 5.571749648715531578e+01 6.364286747456620930e+00 5.055079931962180417e+00
2.992201652661875822e+06 5.526216094635942966e+01 6.360499987717055603e+00 5.065300762649530775e+00
2.995967711177646182e+06 5.469856943284941053e+01 6.357730043546356846e+00 5.079201648311872930e+00
2.997802729424652178e+06 5.442282958998647757e+01 6.356718314763884159e+00 5.088375300357251163e+00
2.999266254680979531e+06 5.420082188630928499e+01 6.355901213056744048e+00 5.097521346413403265e+00
3.001356916450794321e+06 5.387724066649061427e+01 6.354428168593851289e+00 5.113557861646209624e+00
3.002139618389578536e+06 5.375311397333972252e+01 6.353705276411774960e+00 5.120201588249115865e+00
3.003461478114967700e+06 5.353857401727746890e+01 6.352190774391170969e+00 5.131271409153083773e+00
3.005654763165738899e+06 5.316835398651222278e+01 6.348904661178569775e+00 5.145117594662349525e+00
3.011197368302712217e+06 5.219809549389972858e+01 6.339496094574284868e+00 5.152346178348492955e+00
3.031209908514029346e+06 4.885159592142768759e+01 6.309008963179042695e+00 5.162150739132720823e+00
3.038599878425439820e+06 4.728229506326113096e+01 6.285751340150029343e+00 5.157086304476734107e+00
3.058468856461188290e+06 4.314901456941492341e+01 6.241728548730662851e+00 5.157527538296895031e+00
3.081362533361154608e+06 3.988653255197920799e+01 6.204258846430807495e+00 5.159060534422179600e+00
3.113889047306064051e+06 3.665890731671110814e+01 6.166744393813714531e+00 5.162644166203051554e+00
3.145342374367625918e+06 3.461990149641210479e+01 6.144913510550540359e+00 5.170428683325048347e+00
3.164326882677818183e+06 3.371859475434319364e+01 6.137414095902468780e+00 5.179339730098276640e+00
3.176069840329471510e+06 3.325603070541738759e+01 6.135708993591402205e+00 5.189239074541183605e+00
3.182205779734877404e+06 3.303390586817383223e+01 6.136985917491539766e+00 5.199269287326387712e+00
3.185485031318726949e+06 3.292047411010028668e+01 6.141082510701762587e+00 5.212735847994957261e+00
3.186212553774361499e+06 3.289543953174123914e+01 6.144466206456013602e+00 5.221305646364958974e+00
3.186595089944809210e+06 3.288220205337294288e+01 6.147604993049204047e+00 5.229257707654092258e+00
3.186673988635501824e+06 3.287945951114281229e+01 6.148547676013101260e+00 5.231624496249397183e+00
3.186736983582255431e+06 3.287726525326188209e+01 6.149373027766688260e+00 5.233674824132320325e+00
3.186827120918666013e+06 3.287411751685274197e+01 6.150639725487315523e+00 5.236773247441163015e+00
3.186893250146533828e+06 3.287180176501620110e+01 6.151609323135287077e+00 5.239108102202848727e+00
3.186982776093153749e+06 3.286865896424004063e+01 6.152948804584832843e+00 5.242244375947712420e+00
3.187041801256753504e+06 3.286658199870155528e+01 6.153840613713239094e+00 5.244286975326019729e+00
3.187112768720895518e+06 3.286407961971302427e+01 6.154917062071315392e+00 5.246728829447921072e+00
3.187198094399253372e+06 3.286106342489407695e+01 6.156211601504327113e+00 5.249599427744242597e+00
3.187300682878945954e+06 3.285742613022863878e+01 6.157769729908719292e+00 5.253028630933330945e+00
3.187301868872930296e+06 3.285738394962939424e+01 6.157787710600187481e+00 5.253067520180654704e+00
3.187425449446155690e+06 3.285298642832515270e+01 6.159660951422325503e+00 5.257115229463313000e+00
3.187426872638937086e+06 3.285293560225491660e+01 6.159682496685832120e+00 5.257161482897514837e+00
3.187575738603919744e+06 3.284761529472594788e+01 6.161933949441477765e+00 5.261965947596028315e+00
3.187577446435257792e+06 3.284755400339688691e+01 6.161959635926366197e+00 5.262018863677149660e+00
3.187748886554052122e+06 3.284139653113157920e+01 6.164536706365792540e+00 5.267323438901951427e+00
3.187750410473543219e+06 3.284134152268910611e+01 6.164559529449407549e+00 5.267370163979764541e+00
3.187904563595032319e+06 3.283577257774482661e+01 6.166866983914319533e+00 5.272085855692163037e+00
3.188051748728909064e+06 3.283042819112102251e+01 6.169063181277278929e+00 5.276517629887276684e+00
3.188053167259098031e+06 3.283037648041330669e+01 6.169084311986845037e+00 5.276559587773094862e+00
3.188197675777830649e+06 3.282510385757505844e+01 6.171236107198827092e+00 5.280810226254260442e+00
3.188347359597358387e+06 3.281961619905017358e+01 6.173463609720647227e+00 5.285110716282661159e+00
3.188349050939952489e+06 3.281955397704710720e+01 6.173488859271153650e+00 5.285159269523612480e+00
3.188529348060423043e+06 3.281291177924595104e+01 6.176183437978110646e+00 5.290294425134572265e+00
3.188531377671535127e+06 3.281283670709122902e+01 6.176213866857108492e+00 5.290350922942216982e+00
3.188533407282647211e+06 3.281276163493650699e+01 6.176244295736107226e+00 5.290407420749861700e+00
3.188731825325657614e+06 3.280541185307080099e+01 6.179224857303436735e+00 5.295931974316735236e+00
3.188901134061623830e+06 3.279910022063653940e+01 6.181793681527691042e+00 5.300634413278366708e+00
3.188902685995026492e+06 3.279904212934695096e+01 6.181817459195175779e+00 5.300677090485009124e+00
3.189058768137465231e+06 3.279319169384591959e+01 6.184222052276830084e+00 5.304965591935618896e+00
3.189060243689327501e+06 3.279313618448865242e+01 6.184245115151150607e+00 5.305006042465471694e+00
3.189209210379146971e+06 3.278752403220541112e+01 6.186594308477358695e+00 5.309102631431990460e+00
3.189353232284237631e+06 3.278207139560451111e+01 6.188944762561881419e+00 5.313135984879375329e+00
3.189354613840210252e+06 3.278201891316456340e+01 6.188967991421918668e+00 5.313175613773105432e+00
3.189493756798074115e+06 3.277672456163432457e+01 6.191359483063378022e+00 5.317270343290304346e+00
3.189495086126065347e+06 3.277667381029273486e+01 6.191383363332759515e+00 5.317311518723939479e+00
3.189628127900887281e+06 3.277158540824898125e+01 6.193859781097049932e+00 5.321640348461462722e+00
3.189629386404425837e+06 3.277153710787401053e+01 6.193884789985527384e+00 5.321685105436951169e+00
3.189753951463443693e+06 3.276674678891946968e+01 6.196513171865696279e+00 5.326505797184964308e+00
3.189755109906405676e+06 3.276670207589430106e+01 6.196540219576686326e+00 5.326557277324878825e+00
3.189867617393057793e+06 3.276234946487355160e+01 6.199478375411318964e+00 5.332427255293586299e+00
3.189868634493633173e+06 3.276230995478704955e+01 6.199509905355149897e+00 5.332494210525936751e+00
3.189869651594208088e+06 3.276227044470054039e+01 6.199541435298980829e+00 5.332561165758287203e+00
3.189947304687789641e+06 3.275924847632821724e+01 6.202119877546216742e+00 5.338245025690364187e+00
3.189947715017083567e+06 3.275923240950802295e+01 6.202136579303452635e+00 5.338285339672303564e+00
3.189990498522425070e+06 3.275755383467604531e+01 6.204281487378541016e+00 5.343818616367906671e+00
3.189990929516549222e+06 3.275753688431869648e+01 6.204307996443264805e+00 5.343890513695129130e+00
3.189991360510673374e+06 3.275751993396134054e+01 6.204334505507988595e+00 5.343962411022351588e+00
3.190016732101950794e+06 3.275652150200646417e+01 6.205029561285087425e+00 5.332626193862431307e+00
3.190016775808379520e+06 3.275651977049275843e+01 6.205014218915962942e+00 5.332309138178473518e+00
3.190016819514808245e+06 3.275651803897905268e+01 6.204998876546836684e+00 5.331992082494515728e+00
3.190016863221236505e+06 3.275651630746534693e+01 6.204983534177712201e+00 5.331675026810557938e+00
3.190016906927665230e+06 3.275651457595164118e+01 6.204968191808586830e+00 5.331357971126601036e+00
3.190016950634093955e+06 3.275651284443793543e+01 6.204952849439461460e+00 5.331040915442644135e+00
3.190016994340522215e+06 3.275651111292422968e+01 6.204937507070336977e+00 5.330723859758686345e+00
3.190017038046950940e+06 3.275650938141052393e+01 6.204922164701210718e+00 5.330406804074728555e+00
3.190017081753379200e+06 3.275650764989681818e+01 6.204906822332084460e+00 5.330089748390770765e+00
3.190017125459807925e+06 3.275650591838311243e+01 6.204891479962959977e+00 5.329772692706812975e+00
3.190017169166236185e+06 3.275650418686941379e+01 6.204876137593834606e+00 5.329455637022855186e+00
3.190021111486093141e+06 3.275634838515293978e+01 6.204433780985269209e+00 5.316331484157290177e+00
3.190027822506846860e+06 3.275608346863926101e+01 6.205094880586814021e+00 5.319174645366832266e+00
3.190034829852928407e+06 3.275580631549592425e+01 6.205863391837755927e+00 5.322647528169579090e+00
3.190039299966637045e+06 3.275562921470820754e+01 6.206428962401554728e+00 5.324953677808622388e+00
3.190044673480947502e+06 3.275541597395962157e+01 6.207238382587423331e+00 5.328119268394954311e+00
3.190044729748113081e+06 3.275541373971595505e+01 6.207247400443486995e+00 5.328154196685532362e+00
3.190051200472151861e+06 3.275515634440272095e+01 6.208591024884971610e+00 5.333340388351584416e+00
3.190051267992750742e+06 3.275515365627506270e+01 6.208606562789082517e+00 5.333400293657963864e+00
3.190051335513349622e+06 3.275515096814741156e+01 6.208622100693191648e+00 5.333460198964342425e+00
3.190056386054129805e+06 3.275494939500290315e+01 6.210138518784274808e+00 5.339519667885729959e+00
3.190056426566489041e+06 3.275494777475577735e+01 6.210153050098265126e+00 5.339578825069620116e+00
3.190060375728372950e+06 3.275478937545975811e+01 6.212656398598695340e+00 5.350065133978475274e+00
3.190060413625035435e+06 3.275478785329706710e+01 6.212685517833733684e+00 5.350187895107394453e+00
3.190060451521698385e+06 3.275478633113438320e+01 6.212714637068772916e+00 5.350310656236313633e+00
3.190060489418360405e+06 3.275478480897169220e+01 6.212743756303812148e+00 5.350433417365233701e+00
3.190060527315023355e+06 3.275478328680900120e+01 6.212772875538850492e+00 5.350556178494153770e+00
3.190060565211686306e+06 3.275478176464631730e+01 6.212801994773890613e+00 5.350678939623073838e+00
3.190062702583462931e+06 3.275469551135459767e+01 6.215734482773479286e+00 5.365225536625329639e+00
3.190062717742127832e+06 3.275469489718273053e+01 6.215763106298330065e+00 5.365374941989149882e+00
3.190062732900792733e+06 3.275469428301086339e+01 6.215791729823179068e+00 5.365524347352970125e+00
3.190062748059458099e+06 3.275469366883899625e+01 6.215820353348028959e+00 5.365673752716789480e+00
3.190062763218123000e+06 3.275469305466713621e+01 6.215848976872877962e+00 5.365823158080609723e+00
3.190063572690838017e+06 3.275466008674556662e+01 6.218266546975644182e+00 5.379079506891546458e+00
3.190063578754303977e+06 3.275465983896392430e+01 6.218288972606273113e+00 5.379204430794888303e+00
3.190063584817769937e+06 3.275465959118229620e+01 6.218311398236902043e+00 5.379329354698230148e+00
3.190063590881235898e+06 3.275465934340066099e+01 6.218333823867530974e+00 5.379454278601572881e+00
3.190063596944702324e+06 3.275465909561902578e+01 6.218356249498159016e+00 5.379579202504915614e+00
3.190064111126621254e+06 3.275463820033670714e+01 6.221731472121274642e+00 5.397001837820424086e+00
3.190064115977394395e+06 3.275463800346722110e+01 6.221766546685612909e+00 5.397181184946727051e+00
3.190064120828167070e+06 3.275463780659772794e+01 6.221801621249950287e+00 5.397360532073030015e+00
3.190064125678940210e+06 3.275463760972823479e+01 6.221836695814288554e+00 5.397539879199332979e+00
3.190064130529712886e+06 3.275463741285874875e+01 6.221871770378626820e+00 5.397719226325635056e+00
3.190064135380485561e+06 3.275463721598925559e+01 6.221906844942963311e+00 5.397898573451937132e+00
3.190064140231258236e+06 3.275463701911976955e+01 6.221941919507301577e+00 5.398077920578240985e+00
3.190064145082031377e+06 3.275463682225027640e+01 6.221976994071638956e+00 5.398257267704543061e+00
3.190064366277271882e+06 3.275462846780128956e+01 6.225911040326105095e+00 5.416995446565174177e+00
3.190064368217581417e+06 3.275462839567902051e+01 6.225949906812698664e+00 5.417179525308261745e+00
3.190064370157890022e+06 3.275462832355675147e+01 6.225988773299291346e+00 5.417363604051348425e+00
3.190064372098199092e+06 3.275462825143448953e+01 6.226027639785884027e+00 5.417547682794435993e+00
3.190064374038508162e+06 3.275462817931222048e+01 6.226066506272477596e+00 5.417731761537523560e+00
3.190064375978817698e+06 3.275462810718995144e+01 6.226105372759071166e+00 5.417915840280611128e+00
3.190064377919126768e+06 3.275462803506768950e+01 6.226144239245663847e+00 5.418099919023698696e+00
3.190064379859435838e+06 3.275462796294542045e+01 6.226183105732257417e+00 5.418283997766785376e+00
